epsilon,plal-mean,plal-std,random-mean,random-std,queries-mean,queries-std
0.01,0.0,0.0,2.1241830065359486,0.083317312313604272,27.483333333333334,0.083317312313604272
0.05,0.049019607843135304,0.040024342202337915,2.5816993464052302,0.14056087037651341,8.8166666666666647,0.14056087037651341
0.1,0.19607843137255068,0.10589445585633996,3.1372549019607825,0.93780031714259371,5.7666666666666666,0.93780031714259371
0.15,2.3202614379084943,2.5390495483203264,3.7254901960784301,0.72154909038625736,2.9666666666666663,0.72154909038625736
0.2,0.32679738562091626,0.26649520310947933,3.7091503267973849,0.7437782141660757,3.9833333333333338,0.7437782141660757
0.25,0.24509803921568599,0.24995193694082585,3.7091503267973849,0.7437782141660757,3.4500000000000006,0.7437782141660757
0.3,1.5849673202614365,0.82058036140455326,3.8725490196078405,0.90210285894393982,1.5333333333333332,0.90210285894393982
