lambda,A-mean,A-std,B-mean,B-std,C-mean,C-std
0.0,0.0,0.0,0.0,0.0,0.0,0.0
0.050000000000000003,0.0,0.0,0.0,0.0,0.0,0.0
0.10000000000000001,0.0,0.0,0.0,0.0,0.0,0.0
0.15000000000000002,0.0,0.0,0.0,0.0,0.0,0.0
0.20000000000000001,0.0,0.0,0.0,0.0,0.0,0.0
0.25,0.0,0.0,0.0,0.0,0.0,0.0
0.30000000000000004,0.0,0.0,0.0,0.0,0.0,0.0
0.35000000000000003,0.0,0.0,0.0,0.0,0.0,0.0
0.40000000000000002,0.0,0.0,0.0,0.0,0.0,0.0
0.45000000000000001,0.0,0.0,0.0,0.0,0.0,0.0
0.5,0.0,0.0,0.0,0.0,0.0,0.0
0.55000000000000004,0.0,0.0,0.0,0.0,0.0,0.0
0.60000000000000009,0.0,0.0,0.0,0.0,0.0,0.0
0.65000000000000002,0.0,0.0,0.0,0.0,0.0,0.0
0.70000000000000007,0.0,0.0,0.0,0.0,0.0,0.0
0.75,0.0,0.0,0.0,0.0,0.0,0.0
0.80000000000000004,0.0,0.0,0.0,0.0,0.0,0.0
0.85000000000000009,0.0,0.0,0.0,0.0,0.0,0.0
0.90000000000000002,0.0,0.0,0.0,0.0,0.0,0.0
0.95000000000000007,0.0,0.0,0.0,0.0,0.0,0.0
1.0,0.0,0.0,0.0,0.0,0.0,0.0
1.05,0.0,0.0,0.0,0.0,0.0,0.0
1.1000000000000001,0.0,0.0,0.0,0.0,0.0,0.0
1.1500000000000001,0.0,0.0,0.0,0.0,0.0,0.0
1.2000000000000002,0.0,0.0,0.0,0.0,0.0,0.0
1.25,0.0,0.0,0.0,0.0,0.0,0.0
1.3,0.0,0.0,0.0,0.0,0.0,0.0
1.3500000000000001,0.0,0.0,0.0,0.0,0.0,0.0
1.4000000000000001,0.0,0.0,0.0,0.0,0.0,0.0
1.4500000000000002,0.12000000000000002,0.256124969497314,0.0,0.0,0.0,0.0
1.5,0.16,0.26532998322843204,0.0,0.0,0.0,0.0
1.55,0.29999999999999999,0.34928498393145962,0.0,0.0,0.0,0.0
1.6000000000000001,0.32000000000000001,0.35999999999999999,0.0,0.0,0.0,0.0
1.6500000000000001,0.44000000000000006,0.44542114902640173,0.0,0.0,0.0,0.0
1.7000000000000002,0.65999999999999992,0.60033324079214545,0.0,0.0,0.0,0.0
1.75,0.90000000000000002,0.82097503007095174,0.0,0.0,0.0,0.0
1.8,1.28,1.2139192724394814,0.0,0.0,0.0,0.0
1.8500000000000001,1.6000000000000001,1.3827508813954885,0.0,0.0,0.0,0.0
1.9000000000000001,2.3199999999999998,1.5753094934012175,0.0,0.0,0.0,0.0
1.9500000000000002,3.1799999999999997,2.1989997726239081,0.0,0.0,0.0,0.0
2.0,4.3399999999999999,2.5377943179067923,0.0,0.0,0.0,0.0
2.0500000000000003,5.4799999999999995,3.051819129633996,0.0,0.0,0.0,0.0
2.1000000000000001,6.8400000000000007,3.4091641204260026,0.0,0.0,0.0,0.0
2.1499999999999999,8.2600000000000016,4.0704299527199828,0.0,0.0,0.0,0.0
2.2000000000000002,10.220000000000002,4.9254035367673179,0.0,0.0,0.0,0.0
2.25,12.5,5.572970482606201,0.0,0.0,0.0,0.0
2.3000000000000003,15.220000000000002,6.2810508674902472,0.040000000000000001,0.12000000000000001,0.0,0.0
2.3500000000000001,18.119999999999997,7.1789692853500915,0.12,0.36000000000000004,0.0,0.0
2.4000000000000004,20.660000000000004,7.6210497964519295,0.17999999999999999,0.53999999999999992,0.0,0.0
2.4500000000000002,23.960000000000001,7.8739062732547183,0.28000000000000003,0.84000000000000019,0.0,0.0
2.5,27.32,8.4579903050310943,0.51999999999999991,1.3717142559585798,0.0,0.0
2.5500000000000003,30.659999999999997,8.9951320168188769,1.0,2.7437201023428028,0.0,0.0
2.6000000000000001,34.260000000000005,9.37914708275758,1.5000000000000002,4.1773197148410857,0.0,0.0
2.6500000000000004,37.720000000000006,9.607580340543608,2.2600000000000002,5.734143353631822,0.0,0.0
2.7000000000000002,41.239999999999995,9.6198960493344199,3.1200000000000001,6.6164643126068476,0.078431372549019607,0.23529411764705874
2.75,44.899999999999991,9.3962758580194947,4.2599999999999998,7.899898733528171,0.11764705882352941,0.25110291127187639
2.8000000000000003,48.419999999999995,9.0476295238034563,5.96,9.0358397506817258,0.1764705882352941,0.37665436690781467
2.8500000000000001,52.020000000000003,8.4386965818187818,7.9599999999999991,10.431414093975944,0.29411764705882354,0.60276180976232929
2.9000000000000004,54.88000000000001,8.109352625209981,10.74,12.157647798813718,0.50980392156862742,1.1901169337641975
2.9500000000000002,57.720000000000006,7.7569065999275759,13.079999999999998,13.152094890168639,0.92156862745098034,2.3983366015721397
3.0,60.399999999999999,7.426439254447585,15.6,14.344336861632884,1.3725490196078431,3.6123160678554815
3.0500000000000003,63.280000000000008,7.1560883169508154,18.16,14.929380429207368,1.9803921568627452,5.3687191157903031
3.1000000000000001,65.97999999999999,6.4438808182647209,21.059999999999999,15.603602148222057,2.3137254901960782,6.2442899714229005
3.1500000000000004,68.099999999999994,5.6336489063483546,24.079999999999998,15.987044755050885,2.5686274509803924,6.8264868506450664
3.2000000000000002,70.439999999999998,5.2106045714484983,26.899999999999999,16.235824586389199,2.7058823529411762,7.0029378137919363
3.25,72.219999999999999,4.356558274601638,29.860000000000003,16.307065953138228,2.9999999999999996,7.1249894608608315
3.3000000000000003,73.700000000000003,3.7376463182061501,33.339999999999996,16.085533873639385,3.2941176470588234,7.2965418699740567
3.3500000000000001,75.079999999999998,3.5113530155767636,36.740000000000002,15.83743666127824,3.7647058823529411,7.8002750372944831
3.4000000000000004,76.140000000000015,2.9960640847618754,39.880000000000003,15.172659621832953,4.3921568627450984,8.653792229644985
3.4500000000000002,77.120000000000005,2.7483813418083027,42.560000000000002,14.596657151553568,4.8039215686274499,9.4139090694410648
3.5,77.820000000000007,2.4305554920634935,45.740000000000002,14.041096823254229,5.0,9.8099001378765109
3.5500000000000003,78.580000000000013,2.0561128373705575,48.739999999999995,12.965816595957232,5.0588235294117654,9.932412890945324
3.6000000000000001,79.400000000000006,1.5336231610144679,51.559999999999988,12.433760493109075,5.2745098039215694,9.9264693778745325
3.6500000000000004,79.740000000000009,1.3944174410842696,54.579999999999998,11.721928169034308,5.5490196078431371,9.8274423735937173
3.7000000000000002,80.359999999999999,1.0575443253121795,57.839999999999996,11.308686926429612,6.2941176470588243,9.702395887971992
3.75,80.939999999999984,0.69310893804653384,61.640000000000001,10.86638854449812,8.0196078431372548,10.35191988426654
3.8000000000000003,81.420000000000002,0.65999999999999581,64.359999999999999,10.222250241507494,10.117647058823529,12.166409913392682
3.8500000000000001,81.620000000000005,0.67793805026712484,67.200000000000003,9.3650413773778922,12.294117647058822,14.94345358593425
3.9000000000000004,82.059999999999988,0.62641839053463344,69.939999999999998,8.4375588886833857,14.509803921568627,17.758688328521277
3.9500000000000002,82.359999999999999,0.65604877867426825,71.899999999999991,6.7700812402806481,16.235294117647062,19.863587075431969
4.0,82.659999999999982,0.61351446600711956,73.740000000000009,5.2475136969806941,17.215686274509803,20.669270959920425
4.0499999999999998,83.02000000000001,0.86463865284869346,75.359999999999985,3.7871361211342824,18.03921568627451,20.937100286256701
4.1000000000000005,83.419999999999987,0.90531762382050129,76.919999999999987,2.7498363587675576,19.235294117647058,21.224609409792009
4.1500000000000004,83.819999999999979,0.845931439302262,78.260000000000005,1.7089177862027207,20.921568627450977,21.234135358459415
4.2000000000000002,84.039999999999992,0.86162636914152091,79.160000000000011,1.1993331480451996,23.450980392156861,22.018691161754816
4.25,84.460000000000008,0.83928541033429105,79.719999999999999,1.0998181667894007,26.411764705882348,23.134604367955429
4.2999999999999998,84.640000000000015,0.89353231614754636,80.219999999999999,0.92282175960474389,30.196078431372548,24.630135984519391
4.3500000000000005,85.039999999999992,0.88453377549984369,80.740000000000009,0.97999999999999332,34.764705882352942,26.837264285415895
4.4000000000000004,85.420000000000002,1.0215674231297727,81.400000000000006,1.0079682534683294,39.352941176470587,28.394167678766966
4.4500000000000002,85.859999999999999,0.89465076985380443,82.099999999999994,1.1392980294900872,43.372549019607845,29.942505459930921
4.5,86.160000000000011,0.7889233169326425,82.719999999999999,1.0703270528207716,47.431372549019599,32.322796413867145
4.5499999999999998,86.580000000000013,0.75604232685743067,83.140000000000001,1.1137324633860664,51.137254901960787,34.277942126340704
4.6000000000000005,86.999999999999986,0.78485667481394417,83.640000000000001,1.2191800523302554,54.470588235294123,35.075883027592063
4.6500000000000004,87.359999999999985,0.96664367788756578,84.200000000000003,1.3266499161421608,57.450980392156865,33.720929924244174
4.7000000000000002,87.780000000000001,0.86000000000000143,84.840000000000003,1.3965672200076897,61.0,31.396859453531178
4.75,88.099999999999994,0.89106677639782184,85.459999999999994,1.4589036979869525,64.980392156862735,29.044663269467513
4.8000000000000007,88.359999999999999,0.86162636914152091,86.059999999999988,1.4001428498549753,68.627450980392155,27.191066447990011
4.8500000000000005,88.920000000000002,1.0400000000000016,86.659999999999997,1.3477388471065148,72.372549019607831,24.727107284900303
4.9000000000000004,89.300000000000011,0.99297532698451507,87.359999999999985,1.6094719630984593,76.960784313725497,21.78981946273024
4.9500000000000002,89.859999999999985,1.0883014288330264,87.960000000000008,1.5460918472070169,81.117647058823522,18.715591265075869
5.0,90.240000000000009,1.0346013725102063,88.539999999999992,1.5074481748969013,84.882352941176492,16.120568887398612
5.0500000000000007,90.800000000000011,0.94233751915118047,89.159999999999997,1.5383107618423526,88.137254901960773,13.752704113535207
5.1000000000000005,91.180000000000007,0.79724525711979066,89.719999999999985,1.5131424255502206,90.666666666666671,12.028161240272411
5.1500000000000004,91.460000000000008,0.84876380695691667,90.179999999999993,1.3666016244685202,92.294117647058812,10.330207511743343
5.2000000000000002,91.840000000000003,0.63118935352238059,90.640000000000001,1.3108775686539174,93.588235294117652,8.3870471891860277
5.25,92.259999999999991,0.63906181234682158,91.079999999999998,1.1939849245279455,94.901960784313729,5.2686387617821167
5.3000000000000007,92.580000000000013,0.62257529665093447,91.580000000000013,1.0562196741208725,95.666666666666657,3.4192502961126374
5.3500000000000005,92.860000000000014,0.5799999999999973,92.060000000000002,0.98812954616285065,96.392156862745097,1.9631358448288341
5.4000000000000004,93.299999999999997,0.56035702904487505,92.5,1.0207840124139849,96.843137254901961,1.4340560394687474
5.4500000000000002,93.54000000000002,0.58685603004484499,93.04000000000002,0.88453377549983447,97.098039215686271,1.4430093719979677
5.5,93.819999999999993,0.44226688774991296,93.47999999999999,0.68234888436927255,97.196078431372555,1.4752866122334638
5.5500000000000007,94.260000000000005,0.72138755187485382,94.080000000000013,0.72773621594640836,97.411764705882348,1.3379389889593711
5.6000000000000005,94.47999999999999,0.65238025721200221,94.599999999999994,0.91651513899116521,97.470588235294116,1.3311689468622501
5.6500000000000004,94.659999999999997,0.61999999999999877,95.099999999999994,0.85906926379658,97.470588235294116,1.3311689468622501
5.7000000000000002,94.859999999999999,0.53702886328389965,95.52000000000001,0.81092539730853375,97.607843137254903,1.242586628843519
5.75,94.959999999999994,0.61838499334961039,95.859999999999985,0.7748548251124221,97.666666666666671,1.216476656411456
5.8000000000000007,95.239999999999981,0.64992307237087443,96.240000000000009,0.74188947963965646,97.803921568627445,1.2144205935060388
5.8500000000000005,95.560000000000002,0.66813172353960071,96.679999999999978,0.88181630740194517,97.882352941176478,1.2207358757861453
5.9000000000000004,95.879999999999995,0.77045441137033022,96.960000000000008,0.7364781055808779,97.941176470588246,1.2284278515825144
5.9500000000000002,96.139999999999986,0.75392307299883199,97.260000000000019,0.65145989899609169,98.098039215686271,1.1568627450980404
6.0,96.419999999999987,0.75604232685743433,97.519999999999996,0.71665891468675658,98.156862745098039,1.1473520657511986
6.0500000000000007,96.760000000000005,0.78892331693264173,97.719999999999999,0.60794736614282763,98.17647058823529,1.1265554840959378
6.1000000000000005,97.039999999999992,0.8380930735902804,97.900000000000006,0.70000000000000018,98.215686274509792,1.0968130408585874
6.1500000000000004,97.140000000000001,0.80523288556789618,98.200000000000003,0.62609903369994135,98.333333333333343,1.0855380812287383
6.2000000000000002,97.359999999999999,0.76315136113355653,98.400000000000006,0.69282032302755214,98.470588235294116,0.935440034656987
6.25,97.539999999999992,0.69885620838624563,98.460000000000008,0.70455659815234273,98.549019607843135,0.86006714507691528
6.3000000000000007,97.779999999999987,0.60959002616512714,98.579999999999998,0.61611687202997478,98.588235294117652,0.91465912076004818
6.3500000000000005,97.919999999999987,0.53065996645686486,98.679999999999993,0.5528109984434102,98.627450980392169,0.90706145146826667
6.4000000000000004,98.059999999999988,0.4903060268852526,98.800000000000011,0.51380930314660689,98.725490196078439,0.83764742601152298
6.4500000000000002,98.099999999999994,0.50000000000000255,98.960000000000008,0.44542114902640295,98.784313725490208,0.81224765400815613
6.5,98.260000000000005,0.49839743177508644,99.059999999999988,0.46518813398452202,98.862745098039227,0.75330873381562946
6.5500000000000007,98.340000000000003,0.43863424398922646,99.159999999999997,0.43634848458543024,98.921568627450966,0.74017984659517255
6.6000000000000005,98.440000000000012,0.42708313008125237,99.260000000000005,0.50635955604688543,98.960784313725497,0.71803268327845315
6.6500000000000004,98.540000000000006,0.50635955604688487,99.320000000000007,0.47497368348151747,99.039215686274517,0.65883520064358581
6.7000000000000002,98.640000000000015,0.47999999999999876,99.359999999999999,0.51224993899462912,99.078431372549034,0.62653118857531231
6.75,98.800000000000011,0.40000000000000002,99.480000000000004,0.40199502484483496,99.117647058823536,0.63385215197037714
6.8000000000000007,98.919999999999987,0.29933259094191389,99.5,0.4123105625617654,99.117647058823536,0.63385215197037714
6.8500000000000005,98.97999999999999,0.40447496832313384,99.559999999999988,0.41761226035642163,99.137254901960787,0.63958848746274843
6.9000000000000004,99.11999999999999,0.38157568056678037,99.61999999999999,0.35156791662493803,99.17647058823529,0.63111674272278684
6.9500000000000002,99.239999999999995,0.32000000000000123,99.659999999999997,0.36932370625238692,99.235294117647044,0.61663471347122989
7.0,99.299999999999997,0.29999999999999954,99.659999999999997,0.36932370625238692,99.294117647058812,0.59602682955179198
7.0500000000000007,99.340000000000003,0.29732137494636995,99.700000000000003,0.31304951684996912,99.313725490196077,0.55632395918082767
7.1000000000000005,99.400000000000006,0.29664793948382501,99.760000000000005,0.26532998322842999,99.35294117647058,0.49643093730086951
7.1500000000000004,99.5,0.22360679774997644,99.799999999999997,0.21908902300206698,99.372549019607845,0.47868845551896877
7.2000000000000002,99.519999999999996,0.20396078054370873,99.820000000000007,0.18867962264113475,99.411764705882348,0.46400625749800989
7.25,99.579999999999998,0.20880613017820895,99.820000000000007,0.18867962264113475,99.450980392156879,0.47868845551896999
7.3000000000000007,99.579999999999998,0.20880613017820895,99.840000000000003,0.1743559577416294,99.470588235294116,0.49643093730086973
7.3500000000000005,99.659999999999997,0.20099751242241698,99.879999999999995,0.16000000000000228,99.509803921568633,0.45774970705602835
7.4000000000000004,99.719999999999985,0.20396078054370984,99.879999999999995,0.16000000000000228,99.509803921568633,0.45774970705602835
7.4500000000000002,99.759999999999991,0.14966629547095978,99.900000000000006,0.13416407864998928,99.509803921568633,0.45774970705602835
7.5,99.759999999999991,0.14966629547095978,99.920000000000002,0.13266499161421788,99.509803921568633,0.45774970705602835
7.5500000000000007,99.779999999999987,0.14000000000000198,99.920000000000002,0.13266499161421788,99.509803921568633,0.45774970705602835
7.6000000000000005,99.840000000000003,0.14966629547095978,99.939999999999998,0.091651513899118103,99.54901960784315,0.42099824614870085
7.6500000000000004,99.859999999999985,0.15620499351813533,99.939999999999998,0.091651513899118103,99.568627450980387,0.42779263194649608
7.7000000000000002,99.859999999999985,0.15620499351813533,99.939999999999998,0.091651513899118103,99.568627450980387,0.42779263194649608
7.75,99.859999999999985,0.15620499351813533,99.939999999999998,0.091651513899118103,99.568627450980387,0.42779263194649608
7.8000000000000007,99.859999999999985,0.15620499351813533,99.939999999999998,0.091651513899118103,99.588235294117652,0.44237310481091768
7.8500000000000005,99.899999999999991,0.13416407864998928,99.939999999999998,0.091651513899118103,99.588235294117652,0.44237310481091768
7.9000000000000004,99.919999999999987,0.13266499161421788,99.939999999999998,0.091651513899118103,99.588235294117652,0.44237310481091768
7.9500000000000002,99.919999999999987,0.13266499161421788,99.939999999999998,0.091651513899118103,99.607843137254903,0.41129758751770229
8.0,99.939999999999984,0.091651513899118103,99.959999999999994,0.08000000000000114,99.607843137254903,0.41129758751770229
8.0500000000000007,99.97999999999999,0.060000000000000851,99.97999999999999,0.060000000000000837,99.627450980392169,0.38672711614344812
8.0999999999999996,100.0,0.0,99.97999999999999,0.060000000000000837,99.627450980392169,0.38672711614344812
8.1500000000000004,100.0,0.0,99.97999999999999,0.060000000000000837,99.666666666666657,0.34018336417445849
8.2000000000000011,100.0,0.0,99.97999999999999,0.060000000000000837,99.686274509803908,0.34187442694436504
8.25,100.0,0.0,99.97999999999999,0.060000000000000837,99.705882352941174,0.33101849051243176
8.3000000000000007,100.0,0.0,99.97999999999999,0.060000000000000837,99.705882352941174,0.33101849051243176
8.3499999999999996,100.0,0.0,99.97999999999999,0.060000000000000837,99.705882352941174,0.33101849051243176
8.4000000000000004,100.0,0.0,99.97999999999999,0.060000000000000837,99.705882352941174,0.33101849051243176
8.4500000000000011,100.0,0.0,99.97999999999999,0.060000000000000837,99.705882352941174,0.33101849051243176
8.5,100.0,0.0,99.97999999999999,0.060000000000000837,99.725490196078425,0.34187442694436404
8.5500000000000007,100.0,0.0,99.97999999999999,0.060000000000000837,99.745098039215691,0.30439558227960739
8.5999999999999996,100.0,0.0,99.97999999999999,0.060000000000000837,99.745098039215691,0.30439558227960739
8.6500000000000004,100.0,0.0,99.97999999999999,0.060000000000000837,99.745098039215691,0.30439558227960739
8.7000000000000011,100.0,0.0,99.97999999999999,0.060000000000000837,99.745098039215691,0.30439558227960739
8.75,100.0,0.0,99.97999999999999,0.060000000000000837,99.784313725490208,0.25490196078431293
8.8000000000000007,100.0,0.0,99.97999999999999,0.060000000000000837,99.784313725490208,0.25490196078431293
8.8499999999999996,100.0,0.0,99.97999999999999,0.060000000000000837,99.803921568627445,0.24802177726810731
8.9000000000000004,100.0,0.0,99.97999999999999,0.060000000000000837,99.82352941176471,0.20471189233157999
8.9500000000000011,100.0,0.0,99.97999999999999,0.060000000000000837,99.82352941176471,0.20471189233157999
9.0,100.0,0.0,100.0,0.0,99.82352941176471,0.20471189233157999
9.0500000000000007,100.0,0.0,100.0,0.0,99.843137254901961,0.19211684257123016
9.0999999999999996,100.0,0.0,100.0,0.0,99.843137254901961,0.19211684257123016
9.1500000000000004,100.0,0.0,100.0,0.0,99.843137254901961,0.19211684257123016
9.2000000000000011,100.0,0.0,100.0,0.0,99.843137254901961,0.19211684257123016
9.25,100.0,0.0,100.0,0.0,99.843137254901961,0.19211684257123016
9.3000000000000007,100.0,0.0,100.0,0.0,99.843137254901961,0.19211684257123016
9.3499999999999996,100.0,0.0,100.0,0.0,99.862745098039227,0.19705638472786111
9.4000000000000004,100.0,0.0,100.0,0.0,99.862745098039227,0.19705638472786111
9.4500000000000011,100.0,0.0,100.0,0.0,99.862745098039227,0.19705638472786111
9.5,100.0,0.0,100.0,0.0,99.862745098039227,0.19705638472786111
9.5500000000000007,100.0,0.0,100.0,0.0,99.862745098039227,0.19705638472786111
9.6000000000000014,100.0,0.0,100.0,0.0,99.862745098039227,0.19705638472786111
9.6500000000000004,100.0,0.0,100.0,0.0,99.862745098039227,0.19705638472786111
9.7000000000000011,100.0,0.0,100.0,0.0,99.862745098039227,0.19705638472786111
9.75,100.0,0.0,100.0,0.0,99.862745098039227,0.19705638472786111
9.8000000000000007,100.0,0.0,100.0,0.0,99.882352941176464,0.19996154955265893
9.8500000000000014,100.0,0.0,100.0,0.0,99.882352941176464,0.19996154955265893
9.9000000000000004,100.0,0.0,100.0,0.0,99.882352941176464,0.19996154955265893
9.9500000000000011,100.0,0.0,100.0,0.0,99.882352941176464,0.19996154955265893
