75 245 236 336 118 135 86 92 190 309 196 22 164 215 297 55 95 162 44 33 37 80 279 0 225 344 326 184 253 180 268 10 293 220 317 333 224 70 150 97 244 217 15 53 278 314 11 248 284 315 275 69 291 123 16 267 247 2 108 302 289 235 280 83 167 173 47 58 35 111 230 276 296 181 39 341 100 105 313 214 285 203 281 233 335 4 65 170 1 67 287 106 115 79 288 61 91 312 329 195 134 325 23 171 8 259 183 25 56 140 327 154 238 330 283 107 18 187 93 60 301 300 127 210 262 32 78 50 172 19 139 128 126 147 129 216 255 251 189 338 256 299 132 124 24 303 240 99 194 41 158 334 219 277 29 117 316 226 246 141 72 133 122 156 331 237 84 36 290 176 121 179 77 307 87 282 9 305 155 73 266 304 205 271 175 113 174 209 145 254 160 213 163 274 199 66 161 152 136 324 258 228 319 103 40 17 169 208 46 54 321 328 153 142 76 90 89 178 138 243 88 242 68 125 102 45 223 52 221 112 42 229 260 185 131 234 49 227 30 200 308 157 295 323 51 191 98 340 137 204 104 12 218 211 250 212 3 116 339 165 186 193 6 168 94 231 188 27 63 109 273 310 232 85 286 318 7 166 159 197 34 322 119 206 202 269 43 143 263 292 264 298 192 130 81 272 148 64 120 151 201 31 38 241 207 74 306 332 222 144 177 320 59 114 239 261 257 146 252 96 343 57 182 110 337 265 82 249 342 294 62 28 48 270 149 26 311 5 198 14 20 13 101 71 21
252 327 37 331 61 344 95 26 262 139 78 80 339 127 219 186 108 157 81 150 159 188 71 154 336 146 246 90 5 234 240 311 266 15 59 297 2 58 244 57 17 110 316 62 282 147 114 21 293 138 93 44 106 241 41 223 220 20 10 130 187 52 173 194 317 112 16 7 313 149 183 208 76 56 45 50 72 248 87 104 309 109 83 185 64 136 277 141 24 89 214 46 168 171 111 6 217 330 192 211 18 47 230 103 158 280 42 320 174 169 307 216 67 148 190 201 226 335 229 233 235 275 267 260 181 294 333 319 256 321 338 221 259 96 254 155 25 11 306 326 302 343 205 82 251 35 117 236 299 49 144 86 196 263 162 166 189 301 40 65 276 271 160 120 225 122 54 315 270 314 287 334 310 284 250 113 101 290 161 33 74 22 123 105 32 210 73 92 118 84 142 279 288 296 249 247 341 203 312 224 228 176 318 34 308 137 119 1 60 278 197 212 38 69 27 253 191 30 207 180 97 324 167 305 48 70 255 9 53 289 164 204 134 268 124 0 245 12 129 126 200 285 98 125 19 39 273 156 238 303 215 116 286 115 274 94 133 170 323 209 177 198 107 85 227 199 340 325 218 3 337 283 75 332 342 328 213 193 43 237 152 304 291 99 175 178 206 258 31 121 132 151 79 172 143 265 295 261 239 55 145 300 88 243 36 182 14 202 102 135 28 68 77 272 153 163 232 165 131 13 66 8 222 322 184 179 257 298 100 264 269 51 242 4 281 91 140 128 63 29 23 292 195 329 231
66 55 5 114 257 179 168 329 40 147 340 302 4 204 336 184 234 87 13 227 176 199 228 177 344 206 25 281 68 115 11 205 337 208 186 190 36 319 131 42 264 17 294 180 226 280 14 335 330 130 71 158 64 315 94 193 246 325 334 110 236 242 167 212 215 44 157 146 20 96 9 323 59 191 273 322 16 229 230 106 100 43 209 308 321 41 299 22 50 52 75 198 343 78 117 240 341 262 61 82 148 47 312 295 250 263 303 255 324 38 33 30 32 127 166 103 24 222 143 326 140 192 338 86 21 266 126 74 283 196 269 141 164 49 265 58 91 121 194 88 2 316 19 26 107 284 292 244 161 223 327 288 339 65 62 122 89 307 245 154 258 181 275 287 189 298 225 313 67 202 159 23 247 290 293 239 84 178 104 171 118 256 211 105 219 27 139 251 300 134 108 53 102 282 235 214 142 93 152 151 249 125 98 305 304 174 138 10 149 270 221 165 99 278 248 188 185 119 132 267 12 97 39 314 297 218 342 203 289 243 175 18 291 210 220 35 113 233 60 73 306 156 69 72 34 261 231 271 259 268 57 28 31 318 201 6 79 136 320 241 76 187 163 116 195 112 182 129 7 29 277 137 216 124 80 279 46 95 332 162 301 328 170 109 48 274 133 232 224 70 172 253 51 150 331 286 213 276 333 200 3 128 197 0 173 252 311 317 254 238 37 92 285 183 160 56 1 155 101 145 144 296 111 63 309 207 54 310 135 169 153 260 272 83 90 85 77 237 8 217 123 120 81 45 15
26 285 226 329 224 63 264 235 78 315 187 116 29 241 59 183 143 61 147 174 208 289 159 35 51 314 158 259 69 106 138 119 32 104 297 197 306 74 238 118 25 189 333 223 299 204 66 325 152 232 322 77 160 48 125 227 8 305 294 272 37 33 98 43 124 309 302 234 136 150 72 265 228 20 49 39 166 216 239 276 5 233 184 336 129 155 277 222 201 257 200 295 342 70 266 57 332 41 145 19 117 324 217 36 218 338 182 142 308 71 165 1 102 290 304 344 178 93 17 76 199 82 85 186 196 198 42 179 320 313 281 110 240 312 40 84 245 339 176 293 94 261 292 164 46 169 173 273 87 154 279 146 127 121 219 167 319 64 139 311 323 327 221 170 213 111 246 92 288 209 137 270 144 134 52 97 161 284 275 340 214 258 334 149 112 248 210 24 2 316 194 79 341 55 4 191 253 202 75 18 109 62 38 81 291 3 90 255 56 263 140 156 328 172 330 310 107 271 113 132 115 27 15 100 262 250 86 256 298 89 193 269 286 185 231 68 12 13 168 252 318 303 343 122 274 130 203 9 108 163 80 267 335 157 244 243 101 180 151 287 296 22 326 331 171 16 83 307 260 96 192 6 141 301 95 65 220 88 128 268 114 45 205 251 53 190 207 58 181 177 60 120 126 7 0 91 247 14 10 237 31 211 21 133 206 175 135 337 229 283 249 73 317 254 188 242 47 99 131 195 300 34 148 54 215 67 278 30 225 236 105 153 212 282 162 44 103 50 11 321 280 230 28 23 123
36 252 156 335 273 169 281 271 157 259 84 181 100 134 261 160 63 120 276 218 165 52 125 62 98 337 270 11 58 17 25 40 203 255 300 155 205 324 186 159 330 109 43 299 319 26 137 238 4 291 77 198 24 89 65 41 71 200 21 14 322 314 90 263 148 311 245 274 75 56 235 74 147 227 105 278 55 313 339 94 236 6 146 154 191 250 312 107 2 111 258 124 79 171 128 182 170 217 46 284 175 31 303 13 192 88 172 247 233 286 122 35 68 282 173 145 321 297 54 234 127 272 279 222 306 103 8 285 242 334 87 301 317 141 220 139 12 136 243 302 48 338 183 224 213 166 323 249 39 73 177 206 289 260 178 292 244 126 86 237 10 149 204 246 121 117 59 268 231 262 208 232 201 33 69 184 295 288 85 138 326 93 106 96 163 185 176 269 72 78 202 51 57 196 340 132 214 30 329 219 32 197 70 221 47 266 37 174 15 168 212 211 1 344 49 290 327 304 42 152 283 53 20 83 91 187 153 188 66 150 5 28 151 239 223 44 241 287 101 115 190 81 207 189 64 119 129 116 277 226 76 256 82 310 97 130 254 45 179 253 104 248 328 193 113 216 265 332 296 318 22 280 293 209 102 16 161 228 305 343 142 264 267 229 294 225 23 308 80 162 9 50 38 195 199 341 99 315 112 307 95 118 325 18 180 309 143 251 135 164 333 19 108 27 320 7 131 61 331 0 133 3 34 144 92 275 114 230 60 298 140 210 316 67 110 336 342 215 29 123 257 167 194 240 158
306 341 69 323 136 337 263 168 311 81 204 108 319 84 190 220 54 163 82 148 238 305 20 14 141 96 296 22 167 1 160 254 162 274 151 251 23 87 187 45 194 43 154 326 325 169 34 191 55 76 271 267 208 199 265 115 344 30 147 173 233 245 334 176 47 5 94 239 100 223 8 124 292 174 186 264 210 66 284 6 281 156 65 13 15 279 161 152 335 61 73 241 189 329 68 98 217 32 213 149 130 256 327 183 340 320 261 182 302 150 231 255 225 17 70 277 31 196 200 112 234 232 102 308 35 330 110 230 39 270 42 293 2 139 297 135 195 224 289 324 291 0 79 26 78 257 193 114 107 72 93 206 215 9 299 221 159 331 11 247 303 342 203 172 128 244 181 235 144 304 298 336 266 227 185 24 177 60 83 133 283 343 99 123 164 328 269 188 312 16 192 202 145 56 219 275 315 29 273 282 175 48 287 280 52 131 321 137 201 250 300 117 248 7 252 240 146 44 92 75 125 51 59 295 101 3 106 171 339 338 118 290 49 127 64 228 278 307 309 243 259 316 180 18 209 58 41 229 157 242 74 249 170 25 36 134 89 166 322 57 109 104 179 95 33 103 197 216 246 46 71 314 288 119 253 85 27 222 317 236 155 268 153 318 333 310 286 184 113 122 258 80 212 313 97 138 4 50 276 62 143 211 19 63 260 40 285 37 207 205 129 10 301 226 77 332 88 38 272 140 12 91 218 121 105 158 126 111 294 178 53 90 28 165 21 67 262 214 116 120 132 86 142 237 198
181 266 343 291 35 231 244 213 40 337 281 123 117 288 30 14 17 211 87 148 169 253 247 284 185 296 116 319 277 126 191 48 232 336 274 332 241 121 202 88 325 29 135 168 57 260 45 124 106 259 58 159 99 305 115 303 81 146 330 26 15 95 192 98 91 143 132 52 12 309 118 163 200 138 74 285 205 94 218 240 338 56 24 64 228 164 102 173 197 321 209 315 238 151 258 8 235 154 103 175 224 22 312 171 298 119 329 194 223 50 167 297 111 210 245 25 108 62 76 215 208 307 322 249 328 70 113 261 96 287 239 187 141 203 162 150 290 293 302 320 314 37 225 53 47 5 254 326 71 137 230 263 292 160 176 149 4 142 16 20 271 93 226 75 77 0 242 267 186 289 59 89 237 294 334 269 342 54 127 104 112 13 331 324 67 3 166 1 145 286 49 311 18 28 262 323 105 273 304 161 6 283 300 233 122 340 250 90 265 270 34 212 299 316 177 39 256 31 278 139 107 36 125 61 317 251 174 63 101 140 252 27 318 339 44 217 344 193 66 9 82 32 78 147 152 19 248 306 153 21 42 41 120 92 276 7 69 33 222 195 51 236 279 280 341 327 246 11 129 55 2 220 234 84 43 216 183 189 80 243 144 313 308 73 196 204 227 131 221 214 23 310 178 268 156 114 155 219 165 158 201 110 134 65 133 184 136 335 157 198 206 79 182 295 179 68 199 170 86 255 85 264 109 10 180 333 83 38 272 130 190 100 282 257 60 72 172 275 301 207 128 229 97 46 188
138 230 202 109 2 62 203 103 168 263 322 87 31 10 296 101 305 30 66 332 319 110 328 37 304 318 181 243 186 192 150 46 154 288 117 306 3 234 81 205 45 219 294 250 24 195 89 327 70 15 265 59 251 7 331 0 224 277 295 115 140 153 6 57 264 167 242 309 323 252 183 47 343 178 209 111 200 32 196 107 273 340 197 258 11 326 9 44 106 162 316 246 175 198 182 144 317 60 145 1 41 237 268 120 173 259 310 283 52 42 320 248 36 231 55 336 27 160 337 303 285 311 91 271 225 33 172 222 148 54 217 289 21 166 156 147 335 341 185 330 38 23 189 333 112 114 208 78 314 127 241 170 287 73 82 71 108 141 194 76 96 228 188 239 83 334 67 126 22 262 307 191 238 204 85 284 133 79 292 256 134 301 210 50 56 51 75 135 249 40 136 139 157 84 190 99 300 20 68 302 261 58 13 25 275 95 321 35 286 64 116 93 313 206 118 282 16 342 113 152 193 247 17 4 105 155 232 240 8 212 244 221 90 260 299 218 236 272 72 92 146 227 63 34 53 132 315 293 119 267 29 211 214 18 94 102 88 5 137 255 223 128 291 344 270 164 325 143 49 207 28 14 74 174 215 297 97 339 169 281 12 257 149 280 171 180 98 124 65 163 161 229 43 266 338 187 69 177 158 276 26 176 245 129 121 131 48 39 80 77 278 254 125 19 329 220 184 104 159 274 312 213 235 290 151 298 324 179 130 100 123 216 269 86 142 122 233 308 61 226 201 279 253 165 199
213 235 198 330 109 62 218 135 73 58 164 162 223 221 23 96 32 103 200 107 287 299 116 114 179 244 24 101 224 338 239 16 174 308 312 145 152 262 241 216 27 44 112 155 204 288 57 78 54 210 142 132 170 65 138 46 25 279 242 143 339 337 88 29 302 222 3 4 1 171 271 315 141 94 306 190 237 63 166 67 173 228 258 246 31 167 120 335 323 26 251 168 22 203 207 292 6 43 184 341 0 126 316 90 83 243 39 48 310 118 125 71 320 34 86 160 343 334 98 191 158 181 276 322 286 326 272 7 227 146 51 8 176 66 295 89 175 275 157 212 342 234 75 95 139 5 281 263 72 121 11 123 137 209 300 110 344 36 261 183 28 45 93 55 149 332 284 47 211 217 192 319 134 2 111 70 260 249 296 291 113 21 153 248 273 233 185 327 282 147 108 293 240 129 17 150 220 187 151 172 298 264 9 37 250 19 245 259 144 119 215 255 317 84 336 278 253 92 59 42 283 290 87 136 105 205 196 180 307 177 188 18 49 14 229 309 30 236 318 321 303 268 97 265 328 81 267 140 133 178 13 214 197 76 325 15 297 189 156 257 274 85 35 333 182 106 294 314 199 285 195 331 82 41 329 104 232 12 61 50 254 52 130 127 256 225 124 324 305 193 280 161 68 313 99 77 163 301 38 219 206 100 165 122 304 56 311 128 201 102 252 69 131 154 277 270 60 186 33 80 231 208 230 117 266 247 91 269 53 159 148 238 202 64 20 194 10 289 74 115 40 79 340 226 169
80 205 309 320 269 255 338 192 226 93 277 88 109 188 132 18 180 267 191 62 220 200 232 209 6 321 133 231 278 253 43 305 78 327 165 325 137 173 208 47 131 247 268 300 304 90 248 318 283 102 293 186 160 60 294 199 256 225 214 187 183 119 35 252 218 141 229 27 227 339 296 308 118 13 19 113 174 288 263 291 216 171 99 5 322 58 67 20 0 130 303 112 242 317 185 77 177 72 290 36 343 55 272 25 298 29 260 129 71 181 334 31 329 22 142 328 284 193 221 176 274 116 32 273 28 212 282 264 182 105 120 45 270 128 125 92 224 206 98 244 213 190 169 73 233 49 337 16 149 82 324 204 279 275 257 330 21 126 95 30 7 146 46 107 246 271 79 332 17 101 52 234 258 86 203 57 241 166 33 100 276 106 156 161 41 312 144 1 223 151 217 152 326 315 306 344 184 259 103 331 172 40 108 9 287 197 59 341 335 310 53 280 11 262 24 10 222 164 122 319 201 340 297 15 56 4 115 236 127 158 286 64 189 170 134 211 74 153 96 121 44 159 38 254 285 237 143 76 210 249 145 295 26 168 84 135 289 70 39 148 110 198 202 155 235 302 265 111 34 215 136 207 251 42 124 196 219 336 179 307 61 89 157 75 2 139 14 23 81 301 54 69 85 240 147 299 313 94 323 48 65 311 175 87 63 51 195 50 194 162 83 97 228 37 91 12 245 8 178 167 150 114 333 314 138 140 104 66 163 243 117 261 238 123 342 68 230 154 239 3 292 281 250 316 266
24 300 129 222 236 189 199 119 55 157 90 165 82 14 270 143 49 146 223 202 158 238 155 246 148 185 188 85 325 166 109 302 269 65 147 0 174 130 287 261 313 258 152 114 250 86 282 272 235 88 190 35 305 60 5 112 122 262 191 288 110 67 182 22 43 42 128 340 184 145 103 316 107 301 229 219 339 164 73 27 78 15 231 74 200 326 259 333 285 50 135 163 324 156 299 330 211 203 33 201 28 41 251 273 57 37 34 271 124 320 292 154 209 58 61 310 2 249 220 192 260 144 68 80 102 257 123 101 106 139 160 56 267 228 196 234 297 36 77 95 254 29 294 104 1 9 248 121 337 99 225 75 94 198 227 252 208 96 216 116 181 239 186 150 91 47 141 93 17 242 284 20 331 137 115 244 51 138 328 214 149 13 98 286 204 111 134 335 309 318 237 54 100 133 280 168 108 118 215 226 26 4 206 243 136 276 89 63 241 76 179 53 70 277 221 81 176 18 183 295 92 195 131 278 175 25 303 266 218 126 151 69 323 40 312 212 72 169 329 48 322 232 140 283 161 105 125 32 317 84 12 7 79 8 38 307 336 265 213 46 180 23 159 120 342 177 197 240 83 142 170 341 210 3 298 59 16 217 207 171 327 319 343 247 87 205 253 66 64 321 194 338 30 39 268 296 293 334 21 193 263 304 290 279 172 306 132 153 344 113 11 245 127 281 291 31 71 255 52 6 332 173 167 117 224 10 62 315 19 311 274 230 162 256 45 308 314 97 44 187 275 178 264 289 233
23 338 87 340 202 32 132 168 73 182 13 53 69 102 133 81 163 124 50 209 43 51 165 178 22 175 173 129 19 196 307 304 108 281 118 150 20 325 14 96 258 18 203 160 225 65 153 186 247 26 4 287 106 55 103 74 162 262 140 91 216 72 92 207 128 111 39 189 244 148 245 308 172 147 222 77 277 99 295 40 274 242 292 240 127 250 31 211 36 188 272 58 312 136 299 227 141 191 279 328 80 7 337 291 54 204 318 11 17 122 110 215 144 306 294 268 303 15 67 288 342 335 86 16 123 330 71 37 205 343 33 29 135 64 284 94 49 324 115 151 200 223 260 155 286 226 210 231 138 238 241 341 275 265 90 201 139 206 266 177 107 101 171 145 76 289 161 130 79 70 246 316 235 113 305 121 334 254 60 1 329 5 143 220 255 300 3 62 323 109 301 78 2 44 169 0 310 319 10 112 149 290 237 190 8 293 251 239 164 100 185 25 336 59 214 194 233 282 261 174 146 271 125 83 224 154 24 187 35 131 134 333 28 208 9 47 57 339 183 117 278 95 326 176 192 285 156 269 259 82 45 158 311 27 56 218 213 263 297 142 137 230 302 249 84 327 199 126 236 195 309 264 217 166 198 66 38 85 267 228 152 12 252 317 41 280 21 68 344 167 232 30 321 320 52 63 193 114 105 283 322 180 276 181 219 159 313 257 331 116 97 98 119 104 229 197 273 75 89 170 179 46 212 332 296 61 248 315 270 93 157 253 48 42 6 88 256 234 120 221 34 298 314 184 243
269 341 320 332 103 231 20 108 6 262 45 229 258 222 21 234 277 280 187 145 297 169 223 216 218 299 167 127 270 292 25 128 239 174 276 291 309 344 2 248 1 85 301 265 259 137 195 93 158 160 338 138 46 204 296 198 141 177 148 88 295 157 254 95 142 300 286 99 313 17 189 324 311 50 192 251 130 64 62 102 22 35 205 168 32 190 273 40 19 7 12 170 228 87 256 14 161 89 304 59 340 318 120 293 4 81 69 242 281 252 165 52 84 114 39 283 5 337 331 263 339 181 342 56 37 237 275 76 329 314 113 323 200 119 210 70 264 226 290 307 207 214 316 18 111 121 175 152 122 333 213 3 288 24 83 164 51 294 303 71 176 188 0 212 67 255 86 253 225 11 153 104 250 268 47 123 100 140 43 171 322 118 272 306 282 28 334 135 247 215 220 208 133 249 109 163 279 156 221 201 206 315 261 159 48 125 65 54 235 42 97 217 285 124 79 203 202 68 13 335 308 30 8 31 219 199 343 26 185 319 44 271 72 134 126 27 34 154 274 191 115 227 184 110 57 325 147 9 66 129 155 298 144 196 317 328 117 74 55 330 33 178 41 162 238 73 278 302 96 224 193 23 143 194 60 146 182 107 180 172 101 246 75 16 284 58 38 92 243 29 240 63 49 80 15 186 10 257 78 90 136 233 61 179 287 197 267 327 236 173 209 266 150 91 166 232 211 321 77 98 53 260 36 116 244 149 326 336 312 112 139 106 310 82 94 151 241 230 305 105 245 131 132 289 183
119 272 148 274 238 15 58 213 44 334 219 75 6 232 157 18 153 217 212 189 299 165 276 12 306 171 233 107 304 73 335 89 103 225 237 255 193 332 108 179 65 42 234 152 236 137 309 61 258 59 114 297 303 300 70 105 305 264 4 197 1 209 85 104 141 52 2 313 91 66 243 54 178 259 154 341 342 69 118 314 227 159 201 30 156 296 138 102 39 161 279 337 11 317 51 56 263 149 216 74 327 49 302 308 191 220 130 90 98 162 192 81 10 262 115 129 196 188 80 57 101 222 293 160 312 310 311 5 221 155 173 13 328 172 190 175 195 338 133 283 176 88 251 266 198 340 331 257 7 48 64 282 37 68 183 245 288 194 218 248 250 326 132 177 164 147 343 280 261 278 267 339 128 208 124 9 224 168 33 131 123 184 210 106 143 207 111 19 269 14 93 307 185 277 50 268 79 231 47 53 134 29 301 200 240 182 117 121 244 32 187 270 336 323 287 122 31 325 40 246 167 330 226 94 291 247 99 284 239 294 249 71 214 145 235 17 271 21 329 281 320 109 96 25 97 256 120 229 295 20 186 78 199 344 16 43 46 135 82 140 322 62 55 252 125 230 84 127 38 150 110 41 180 206 100 24 285 144 67 45 151 215 211 22 26 8 87 116 298 260 126 254 3 273 146 321 60 290 76 333 286 318 136 174 315 241 36 139 158 95 63 142 28 23 72 112 27 205 86 202 163 292 203 166 228 35 242 169 113 275 324 223 181 204 289 77 170 319 316 0 92 83 34 253 265
305 282 21 258 184 220 156 225 296 163 343 128 319 40 60 185 318 136 97 6 259 54 80 311 262 227 28 286 157 29 91 290 49 202 83 270 179 164 245 212 11 180 207 257 62 260 317 129 251 268 36 265 306 126 248 22 71 102 342 135 224 150 105 16 24 113 4 198 249 234 167 315 2 236 254 76 114 104 123 222 186 219 231 146 125 145 244 17 279 38 298 33 271 242 47 230 88 316 300 59 57 250 238 246 276 117 229 112 37 299 96 43 1 177 221 90 256 193 218 122 61 23 67 312 182 323 191 178 78 147 70 108 35 188 294 42 339 252 58 213 201 133 283 197 194 168 160 100 153 336 120 152 107 132 44 214 302 121 27 199 175 93 206 56 337 292 255 216 101 149 277 85 307 109 39 192 110 330 77 5 228 284 334 275 217 335 210 233 68 281 253 18 267 138 287 209 332 55 297 86 124 303 81 144 52 289 308 189 95 118 94 66 79 173 7 340 170 12 223 208 328 92 196 41 190 291 314 131 34 19 344 111 158 166 266 74 273 141 134 9 243 261 232 329 320 247 139 322 309 333 154 103 205 155 89 226 204 295 73 72 183 46 176 269 98 82 235 106 0 53 14 338 181 25 215 310 293 130 45 142 187 326 240 162 3 241 325 304 200 203 174 30 50 171 169 51 159 26 327 278 280 321 137 84 8 341 263 64 331 264 63 313 195 75 161 301 20 15 143 127 140 99 116 65 32 48 324 285 172 211 272 115 69 165 148 87 239 10 237 119 288 274 31 151 13
216 307 173 145 37 51 92 337 146 237 106 114 82 301 222 31 246 89 177 134 231 135 257 208 323 126 179 19 153 253 343 125 261 0 199 295 23 212 49 332 334 40 75 243 13 228 320 24 119 268 11 293 198 88 8 292 124 319 3 96 34 272 140 10 238 110 274 194 112 220 297 264 41 308 55 116 225 305 67 306 26 128 214 165 136 296 71 107 151 94 42 202 74 79 80 158 207 133 152 32 170 162 48 161 73 168 72 302 288 204 44 322 156 90 248 300 27 244 312 221 95 122 315 191 97 68 127 227 187 309 143 53 324 329 310 18 251 171 178 129 256 265 291 142 36 78 109 38 298 277 250 69 226 236 166 217 100 45 260 267 15 85 340 333 280 130 28 65 70 39 57 188 205 318 211 60 192 33 111 144 245 276 169 338 123 317 316 321 203 223 56 139 154 160 197 287 87 269 286 304 311 270 4 185 330 93 14 105 22 252 54 183 239 184 213 141 281 314 249 84 303 258 121 59 195 148 331 58 180 1 137 190 336 43 12 279 193 5 20 189 325 181 235 98 232 234 17 215 47 290 150 294 163 229 104 46 240 233 335 66 61 29 99 175 259 299 50 328 147 64 263 282 62 186 271 278 344 327 182 262 172 132 157 224 242 196 159 2 174 285 113 209 138 339 76 81 117 52 176 83 266 91 283 35 63 219 201 6 77 120 247 210 273 115 313 25 255 230 21 167 206 275 218 326 342 200 103 7 289 284 131 102 254 9 118 341 164 101 108 155 30 16 149 86 241
33 152 165 57 47 27 201 324 110 24 129 312 131 232 39 16 43 69 89 256 205 195 83 293 102 276 81 288 169 194 82 181 309 6 242 159 100 118 342 44 264 199 186 41 223 208 147 161 234 111 212 272 285 15 231 38 119 278 275 66 188 121 216 204 338 49 74 241 220 180 61 67 141 136 142 156 198 286 187 250 248 10 217 84 30 253 86 259 105 125 34 153 303 91 318 108 124 28 258 280 70 295 260 341 176 182 99 25 79 238 115 18 323 148 46 218 268 292 138 273 58 21 224 71 65 336 109 339 308 246 117 163 73 8 157 150 310 269 304 289 154 77 22 311 281 219 302 54 184 307 316 247 123 122 298 53 45 263 40 287 120 239 271 326 337 175 257 200 203 167 63 87 325 51 88 31 174 98 106 230 314 151 162 306 137 291 146 213 134 145 196 178 19 331 166 23 104 127 330 274 317 80 17 202 103 236 299 7 107 243 227 64 270 183 132 75 245 209 29 55 335 52 114 170 235 225 93 35 226 32 206 14 76 244 197 228 210 233 26 262 185 251 9 297 149 266 72 240 42 229 320 282 277 12 305 214 190 144 237 315 332 290 97 283 313 267 296 135 113 164 334 116 343 3 340 301 155 2 207 95 211 252 221 173 11 284 140 36 222 322 192 50 78 20 177 333 189 160 193 191 249 126 143 261 327 62 328 90 48 56 5 171 329 1 92 68 168 344 37 300 139 254 279 255 294 265 85 94 60 59 0 101 130 319 321 215 179 133 4 128 158 172 96 112 13
191 263 327 322 154 216 116 96 42 144 60 324 155 256 92 5 340 341 84 196 87 44 179 292 328 300 338 247 23 259 63 159 323 287 137 59 107 94 245 3 100 53 8 89 193 224 15 184 130 309 25 294 187 66 267 248 10 255 297 197 27 165 173 135 16 291 176 121 166 331 127 275 290 142 9 26 251 278 231 108 37 61 167 288 153 272 244 17 205 50 227 206 268 65 49 250 177 189 220 77 64 303 285 126 11 217 14 284 236 264 204 225 31 0 233 269 128 329 321 314 131 307 261 168 86 282 243 157 221 318 91 180 218 124 148 203 125 35 238 342 310 28 175 33 332 202 29 20 182 111 172 183 240 171 312 119 188 271 76 141 145 71 161 320 258 211 201 186 230 334 13 152 110 95 83 115 47 151 252 40 270 209 57 129 295 147 241 34 62 286 46 279 4 18 326 226 293 222 223 51 163 78 315 21 132 325 101 266 160 162 140 316 301 308 208 200 118 79 24 280 265 195 273 190 277 73 30 215 311 330 253 32 174 112 158 235 185 67 146 103 298 229 199 164 72 45 58 139 299 114 283 304 22 7 69 228 102 48 98 1 336 234 88 85 43 75 113 105 302 82 99 109 213 80 169 39 170 104 143 156 254 93 106 276 281 210 249 333 337 122 19 123 212 239 242 296 274 306 70 41 56 232 81 138 90 133 214 198 313 207 343 134 120 194 339 54 38 117 36 181 68 262 74 246 136 344 257 317 319 192 6 219 289 55 305 150 149 2 335 52 178 260 237 97 12
218 241 299 316 24 266 35 231 15 28 211 111 298 100 156 123 40 181 308 228 338 92 144 226 16 277 104 46 285 341 297 303 312 245 159 29 137 88 23 60 230 319 250 80 331 292 286 102 73 287 320 148 38 146 10 153 3 172 160 198 12 296 325 56 63 90 220 64 57 19 95 96 238 173 343 98 252 45 179 154 131 201 225 239 43 203 275 17 236 311 150 315 151 309 301 71 208 61 122 321 235 196 247 53 14 176 304 344 109 83 199 169 259 163 290 166 81 26 55 91 258 333 217 27 142 240 189 69 279 152 271 307 128 66 288 65 62 182 327 143 324 68 106 7 216 89 192 133 86 84 138 108 149 107 115 99 77 334 20 289 134 246 342 11 113 141 36 207 94 294 105 21 118 317 330 129 328 281 51 195 340 237 52 74 248 97 332 168 114 170 127 18 162 243 165 25 187 227 125 147 82 261 67 318 124 59 183 185 329 276 161 229 280 223 37 155 22 6 44 58 291 260 186 1 117 193 274 34 79 191 171 130 273 313 42 302 8 326 249 283 50 197 310 31 234 190 262 119 205 72 9 47 267 126 158 75 164 180 204 293 184 255 337 335 121 264 323 0 76 214 175 54 85 254 210 48 209 39 49 339 336 194 5 221 136 233 177 132 300 322 265 41 4 188 157 33 174 263 32 2 270 213 219 30 278 200 178 224 202 112 140 269 116 257 93 284 212 206 282 215 87 256 232 70 103 251 305 13 145 253 167 306 268 314 244 110 295 139 101 78 135 272 242 120 222
124 4 33 249 276 82 286 177 22 339 166 55 93 330 174 137 59 213 104 263 317 1 328 191 148 287 180 115 266 198 77 39 327 72 49 231 288 16 69 238 163 21 172 150 10 283 236 307 228 11 292 75 321 84 103 95 250 227 230 196 37 325 141 205 282 313 17 108 167 271 268 58 179 309 217 60 299 159 68 83 247 90 81 20 241 38 160 14 76 92 64 255 209 257 229 195 5 26 3 256 199 261 212 262 207 30 260 223 56 187 297 79 240 341 185 78 66 119 175 259 244 296 0 113 138 316 165 320 31 281 51 8 41 305 118 140 224 101 322 178 89 242 100 216 312 280 15 342 6 112 9 183 36 74 158 284 52 171 98 40 340 337 120 336 233 338 154 86 245 29 12 42 201 156 102 71 335 152 200 278 143 44 24 232 267 293 251 192 272 109 62 136 289 314 96 303 210 202 149 222 344 155 94 208 85 239 23 246 275 126 139 333 323 88 329 221 269 48 168 32 125 193 190 2 142 35 114 157 218 306 63 34 331 135 319 169 270 107 47 298 219 204 304 235 258 308 318 97 127 70 116 285 153 128 181 133 234 194 203 110 326 252 106 99 290 18 226 45 130 105 27 54 184 324 186 91 264 176 273 197 274 164 121 50 243 182 310 277 19 145 214 147 144 134 170 237 73 123 279 206 265 65 7 294 111 25 248 129 302 220 334 53 189 188 151 343 301 13 332 161 300 215 46 132 117 162 253 315 311 61 67 211 43 295 254 87 173 80 28 225 131 57 291 146 122
157 293 105 38 91 131 17 278 146 255 244 317 169 344 303 216 314 148 180 110 219 182 205 133 262 239 189 71 22 322 30 163 49 296 61 238 338 306 224 311 3 145 290 294 68 285 10 92 21 106 248 186 55 315 276 155 136 223 320 69 240 117 340 291 35 83 264 72 62 2 308 332 226 243 287 198 59 326 220 93 339 65 241 251 51 115 37 162 159 247 40 217 206 310 27 274 245 109 336 179 60 324 66 203 225 277 333 302 64 273 121 185 86 25 1 80 95 142 54 301 144 50 44 90 275 269 215 309 98 252 16 228 176 89 160 312 197 6 235 164 171 246 299 70 141 211 214 300 46 213 268 14 222 329 194 87 116 263 325 84 196 13 304 279 7 166 295 323 112 94 242 108 26 126 124 77 73 125 173 127 34 204 187 335 122 32 33 259 265 250 53 24 123 208 190 330 253 209 82 319 207 132 201 154 161 191 342 119 218 183 199 20 270 43 5 23 152 195 288 172 175 200 104 47 4 313 331 31 316 210 202 237 271 281 76 75 18 328 230 140 103 327 99 298 170 249 111 57 258 221 286 280 343 58 149 192 67 52 318 289 292 184 282 143 229 158 231 135 261 29 81 272 284 212 138 39 130 307 260 0 153 79 283 36 12 42 177 167 8 165 193 19 341 41 120 234 56 227 129 114 139 181 96 256 15 156 11 174 257 267 337 74 113 233 147 297 305 48 321 151 178 232 334 9 134 88 254 63 85 100 107 128 168 236 101 28 102 78 97 118 266 137 45 188 150
268 274 242 337 332 335 147 151 338 142 73 114 97 288 341 295 0 125 160 340 120 64 135 177 178 207 46 249 140 117 166 7 244 2 263 344 287 182 229 63 329 83 172 144 310 315 150 259 48 95 280 50 52 233 39 245 198 219 127 116 196 70 84 289 17 51 55 314 115 342 306 14 49 28 292 41 36 171 66 247 146 261 281 56 23 32 308 246 96 164 105 234 25 240 53 239 222 118 126 72 154 157 98 16 152 313 75 183 18 202 122 277 60 333 192 79 11 130 31 87 158 113 26 227 339 57 161 148 61 238 297 188 322 230 38 208 136 304 6 260 312 170 336 236 30 253 42 211 74 153 102 133 225 305 101 221 190 110 111 320 257 62 93 27 214 5 266 271 217 29 324 131 279 275 298 8 91 265 180 284 128 186 65 294 231 22 159 34 68 100 212 33 181 169 199 282 187 15 343 302 1 155 37 143 318 47 323 85 193 248 76 99 149 112 94 316 283 309 108 256 35 179 317 330 319 299 69 272 331 43 303 194 106 71 276 165 121 286 326 290 184 19 90 215 223 311 327 40 189 88 195 270 10 296 334 220 44 185 21 213 3 81 12 9 237 132 197 138 13 78 267 54 250 278 92 203 89 137 24 210 273 173 262 252 141 4 163 86 139 255 124 167 59 103 307 119 301 293 224 228 251 209 123 243 168 104 269 285 80 258 156 204 321 77 67 218 145 175 300 254 58 291 129 20 176 82 216 206 325 191 134 107 201 235 162 226 174 264 200 109 232 45 205 241 328
154 62 56 127 248 306 8 102 70 186 316 220 19 245 75 160 305 258 264 300 234 325 238 268 28 139 162 80 60 113 45 334 236 296 224 82 158 26 96 308 145 286 249 261 148 331 194 329 100 137 280 188 11 46 239 131 51 312 15 210 277 58 205 152 289 244 68 321 87 35 187 107 211 138 241 274 73 85 165 115 50 336 217 63 157 255 40 89 315 43 71 235 143 214 288 275 12 291 83 22 67 164 229 18 182 177 108 290 180 17 282 118 30 292 191 88 31 23 130 122 273 279 328 0 25 72 98 298 269 44 339 302 175 105 110 112 41 47 311 55 39 263 293 307 61 294 320 206 93 230 7 3 226 216 332 155 272 340 337 295 170 64 209 36 185 24 97 203 16 123 341 91 215 9 324 48 66 38 251 133 204 192 29 49 301 253 199 281 141 246 218 208 196 318 90 313 33 163 285 343 119 2 284 179 53 319 304 225 314 117 327 223 240 231 1 168 37 136 201 183 150 116 260 151 256 94 42 69 109 135 74 129 326 323 299 79 77 21 167 333 184 10 14 189 257 266 213 243 242 65 128 166 338 271 81 335 86 207 195 120 32 5 111 103 144 262 173 176 20 13 250 342 219 259 27 59 222 287 159 297 104 228 142 161 303 172 310 233 197 126 237 247 125 283 200 190 149 278 4 254 265 78 114 106 76 252 124 227 174 95 270 193 57 309 153 171 169 330 276 121 34 92 134 267 198 140 322 178 344 147 156 52 202 232 221 181 146 212 317 101 84 6 54 99 132
230 229 342 49 75 27 95 198 299 272 200 331 246 21 284 232 33 167 150 205 218 286 237 211 227 300 311 328 194 82 42 34 171 248 118 102 29 138 14 275 61 277 240 32 249 116 238 285 307 185 152 261 201 149 133 113 5 290 210 243 52 214 156 250 13 269 330 10 25 207 91 235 56 39 208 183 281 45 70 59 43 58 333 54 324 294 8 327 12 224 55 50 120 329 165 301 343 270 16 172 86 72 282 22 260 35 209 177 295 92 23 110 266 124 144 221 130 217 2 44 83 225 3 308 253 122 184 115 293 259 51 127 262 288 141 4 256 105 6 241 257 187 274 98 335 325 140 78 291 37 309 123 244 226 85 151 111 280 90 334 11 47 74 53 101 139 143 318 296 63 173 103 46 125 89 283 57 206 255 271 100 0 289 38 228 182 326 251 322 84 79 169 193 315 147 273 94 195 9 30 196 60 215 26 7 254 93 107 239 204 36 62 142 292 220 339 163 66 233 48 109 87 178 219 126 222 202 188 216 104 76 131 223 199 247 297 67 129 20 153 231 97 80 24 157 213 252 15 117 108 197 69 338 136 203 268 321 279 81 344 168 263 18 298 88 134 73 181 212 106 190 159 310 99 242 191 160 114 313 158 176 265 41 258 164 135 303 170 40 306 314 323 137 175 236 340 121 312 31 267 337 264 132 128 189 332 1 317 71 28 148 68 65 319 119 336 174 146 192 64 77 278 320 154 17 96 162 161 276 305 155 112 287 341 166 19 186 180 234 304 179 302 145 316 245
225 177 45 19 71 187 47 309 11 242 288 214 54 72 231 332 51 13 163 172 18 70 196 97 295 267 79 74 311 49 35 268 58 335 195 250 90 178 201 151 65 134 125 23 99 102 256 156 85 169 153 103 162 0 320 240 55 10 144 56 283 223 296 21 61 82 336 342 304 273 294 148 60 292 101 197 4 249 132 108 63 257 36 42 24 62 323 175 331 78 98 339 299 222 220 205 39 194 149 264 38 236 173 269 343 104 202 22 100 164 168 209 318 159 233 109 112 68 93 315 226 67 290 131 279 28 314 338 126 133 6 145 120 259 282 253 66 87 152 161 25 280 229 310 146 5 165 281 69 179 73 2 271 265 334 30 325 107 210 59 291 41 305 274 234 128 204 53 260 262 180 95 29 244 308 241 213 216 15 289 198 319 64 171 182 167 327 278 20 263 111 181 96 139 341 247 48 224 297 322 174 31 337 137 17 117 80 127 105 208 160 50 189 218 217 270 235 44 190 135 43 306 91 12 243 40 84 248 228 312 26 245 317 215 77 155 302 143 32 307 52 237 324 284 114 232 1 86 191 142 129 81 157 37 199 7 239 166 3 33 277 186 183 188 275 344 328 141 9 255 121 340 75 272 276 313 261 193 110 246 329 158 286 116 34 8 138 46 130 333 94 16 266 230 252 76 301 207 185 88 176 92 258 285 326 300 184 14 140 192 119 254 227 124 221 238 330 170 219 206 293 106 123 212 298 136 147 113 118 203 57 154 150 200 287 316 211 122 115 27 83 303 321 89 251
192 88 97 267 215 279 312 199 149 208 145 224 70 144 137 220 38 161 168 284 12 63 129 131 150 185 237 228 123 143 107 304 32 323 49 195 7 175 146 151 212 120 81 98 338 138 83 117 182 0 264 132 322 299 241 219 202 198 90 105 334 321 22 106 296 163 201 206 190 67 271 122 99 14 270 233 165 36 18 343 1 339 34 281 40 91 104 17 268 157 313 139 100 257 85 291 242 187 176 160 341 177 184 266 316 247 310 114 72 93 330 186 26 290 79 253 324 29 301 286 225 89 53 340 261 147 293 332 309 166 307 230 103 229 302 265 214 21 331 78 311 308 246 300 197 188 23 287 148 251 51 159 289 69 278 124 231 95 162 263 335 6 283 66 4 223 102 282 57 125 86 19 9 294 135 73 318 235 152 71 3 24 260 82 133 254 27 329 74 183 288 211 244 218 336 11 236 158 298 44 275 154 116 31 252 222 43 248 173 48 207 37 155 226 64 45 142 217 55 216 234 62 112 238 255 140 239 35 179 96 87 328 262 178 46 325 333 269 108 65 240 80 314 274 280 221 297 15 2 84 20 5 127 54 315 25 153 171 317 68 121 56 303 59 10 126 319 30 113 292 213 119 172 272 109 52 76 193 167 111 205 243 320 41 128 203 249 141 305 8 196 327 33 94 180 60 77 115 13 258 210 337 156 273 342 250 130 169 189 209 276 61 42 181 204 58 259 39 200 174 92 50 227 75 277 136 194 118 170 191 134 344 306 28 164 47 295 110 245 232 326 256 16 101 285
242 39 285 233 171 119 145 338 26 232 57 72 63 36 255 175 214 101 240 190 299 292 266 82 87 48 130 16 337 12 237 46 254 223 155 322 294 245 88 217 169 108 305 121 84 269 14 231 213 19 98 33 70 117 128 163 2 185 325 260 334 75 24 120 314 236 218 261 323 65 239 69 11 18 15 54 83 215 152 42 90 181 265 148 129 199 271 227 252 35 44 194 73 187 307 143 296 168 27 113 1 28 104 31 153 133 118 127 221 161 207 165 284 147 276 189 124 179 209 317 202 341 288 92 343 136 316 302 193 319 300 262 60 5 8 248 272 289 132 4 20 246 192 141 267 247 144 335 224 59 89 344 206 96 182 216 320 140 282 94 278 196 22 105 68 184 32 74 100 109 274 17 85 204 304 6 259 331 149 58 67 173 191 287 64 166 312 301 326 137 62 290 170 235 275 318 157 293 251 297 41 71 313 159 131 226 43 134 309 234 210 77 23 263 336 329 333 256 40 21 332 51 79 186 291 115 162 30 308 183 111 45 315 279 205 200 61 222 188 160 324 91 306 156 142 250 0 244 110 180 327 298 158 29 106 97 126 139 253 176 273 178 172 123 102 286 230 258 66 25 203 95 295 150 177 238 53 198 212 146 49 208 167 13 330 219 76 135 52 34 328 7 114 103 283 99 342 228 280 50 340 257 270 241 243 225 125 303 112 38 174 211 10 47 78 151 80 197 154 220 277 310 116 195 281 321 122 339 268 37 164 107 249 311 56 86 9 264 55 81 3 229 93 138 201
267 144 158 21 287 233 50 299 146 341 176 237 316 134 196 335 87 89 99 273 49 314 218 206 251 43 57 147 123 130 113 178 143 86 31 292 157 48 171 152 318 107 313 186 288 0 262 166 141 67 320 55 268 297 197 238 216 260 94 7 170 151 142 271 229 145 155 129 84 32 208 103 184 140 3 149 246 323 227 253 270 185 305 104 279 249 137 217 322 25 162 62 187 250 75 120 304 311 138 240 177 102 112 263 80 106 15 293 223 41 232 220 100 173 254 172 163 73 132 108 59 16 209 303 301 257 136 239 125 211 126 296 329 115 36 289 82 116 258 180 231 310 280 194 202 328 154 332 219 285 333 225 272 265 13 344 213 340 245 133 215 183 10 97 46 4 290 58 101 6 117 72 330 312 44 281 343 199 161 307 248 71 226 228 182 109 284 30 336 114 96 88 93 69 339 45 135 243 42 212 324 66 28 235 277 128 274 203 286 14 124 331 150 90 60 188 325 111 65 5 275 95 319 11 224 242 342 181 24 85 278 298 204 37 175 2 35 165 17 74 159 189 306 190 214 230 77 33 81 164 295 22 12 18 8 51 192 52 23 338 201 121 110 40 168 193 222 259 131 61 300 39 308 200 198 148 241 53 256 282 63 315 244 19 26 91 54 236 294 207 309 247 118 317 205 266 76 269 105 78 291 160 276 79 302 264 221 119 9 153 122 283 47 139 167 70 20 83 27 98 326 34 327 156 210 321 337 252 234 92 191 174 261 195 56 38 64 255 68 179 1 169 127 29 334
6 335 201 169 159 38 265 317 61 66 136 110 339 145 27 341 14 244 52 37 211 78 267 207 90 153 11 32 83 247 113 254 264 54 76 131 322 303 122 241 168 304 248 204 309 306 191 152 318 329 144 232 214 208 225 104 30 186 139 21 106 187 18 311 117 36 164 74 271 188 297 308 314 47 1 257 59 203 40 289 228 231 103 86 279 195 25 213 15 235 150 205 282 172 16 126 65 263 183 4 229 109 315 281 0 165 97 199 220 68 343 266 242 118 10 123 48 81 147 221 44 102 39 190 64 134 179 251 219 194 129 268 31 206 99 148 261 114 2 154 80 193 124 162 173 316 12 171 23 310 146 274 20 177 72 291 135 210 141 323 227 49 280 128 26 84 239 151 320 332 325 132 275 296 24 202 58 5 299 222 71 85 176 112 41 63 149 143 298 157 305 87 340 328 69 160 327 181 22 115 73 249 255 300 269 230 94 326 167 284 200 133 196 226 3 184 155 34 105 108 259 333 98 290 234 295 262 238 50 178 288 13 252 17 301 119 233 338 344 330 125 292 270 142 121 55 293 319 107 342 79 180 212 253 216 170 337 130 96 120 51 57 75 287 175 286 174 95 285 166 62 277 101 138 8 245 189 45 272 197 70 53 283 43 91 224 313 88 276 127 28 33 92 42 60 7 215 137 35 294 185 158 116 163 209 256 198 77 250 237 307 192 331 336 100 19 9 89 217 46 321 258 324 240 273 161 111 56 140 312 302 67 156 218 93 82 243 236 182 278 246 334 260 29 223
247 324 301 158 268 186 302 134 95 18 60 254 274 311 45 130 24 12 327 82 126 339 265 15 192 113 258 207 198 153 47 182 148 2 38 13 68 230 237 287 308 233 275 39 335 221 156 204 208 115 124 94 296 166 210 300 17 201 75 257 52 184 59 322 241 133 69 235 211 240 90 103 10 145 246 164 217 337 269 73 181 191 146 132 93 120 214 263 118 317 116 326 251 229 111 172 102 54 331 223 262 128 169 41 315 316 250 104 20 119 71 16 215 3 22 109 180 46 97 318 105 152 312 137 319 264 270 290 79 14 25 4 50 314 336 330 161 342 253 35 249 92 58 188 193 33 9 55 273 64 127 279 125 62 155 220 42 283 168 112 30 309 185 231 298 11 267 63 7 100 225 91 8 310 179 144 202 66 74 23 297 209 40 259 332 205 178 306 53 159 129 281 139 282 305 88 84 187 48 238 81 255 244 199 328 131 107 248 213 227 49 65 340 175 85 170 98 167 278 56 219 61 36 190 277 28 329 123 212 333 299 101 203 226 243 96 242 200 338 288 344 280 70 89 26 19 321 266 108 37 78 232 157 313 320 285 341 334 294 77 31 171 194 21 293 261 99 135 222 218 216 117 51 5 256 151 140 57 303 271 177 121 147 162 197 234 236 304 32 183 224 136 86 143 173 289 83 189 29 272 174 141 343 252 284 67 228 165 142 87 323 6 76 163 196 291 110 27 150 106 292 160 295 43 80 176 286 245 72 149 307 154 260 34 239 206 122 138 276 114 325 195 0 1 44
224 28 298 307 103 149 336 316 308 50 232 292 235 101 95 324 84 70 223 156 185 141 116 125 105 138 94 45 244 317 236 110 321 284 320 18 121 25 199 291 195 83 206 53 337 215 132 169 171 13 58 39 16 176 325 241 119 275 328 60 210 261 323 65 137 214 300 122 32 249 142 44 30 34 338 69 266 188 282 208 268 102 26 192 140 167 175 211 253 287 237 327 63 159 130 143 165 168 61 66 57 31 246 96 166 277 136 182 314 135 190 225 263 312 86 81 274 173 4 111 332 212 1 301 174 147 231 126 245 59 306 21 91 187 220 163 93 10 239 104 79 342 286 157 11 218 242 180 38 256 37 217 250 148 23 54 273 40 133 216 262 339 56 115 313 302 311 219 29 51 41 154 49 15 198 233 47 178 129 335 331 271 234 344 315 74 213 264 207 89 145 64 227 124 6 200 252 33 127 278 309 98 230 303 251 334 202 82 76 87 77 319 14 186 283 8 296 258 299 170 131 75 189 181 177 134 27 48 270 108 3 152 123 62 22 318 172 43 294 112 221 128 326 55 304 330 155 118 90 162 72 183 36 12 0 17 290 203 158 305 293 201 193 161 297 114 229 259 272 204 243 88 340 120 281 9 97 248 107 19 2 109 240 191 238 228 67 288 343 151 35 106 7 276 196 255 279 197 341 322 333 179 71 24 42 247 295 68 280 78 99 144 139 194 117 150 20 329 146 52 269 267 73 310 222 5 184 113 153 285 164 226 289 160 46 80 85 209 205 265 92 257 260 254 100
342 4 137 249 73 265 57 330 287 205 140 121 188 116 206 289 105 207 146 124 52 47 12 313 128 259 134 18 154 344 241 43 90 339 15 186 308 167 157 335 19 129 88 219 337 103 210 285 317 334 280 25 126 155 189 187 14 76 262 101 149 329 340 278 49 82 132 174 193 229 11 50 275 230 211 185 286 172 61 272 291 292 38 39 242 326 328 2 158 314 208 274 216 156 323 99 252 68 21 8 86 9 306 67 80 321 141 299 246 35 112 215 91 125 65 209 197 23 29 248 305 256 60 192 92 34 307 341 6 202 74 131 166 41 63 224 17 221 266 263 244 42 58 225 139 13 133 10 145 161 184 312 220 111 78 151 136 176 44 310 159 102 70 119 59 83 223 55 194 163 71 168 0 251 327 84 213 264 40 302 309 123 37 236 288 77 324 150 69 297 53 199 240 300 87 239 227 271 97 7 98 198 250 31 276 277 191 27 258 142 147 322 270 301 231 243 118 238 179 333 296 203 180 66 247 200 115 175 304 171 28 316 85 165 338 201 343 108 283 178 254 214 170 336 109 290 318 1 182 62 135 81 311 315 273 218 153 48 232 100 281 228 22 257 75 204 162 51 255 138 56 95 320 36 114 279 72 169 152 117 269 331 183 196 79 46 237 325 293 107 217 268 110 30 298 177 294 26 120 144 113 303 94 33 127 24 164 3 32 64 212 16 295 261 233 45 54 195 190 332 89 253 160 245 20 260 267 235 282 96 93 222 234 181 148 130 173 226 106 319 5 104 284 143 122
180 26 152 200 321 127 320 143 28 225 16 231 4 178 316 343 322 272 276 336 206 113 186 51 34 280 35 243 66 260 6 333 157 241 14 318 207 278 169 95 123 138 112 136 165 90 252 330 72 10 77 202 326 342 327 145 223 71 61 283 338 110 230 131 88 76 287 39 228 298 237 248 323 68 78 94 32 45 290 232 147 285 261 215 87 40 43 128 239 2 301 151 284 210 211 344 171 116 135 23 170 185 3 48 92 22 245 181 266 47 122 62 194 216 11 129 312 52 220 271 114 159 146 5 224 89 149 172 337 325 240 251 160 104 294 69 179 184 15 29 97 19 229 109 56 204 196 201 134 18 86 273 255 107 1 174 258 302 315 117 38 141 313 118 20 139 105 102 249 164 7 314 189 234 50 289 264 65 209 81 130 60 177 277 296 328 187 13 212 41 324 126 213 317 96 238 293 140 103 309 57 331 133 308 250 188 270 286 221 58 156 8 49 9 176 192 155 208 83 235 82 63 42 27 70 31 119 148 142 300 295 100 37 75 153 59 305 306 292 267 101 25 175 67 64 190 254 79 166 246 44 173 291 340 341 203 281 222 168 265 124 269 167 93 219 236 55 144 73 311 307 198 84 137 247 334 310 115 279 24 183 242 199 162 244 282 197 21 36 106 274 191 121 257 132 217 319 74 263 0 218 98 329 195 193 339 17 214 46 30 182 12 297 288 259 154 33 158 150 99 233 268 91 303 163 299 304 275 262 226 80 53 54 108 332 205 125 85 161 253 227 120 111 335 256
235 35 46 84 195 261 244 175 308 216 296 54 307 292 198 342 213 61 335 208 166 344 42 312 272 12 192 322 151 200 160 305 100 148 238 300 303 225 289 247 92 1 164 309 169 56 89 143 74 11 293 278 10 224 38 285 270 260 318 255 142 117 94 4 149 316 276 77 98 36 147 265 20 134 155 112 259 171 252 102 226 267 336 211 50 110 302 118 141 5 113 133 196 268 314 251 333 324 2 266 214 319 298 71 286 101 168 115 47 257 219 313 86 30 237 246 167 45 124 253 146 206 76 41 68 0 136 193 337 283 287 125 91 122 184 150 135 73 231 177 53 274 28 243 79 190 320 173 26 221 140 321 85 230 234 126 180 209 240 186 159 229 128 165 210 280 62 29 327 15 262 34 334 63 23 80 263 304 21 343 70 48 120 187 44 290 325 132 96 108 106 13 188 88 338 51 17 282 250 288 31 341 75 254 232 59 172 176 111 3 170 107 8 33 97 162 332 330 65 245 281 207 329 49 269 18 9 222 264 297 81 99 204 127 78 87 233 294 315 228 189 152 279 14 139 197 174 64 83 203 43 271 153 114 24 90 144 258 57 82 39 19 236 295 22 205 66 248 242 185 154 339 223 215 284 32 273 310 301 275 217 137 311 182 156 52 201 95 6 218 130 299 323 202 131 37 157 109 7 178 181 72 40 93 163 158 105 306 227 239 123 194 328 129 220 67 60 326 119 121 138 104 103 256 116 241 58 145 340 16 69 199 55 27 212 331 277 317 183 161 191 291 25 179 249
148 41 232 163 20 34 107 166 216 282 287 208 183 88 209 175 342 220 57 323 132 146 10 165 180 172 154 168 6 274 300 235 15 142 158 151 213 197 261 19 42 225 308 317 78 47 58 43 289 190 280 339 21 245 253 275 118 228 16 101 69 55 152 326 314 288 203 138 160 59 135 327 198 157 239 125 243 237 307 330 51 255 162 46 144 248 80 204 322 324 325 123 340 313 3 281 36 119 179 265 126 71 272 293 74 210 303 328 337 33 145 244 249 187 273 174 201 111 70 44 105 311 91 221 122 124 318 129 104 238 335 254 82 341 24 305 13 212 76 321 301 92 184 257 68 53 95 32 338 87 65 169 315 218 72 115 99 141 319 292 50 93 66 143 251 40 290 85 83 23 247 127 185 276 97 28 219 54 320 103 102 61 205 336 0 231 309 316 294 12 56 310 285 252 186 17 297 159 331 133 167 79 121 130 60 147 230 35 263 258 312 128 211 84 5 188 259 176 223 229 296 202 246 266 302 277 117 267 286 1 250 140 113 153 134 38 48 222 131 196 279 7 64 226 37 240 332 96 8 89 260 52 139 334 192 291 268 81 9 77 75 234 217 344 25 155 149 90 298 73 278 45 63 199 106 284 242 31 329 137 161 283 49 26 206 170 233 262 304 214 178 207 173 191 264 86 189 110 194 136 236 343 306 271 164 182 156 62 98 27 22 116 109 224 29 11 200 39 100 227 67 333 150 14 181 94 108 295 30 120 193 177 256 171 270 2 215 269 114 241 112 195 4 299 18
325 162 68 196 260 179 93 55 94 235 39 275 313 195 90 247 109 256 131 166 150 87 121 135 262 18 271 291 160 281 6 32 316 194 218 334 100 3 335 230 17 53 263 216 151 226 285 290 129 258 274 270 251 86 280 201 180 252 40 191 326 261 246 177 44 342 283 149 124 81 85 298 167 286 255 5 336 237 225 165 292 126 92 317 30 310 71 293 156 321 133 229 295 236 234 134 197 305 88 209 82 4 210 98 276 175 95 38 268 136 304 186 43 170 309 208 289 112 132 130 33 120 77 172 13 243 46 176 202 308 65 206 297 331 159 203 15 253 79 318 239 339 277 227 127 104 199 264 329 148 221 248 64 1 158 122 250 183 35 108 45 141 69 301 99 190 152 164 315 287 222 57 28 24 89 303 294 319 105 328 169 288 96 242 267 111 137 145 25 323 311 56 282 269 139 327 47 91 119 103 204 161 213 102 36 49 223 19 101 259 299 178 51 128 302 62 168 187 278 320 27 0 83 192 20 238 224 29 143 80 207 8 249 163 125 48 332 52 153 78 344 118 9 217 330 60 273 215 22 232 67 59 233 116 265 138 31 61 76 117 74 244 219 50 7 189 173 300 182 70 174 198 54 338 322 341 97 16 266 257 140 307 142 144 272 41 306 155 12 34 245 73 123 110 193 84 146 188 10 113 296 228 185 181 106 284 314 337 212 343 26 214 241 184 75 205 72 37 115 333 21 66 23 114 14 11 200 211 240 147 171 312 42 2 63 107 279 254 231 157 154 58 340 324 220
330 145 73 146 13 152 86 264 220 97 290 208 62 185 343 323 316 179 213 9 29 61 301 93 229 319 55 240 154 155 293 234 325 21 195 235 296 139 43 263 33 141 119 335 133 1 190 104 60 270 34 30 194 232 244 63 114 82 309 291 14 19 57 332 112 107 66 259 216 69 262 227 191 88 242 258 166 96 101 200 273 253 269 50 42 52 45 79 338 239 304 281 236 153 71 342 7 28 294 76 222 251 110 162 99 122 324 81 183 257 94 109 163 204 167 72 256 197 53 174 172 210 135 118 106 54 230 288 176 187 67 171 292 11 16 131 209 92 340 169 286 233 149 121 46 250 321 130 279 77 78 285 254 267 339 116 223 51 156 266 226 142 337 75 158 40 159 317 248 120 298 252 170 32 10 49 268 168 186 148 125 143 278 27 249 48 341 138 39 277 115 108 315 331 132 3 299 80 58 173 22 241 344 100 37 311 265 214 95 126 218 85 65 35 300 274 184 20 23 307 283 140 161 246 157 2 31 329 275 297 83 224 56 147 74 111 199 211 305 134 333 129 260 255 328 313 320 151 280 308 318 310 225 103 196 164 18 117 182 17 221 205 212 303 150 276 189 25 271 272 160 289 70 322 102 124 198 8 38 326 87 123 217 128 89 261 219 178 113 180 206 165 203 327 228 284 0 245 336 287 15 231 4 12 302 312 144 207 314 137 175 6 237 41 26 215 24 247 5 295 105 188 136 192 238 44 282 59 84 64 193 306 334 98 181 243 36 47 127 201 91 68 90 177 202
253 196 337 80 117 165 267 78 327 310 61 36 331 109 102 135 128 318 9 75 333 52 185 203 279 134 300 119 295 233 197 326 272 277 161 193 113 45 123 344 90 124 138 35 150 39 73 96 343 69 121 26 307 27 249 93 177 182 38 87 97 188 179 266 296 118 137 254 20 290 10 303 317 316 55 95 114 246 200 163 259 156 139 207 320 81 235 243 319 241 287 211 66 339 262 284 160 324 217 268 147 292 105 29 184 225 60 100 166 216 120 178 140 51 202 129 230 167 63 213 338 256 311 155 64 252 299 173 335 154 291 62 126 312 110 293 47 251 260 332 208 274 142 278 13 285 265 263 218 85 31 205 136 304 16 146 174 58 7 270 201 19 37 224 199 322 159 23 42 302 72 14 144 206 186 18 94 48 125 43 99 183 280 168 103 12 247 108 228 6 158 340 59 281 194 25 130 301 88 76 2 336 321 65 77 79 153 131 283 175 82 234 71 57 257 288 0 286 151 191 141 223 305 84 40 89 50 222 245 189 56 334 44 238 180 3 298 244 198 176 294 46 232 190 297 261 70 229 313 258 83 231 143 4 264 111 112 116 315 314 15 164 49 132 74 68 289 215 330 91 152 115 227 341 34 30 170 237 67 329 328 33 92 53 86 21 22 236 24 275 240 28 169 172 145 212 104 107 157 181 5 250 325 239 133 255 122 106 342 220 219 127 306 1 187 242 308 226 276 149 204 210 323 192 41 148 248 214 11 101 309 17 171 221 195 271 273 209 282 269 162 32 54 98 8
281 35 25 297 150 110 146 186 1 128 12 294 119 171 272 184 2 86 181 99 98 17 147 140 137 224 273 156 71 76 222 244 67 241 214 78 318 196 298 338 104 31 313 108 296 130 82 301 178 174 228 81 253 304 93 94 332 240 173 79 8 0 16 50 282 323 246 336 235 136 66 179 145 45 291 218 324 14 88 106 182 58 303 267 83 42 216 236 141 322 30 117 172 148 149 32 36 341 243 18 238 41 39 85 330 19 268 120 177 187 169 54 89 329 20 302 203 337 55 162 220 321 255 315 335 269 170 195 307 333 90 180 127 161 193 274 289 208 103 280 331 344 43 63 260 295 61 175 194 29 237 116 199 49 74 226 279 101 143 164 124 227 118 230 185 37 191 326 122 133 262 188 7 229 95 256 242 263 299 190 287 343 21 155 314 316 166 248 189 233 53 144 91 283 334 328 160 102 168 163 153 70 217 325 261 9 249 284 306 151 92 312 293 264 121 44 200 5 205 28 215 285 192 112 3 154 258 245 206 202 26 210 132 15 327 115 300 251 219 87 33 259 213 138 60 247 278 340 309 139 23 77 72 311 10 266 97 305 207 157 339 131 13 225 271 125 265 257 51 221 152 62 159 254 308 134 123 204 250 239 46 275 22 114 310 142 47 48 158 4 342 232 320 319 197 211 56 276 24 52 231 290 113 100 317 167 288 223 165 198 176 65 6 73 68 80 27 270 57 11 96 286 111 59 126 212 40 34 84 64 105 129 109 75 135 292 107 69 209 201 234 183 252 38 277
141 195 297 176 208 242 129 326 60 173 210 125 225 88 181 73 159 10 22 218 178 201 200 276 93 269 300 3 248 205 116 81 156 256 330 185 293 136 79 145 99 302 203 243 55 333 188 308 322 167 187 39 198 315 175 250 174 236 75 261 197 33 280 26 285 111 286 69 331 227 109 274 264 37 21 260 338 131 113 78 233 34 324 177 123 323 216 161 32 1 49 172 96 66 311 183 292 344 53 76 279 50 158 40 23 36 238 278 24 270 138 82 154 228 267 63 15 57 163 117 107 112 289 86 275 30 235 295 199 7 224 95 85 277 230 266 332 221 4 180 56 339 147 45 191 58 307 54 87 105 251 100 215 162 92 179 108 157 12 291 240 77 217 170 220 114 282 211 28 2 43 140 304 246 244 229 151 202 31 234 209 325 239 305 59 149 204 62 72 130 146 288 337 14 263 127 272 35 283 253 29 150 252 126 184 52 182 341 120 20 25 164 160 316 190 314 106 44 27 74 189 94 135 335 134 90 247 206 5 298 336 287 340 226 259 133 271 254 124 290 137 91 13 38 249 9 103 98 186 342 255 320 328 281 219 169 241 11 296 89 222 334 166 194 306 19 313 139 318 142 299 68 0 258 41 152 110 265 122 193 196 310 16 64 46 48 67 294 8 231 47 71 207 144 213 80 51 118 84 115 317 237 273 171 101 312 321 212 148 284 232 143 70 65 121 97 17 153 42 102 329 18 214 6 327 268 104 257 128 155 132 343 83 319 165 61 223 301 192 262 303 309 119 245 168
