258 296 282 208 274 188 25 1 219 85 47 45 240 327 103 94 68 96 247 294 179 174 278 65 63 112 66 292 260 338 123 5 173 214 311 193 19 211 309 232 192 205 236 176 267 30 141 251 328 300 35 73 108 268 305 59 3 120 106 221 337 253 242 17 239 225 62 200 301 54 52 53 161 303 177 344 41 228 91 244 151 336 156 80 256 170 201 67 207 302 259 139 74 220 334 339 50 226 9 72 350 119 18 105 76 283 241 198 70 250 340 6 146 319 203 182 215 265 93 323 277 231 114 234 281 134 257 57 262 132 186 137 16 222 145 249 169 286 248 212 109 153 227 39 285 107 181 11 237 154 95 14 34 102 233 167 136 22 121 297 273 348 299 110 298 318 24 185 8 199 180 82 341 38 206 342 288 158 287 125 104 243 97 157 178 321 210 147 168 326 272 148 90 306 238 92 312 87 48 166 333 172 27 284 270 275 204 31 195 143 307 10 291 246 290 100 346 155 218 347 33 325 271 317 55 160 230 46 308 304 213 330 331 144 264 84 289 40 128 36 60 163 266 51 295 332 126 223 269 7 77 111 171 349 322 197 78 313 15 124 127 235 261 115 252 196 75 4 187 135 229 32 152 61 43 117 279 216 21 164 316 101 13 190 310 83 165 86 314 69 64 280 79 343 217 98 23 345 118 191 142 255 184 28 12 149 113 254 116 209 245 29 276 58 89 129 224 88 159 189 130 202 138 324 37 150 293 56 44 194 49 133 20 122 140 81 183 162 175 320 329 335 71 263 315 99 0 131 26 42 2
327 183 122 2 243 95 60 320 332 10 314 293 94 213 58 161 341 269 88 114 129 45 328 128 141 202 170 168 257 265 86 207 270 115 297 48 244 230 237 206 201 41 52 249 137 307 325 51 303 248 49 118 145 282 158 30 76 192 263 273 140 339 39 107 209 173 259 134 255 89 179 102 166 7 310 283 225 69 66 67 222 254 220 280 146 175 278 116 15 20 279 285 65 112 289 189 337 291 214 349 98 148 264 125 54 294 79 33 29 203 167 342 228 198 277 324 4 1 17 131 91 26 9 28 71 132 298 150 85 110 232 169 274 43 218 227 261 3 142 191 109 309 275 12 300 185 123 199 31 57 13 96 251 296 119 252 100 186 171 212 127 21 81 262 16 155 313 157 0 25 165 318 84 99 304 160 345 78 204 93 136 40 151 62 321 56 238 153 64 267 281 190 200 36 164 196 74 63 242 329 215 315 292 59 323 335 260 159 233 149 124 27 272 130 72 258 180 178 286 195 42 172 322 229 90 205 311 235 331 234 156 35 144 208 97 246 73 103 163 194 305 133 121 120 312 154 338 55 105 344 14 44 22 216 92 138 250 333 301 83 126 302 288 47 276 193 319 245 147 219 316 32 217 226 184 330 143 61 162 334 46 266 24 197 34 239 108 346 236 8 5 82 231 38 256 117 241 187 287 37 23 340 139 317 18 80 70 113 210 211 306 181 223 343 271 11 135 111 50 87 176 104 106 68 299 174 326 350 347 336 6 308 221 101 295 188 284 19 253 152 348 182 240 290 224 53 247 77 268 177 75
45 203 86 47 111 322 152 22 158 172 62 8 26 94 249 57 222 123 312 195 331 240 110 142 284 233 327 175 202 328 274 189 285 97 108 350 230 174 212 29 261 345 347 177 160 286 27 251 218 182 118 236 137 326 276 166 65 60 256 64 155 78 49 19 104 238 319 95 117 339 2 246 138 335 291 192 141 213 169 85 131 70 179 46 315 149 43 197 303 281 243 228 324 185 121 101 260 13 130 316 154 103 12 186 343 206 200 226 67 50 344 54 289 214 126 305 227 244 310 38 124 215 75 98 77 178 11 153 68 239 211 99 199 48 282 41 134 231 15 311 161 51 163 23 80 336 66 53 150 250 79 59 207 3 81 306 219 87 280 173 0 234 35 168 100 144 89 241 307 135 338 69 71 220 63 283 33 145 232 265 91 140 106 216 133 254 292 334 5 170 159 321 320 125 139 102 56 298 10 271 14 247 176 196 164 270 90 194 300 299 318 31 55 198 114 30 146 262 342 346 93 348 293 229 224 245 74 122 171 76 21 252 72 329 193 88 1 209 267 6 190 295 44 187 16 188 287 17 266 34 341 165 115 181 18 330 157 83 259 52 340 317 128 82 148 205 217 257 332 36 113 116 237 9 264 39 20 184 337 253 225 191 273 4 277 223 248 349 210 296 73 314 105 272 7 235 119 32 275 313 208 323 120 156 304 180 92 258 297 221 127 147 268 255 242 58 302 25 112 151 279 204 42 132 28 290 24 40 308 107 84 288 309 333 136 301 109 325 294 263 162 61 143 129 37 278 167 201 96 269 183
7 297 306 113 108 184 34 114 266 109 82 323 328 315 107 231 148 243 234 349 171 244 65 229 59 131 39 193 102 26 19 347 342 87 136 91 331 45 340 6 221 134 103 329 316 89 346 5 123 28 284 252 180 311 320 286 132 192 255 88 25 272 223 288 115 313 213 195 22 40 250 51 157 101 3 70 97 99 264 220 33 217 84 135 165 163 164 181 137 48 17 310 247 1 186 204 205 130 291 318 30 317 177 95 61 292 287 124 242 151 298 73 133 179 207 226 72 4 304 203 9 146 197 100 11 126 283 155 112 202 56 199 125 185 159 246 285 110 43 237 337 209 303 267 245 319 294 169 141 194 228 118 106 289 170 265 150 18 338 253 162 262 46 261 191 254 0 271 67 333 154 49 54 80 280 77 183 50 270 206 142 341 321 64 178 90 81 83 55 182 105 8 156 127 63 249 158 69 322 149 129 111 218 251 76 94 176 282 79 210 15 295 38 325 116 214 57 187 222 224 301 305 168 211 235 42 74 232 27 92 260 153 139 239 290 238 300 241 189 233 119 20 96 128 66 35 14 161 212 227 37 53 314 343 345 268 219 273 85 60 201 198 230 335 281 296 279 307 336 302 208 145 350 93 344 188 274 278 225 52 257 348 174 78 258 71 309 121 47 334 269 140 263 120 330 200 143 332 327 24 58 175 29 62 86 23 41 275 339 138 312 144 147 216 36 98 166 248 104 308 2 75 16 160 31 190 259 326 117 167 21 293 324 13 276 240 44 236 215 68 12 256 172 277 32 10 122 299 173 152 196
168 192 77 311 304 242 254 295 306 225 262 290 274 266 296 125 42 163 102 106 325 67 127 22 114 107 221 24 271 326 329 244 216 78 95 4 239 129 340 209 97 31 103 72 1 147 157 9 232 332 136 236 183 251 248 30 35 198 270 135 172 109 222 0 141 249 11 33 146 181 243 117 5 51 215 134 84 324 38 108 132 79 235 289 25 313 110 119 165 123 307 50 343 68 20 301 167 227 342 81 259 281 312 170 61 99 113 253 53 75 327 292 8 143 237 15 62 280 180 208 258 83 115 87 154 317 19 177 229 273 223 161 267 155 16 152 64 218 341 174 318 234 293 331 226 205 350 158 179 339 14 319 3 44 347 300 190 60 52 212 7 245 265 86 150 96 6 269 316 73 257 88 93 195 305 315 23 49 255 17 247 82 240 193 173 160 65 252 214 159 140 345 184 162 335 91 330 336 204 231 189 285 133 166 268 323 178 112 284 70 308 210 124 320 145 176 294 122 21 148 39 346 278 90 36 169 182 128 85 149 186 131 349 56 322 43 121 28 328 286 118 40 69 34 348 298 48 282 37 233 105 314 261 211 18 206 207 80 58 151 111 272 98 89 171 299 126 120 45 224 101 57 246 74 256 217 164 116 188 46 238 321 230 201 202 76 283 32 94 200 309 297 277 291 196 100 26 264 344 139 263 156 66 302 275 334 194 137 10 29 185 288 213 153 241 144 63 71 92 104 41 54 13 197 55 130 287 191 220 59 219 47 175 279 260 187 310 142 250 333 27 338 303 138 199 2 12 337 203 228 276
268 115 43 206 96 20 76 64 174 229 134 122 89 265 347 208 182 31 237 221 340 29 93 25 69 322 168 249 151 234 306 75 203 114 3 294 77 329 273 337 63 287 11 58 62 52 252 198 153 111 91 255 99 327 172 74 227 127 163 81 54 217 142 207 194 184 4 124 149 8 24 188 120 282 47 128 232 254 291 289 126 50 161 247 261 84 192 330 269 0 338 214 301 107 231 162 213 13 165 73 239 244 105 44 57 298 159 344 116 315 12 226 112 304 85 72 28 117 300 183 53 270 204 196 110 38 240 33 55 59 150 155 121 18 251 144 17 66 71 106 186 250 104 100 49 61 222 140 109 257 68 5 119 323 42 220 262 275 92 267 219 297 225 246 235 238 169 286 156 288 285 40 348 65 260 209 215 94 166 148 211 313 152 146 187 157 236 185 349 216 230 83 334 98 34 212 345 331 266 279 56 129 319 193 197 21 95 48 253 19 2 321 316 318 178 135 210 243 37 346 175 281 32 173 79 7 280 233 302 141 201 259 324 143 242 317 177 88 78 295 205 200 130 325 224 87 160 39 248 180 199 51 167 147 158 136 82 139 309 277 125 218 305 332 179 350 137 164 284 314 176 189 343 191 27 86 1 132 223 190 328 145 263 90 342 123 339 292 335 256 14 36 264 258 23 131 299 241 15 272 101 138 283 228 154 202 80 60 341 22 113 290 35 45 307 16 171 336 326 195 46 293 271 102 26 10 310 41 97 67 296 245 6 103 133 276 108 274 181 308 312 170 30 278 9 333 320 311 118 70 303
242 121 194 191 92 263 202 151 3 144 235 98 87 327 198 207 345 271 147 19 44 119 247 135 248 90 143 278 58 175 330 32 106 42 276 308 326 280 81 213 216 296 282 170 252 319 157 127 136 285 187 232 304 298 134 26 77 104 342 348 132 12 264 288 120 165 52 268 197 241 124 205 228 102 256 61 115 310 49 286 305 96 35 34 307 55 340 137 97 10 329 149 110 234 62 4 239 111 300 21 108 338 85 30 219 167 337 221 287 53 273 292 309 215 24 312 190 206 313 245 43 163 233 150 158 36 346 86 74 217 54 183 328 39 28 103 80 336 204 8 284 240 146 122 99 154 323 250 2 185 89 227 184 126 243 231 63 333 293 72 283 156 199 50 139 179 315 56 66 341 82 259 57 46 253 48 257 79 306 47 318 266 246 178 83 220 176 212 254 201 23 189 192 138 237 299 180 130 274 95 331 229 94 350 78 20 59 117 289 316 145 101 45 159 112 317 186 344 5 64 67 27 105 295 109 71 193 141 37 301 91 195 16 200 0 116 291 69 6 188 244 321 169 171 88 279 262 40 236 68 18 107 161 133 218 29 9 210 13 281 31 173 302 14 255 238 129 100 225 349 272 15 294 196 142 140 153 332 51 258 265 114 269 251 162 166 211 325 125 311 65 208 128 230 182 60 181 222 41 203 172 131 226 209 148 224 303 174 297 339 277 38 261 118 84 270 214 73 75 113 334 290 177 155 322 314 33 249 164 93 25 76 7 152 260 347 1 223 11 160 324 123 70 335 17 320 168 22 267 275 343
258 98 215 201 47 185 130 75 158 317 228 219 330 303 268 30 341 291 101 76 244 84 278 197 22 148 6 340 263 102 253 287 292 314 275 109 134 273 61 257 32 128 288 175 188 97 116 207 205 67 346 225 91 19 164 3 348 82 159 31 72 321 238 295 337 140 18 157 0 222 323 13 92 79 216 4 198 204 42 176 179 153 71 163 124 308 154 10 25 55 143 248 269 149 252 210 37 345 231 302 318 96 151 310 77 306 251 329 290 174 112 221 327 264 51 155 26 241 87 249 193 298 307 309 208 274 5 256 45 43 66 316 125 177 276 83 173 328 11 81 235 60 272 214 320 131 347 250 64 2 53 142 100 146 199 213 212 120 294 230 57 122 23 34 16 24 301 162 35 186 247 156 106 160 118 129 224 17 54 190 242 181 325 62 132 296 44 246 271 192 80 196 137 147 305 233 59 227 114 49 324 165 343 105 289 286 172 48 293 338 46 86 107 85 315 93 319 63 313 265 138 266 202 200 180 211 344 236 270 8 88 254 135 169 206 277 267 14 9 189 299 50 20 349 195 89 170 29 332 187 234 161 111 69 285 65 28 262 12 300 220 342 119 36 284 226 133 255 259 322 33 150 38 326 203 117 191 127 115 41 110 243 126 304 56 145 331 281 103 245 94 70 229 108 40 282 144 194 104 339 1 68 136 90 217 232 27 240 333 183 279 239 297 335 7 99 167 39 178 152 52 182 95 78 350 74 336 218 121 58 223 73 15 312 260 113 168 123 171 237 21 283 139 280 334 184 141 261 209 311 166
275 164 75 25 149 169 159 88 214 198 152 127 162 62 147 346 142 171 249 303 282 315 95 40 261 210 31 112 203 56 211 10 325 220 254 304 6 41 317 264 246 256 330 29 114 334 241 22 262 310 124 255 191 322 305 312 140 64 19 296 328 146 12 93 76 67 271 158 176 273 314 269 217 79 342 16 260 251 331 307 318 336 337 277 232 301 21 103 126 308 54 101 183 7 60 121 206 313 339 193 74 172 258 257 327 82 272 281 148 316 38 130 306 192 329 221 122 235 165 89 4 187 208 348 128 61 28 90 199 204 341 69 57 68 107 190 196 177 250 225 189 37 340 270 345 46 173 119 288 201 78 238 197 137 42 35 1 224 65 100 132 161 118 234 14 284 252 290 53 83 66 292 215 278 99 145 30 36 125 26 226 323 50 209 129 51 138 285 135 319 326 110 92 267 0 11 15 184 104 300 265 43 247 347 120 102 97 134 117 139 150 237 33 216 154 228 156 108 133 335 186 24 94 185 218 167 343 207 49 131 27 85 274 287 87 59 77 39 170 233 123 163 202 263 18 276 3 2 338 248 298 320 105 13 212 180 240 283 32 144 52 297 245 143 194 200 84 86 9 70 289 229 311 111 80 73 295 324 168 309 106 349 286 188 113 8 5 179 321 136 153 293 109 230 23 47 227 44 17 48 242 239 332 219 259 205 181 81 166 91 244 151 63 160 45 98 268 155 72 34 55 279 141 350 20 195 333 178 182 174 157 302 71 213 96 175 291 236 58 116 299 344 231 266 223 222 294 115 243 280 253
108 107 167 146 136 205 158 187 20 122 248 104 221 209 236 317 119 212 193 13 309 298 2 299 161 274 87 75 149 327 282 43 275 54 337 73 181 91 1 127 137 182 111 32 61 130 81 138 214 189 101 323 14 303 350 204 244 83 226 273 50 31 301 257 58 330 115 66 33 252 266 223 160 121 69 118 51 105 21 150 45 44 195 304 34 314 175 312 56 241 306 82 220 334 311 328 5 74 131 191 224 324 76 346 151 207 345 125 230 63 294 237 156 288 16 280 251 25 155 112 179 78 208 242 148 310 250 258 202 287 192 263 46 246 219 217 261 9 286 55 37 227 329 157 325 318 333 38 57 62 270 113 343 106 293 259 277 126 188 147 159 90 232 89 206 260 238 15 296 247 235 28 340 95 177 315 291 68 23 41 218 225 4 36 132 114 243 139 276 52 35 48 335 162 18 65 297 135 10 233 308 11 174 342 186 124 26 59 198 64 264 49 302 93 349 216 80 344 19 249 229 70 185 265 316 285 166 171 203 40 262 128 300 240 7 42 336 348 3 154 245 77 96 347 199 231 39 255 307 284 222 283 142 210 234 178 110 99 97 211 169 194 0 22 84 176 254 152 239 117 197 341 30 165 98 134 123 253 103 88 339 116 133 184 271 319 85 321 141 92 6 71 102 201 289 27 53 281 331 180 295 67 12 17 153 269 268 279 196 144 172 322 200 100 292 290 215 164 313 326 332 213 47 267 143 94 190 120 170 29 320 86 168 256 72 338 140 173 183 79 163 145 305 228 109 60 272 129 8 278 24
190 66 214 281 336 107 48 179 43 272 346 328 163 39 252 196 198 20 165 262 147 91 138 132 323 243 292 233 284 194 325 312 56 246 34 319 202 15 283 343 231 154 180 291 176 306 31 97 223 224 174 314 266 307 313 142 161 298 41 212 321 152 149 318 45 127 177 8 310 235 182 327 76 201 339 236 6 69 271 80 241 232 130 139 2 108 65 38 162 70 276 225 125 18 110 282 118 100 199 42 347 324 64 158 294 316 134 117 265 168 63 275 62 131 287 333 213 279 26 85 230 5 59 33 207 247 60 25 239 296 192 184 268 227 338 238 115 79 156 111 37 288 119 210 137 280 146 104 24 200 258 129 102 187 293 101 89 197 164 9 44 77 75 166 140 10 301 277 244 251 300 208 335 203 342 191 249 151 290 92 74 209 311 253 267 35 133 340 299 305 264 217 14 68 143 350 273 175 259 13 122 126 240 303 47 257 255 329 206 186 159 103 234 218 222 106 135 221 71 121 88 49 188 11 46 84 183 1 82 248 189 29 96 90 16 341 4 145 128 124 55 242 57 322 348 185 94 274 286 269 30 169 302 93 27 261 173 105 160 153 50 171 345 220 228 148 61 260 23 72 36 226 7 326 193 215 113 58 52 315 123 67 40 86 295 181 211 95 195 51 308 330 245 3 250 78 229 332 263 112 204 270 309 331 337 87 237 344 289 0 285 178 54 317 136 167 297 150 172 334 349 73 120 19 254 155 83 109 114 205 22 17 53 278 99 81 304 28 116 141 144 157 320 12 219 21 216 32 170 98 256
190 286 275 324 77 171 195 333 83 103 222 201 344 251 78 89 145 303 168 178 300 198 114 167 23 169 202 205 262 140 12 166 323 106 253 32 238 297 110 57 280 267 109 330 319 186 173 225 215 338 151 278 263 65 209 80 53 47 46 33 73 126 153 325 121 84 188 226 264 261 148 345 326 67 97 244 266 68 235 219 281 107 71 26 217 206 152 135 100 285 335 259 61 218 273 196 8 88 274 105 161 301 236 45 288 257 174 142 342 320 11 134 269 59 184 185 189 193 113 208 294 331 139 66 154 350 44 64 260 112 0 13 321 102 194 40 314 245 165 160 221 312 1 2 129 49 211 250 348 248 229 192 39 163 48 159 81 183 347 91 136 242 75 181 220 58 130 120 187 293 132 296 17 268 334 51 31 98 200 213 283 305 164 298 349 41 182 179 104 101 79 27 94 309 265 197 158 177 125 311 55 336 5 28 254 322 256 99 111 176 255 25 143 216 35 123 157 138 118 76 328 127 223 54 339 212 318 92 343 170 315 20 63 50 146 131 62 233 292 144 74 124 119 232 18 133 150 270 284 240 341 30 224 329 207 252 15 10 227 241 310 82 199 276 147 304 137 234 337 16 287 156 43 313 306 14 327 271 90 247 6 70 228 277 317 210 96 3 230 172 231 52 340 36 282 346 24 316 308 72 117 29 291 249 239 37 290 95 162 85 4 22 34 42 128 87 243 204 203 69 155 302 19 116 141 149 191 272 60 93 86 258 289 307 56 246 7 332 214 9 122 180 108 115 299 175 295 237 21 38 279
171 26 303 94 309 282 241 350 324 296 283 139 100 159 147 163 151 332 293 71 66 22 10 262 233 206 133 294 219 74 271 194 32 16 287 212 72 135 95 166 252 64 43 15 99 275 125 325 7 216 108 54 199 182 344 58 29 253 176 223 341 89 170 155 228 317 79 314 6 93 123 81 167 127 335 47 251 160 1 18 23 30 37 230 131 254 305 213 257 101 129 53 180 349 239 52 114 9 56 25 203 62 55 308 193 34 340 285 208 3 122 204 20 279 307 48 240 190 69 247 326 104 255 246 346 14 92 259 238 196 38 234 77 281 87 286 136 119 221 248 106 145 61 280 224 60 63 232 2 299 143 347 200 70 313 330 236 96 76 132 115 245 288 328 201 339 336 197 156 189 192 319 209 214 290 88 274 130 162 28 217 173 310 266 334 169 311 168 35 84 300 211 276 205 157 175 149 31 225 73 215 19 242 184 345 36 67 306 146 323 124 244 270 82 134 207 44 68 278 198 191 138 229 161 27 301 75 41 165 109 121 289 302 24 312 4 250 316 181 291 256 322 321 117 315 178 343 320 187 118 220 337 105 338 177 153 292 65 80 128 273 231 235 103 86 268 164 333 17 51 210 179 11 304 39 260 142 8 185 107 263 202 0 261 126 140 249 183 50 91 112 90 42 172 141 297 83 102 342 116 226 45 85 154 174 237 348 113 46 110 111 57 218 243 148 298 137 284 152 264 59 329 5 78 277 144 265 33 158 12 258 222 272 49 267 13 331 150 21 227 40 295 120 327 98 195 269 186 188 318 97
155 60 202 264 232 173 255 145 100 261 326 142 178 86 158 306 343 283 176 236 205 279 106 320 302 11 292 272 313 332 58 331 188 103 122 62 42 222 121 61 262 324 251 150 289 119 91 110 170 225 1 79 171 304 182 102 286 327 65 28 0 215 270 257 25 187 88 240 165 172 275 9 130 195 200 85 26 143 310 297 20 314 252 210 303 345 246 307 250 81 183 89 180 24 221 296 76 287 37 56 223 344 253 167 118 197 87 185 72 29 211 198 164 5 175 192 213 325 128 137 300 17 98 199 274 316 321 55 125 108 216 206 346 235 154 334 116 46 129 335 179 74 30 50 4 148 52 136 277 288 209 174 8 242 234 305 315 80 191 263 237 16 166 228 123 226 93 73 220 120 31 63 115 77 113 169 83 340 126 71 193 32 282 147 144 151 258 184 133 294 64 149 323 114 75 238 132 233 298 243 319 36 317 273 231 139 278 181 333 157 337 163 127 254 92 349 14 177 161 67 212 285 48 53 322 152 21 131 84 96 22 156 117 342 230 266 224 329 2 15 208 45 112 267 265 338 146 350 159 34 311 219 186 299 47 40 269 271 281 138 290 59 218 318 245 196 27 284 23 94 276 10 162 308 3 259 256 109 348 101 104 201 19 107 90 111 70 78 341 280 141 6 124 43 309 95 66 214 39 295 68 13 57 189 49 330 105 248 54 217 168 44 241 268 69 260 51 140 203 244 336 249 35 190 7 160 12 328 97 99 38 347 135 301 204 312 18 247 291 239 339 33 229 293 153 134 194 227 82 207 41
85 246 279 88 170 138 21 269 149 14 237 234 155 42 236 192 340 9 63 189 276 254 265 293 142 336 302 99 190 117 33 82 38 174 195 231 309 261 299 7 140 57 180 220 245 183 150 134 305 239 130 35 201 81 160 248 173 171 194 19 343 308 290 338 260 304 200 26 172 188 232 45 110 55 162 158 40 323 296 80 225 329 0 267 335 121 242 28 65 342 30 141 95 129 39 151 347 271 318 135 11 128 312 89 210 17 233 262 58 256 334 107 247 181 294 206 333 47 196 32 226 255 241 224 167 112 73 278 330 317 53 15 87 228 103 297 257 152 156 324 270 29 115 101 23 61 287 350 93 37 217 240 327 100 281 322 275 94 12 253 178 349 250 116 187 4 222 207 20 208 27 292 161 122 119 282 289 77 153 168 219 229 230 69 251 339 199 137 79 259 345 67 244 16 148 118 159 252 164 216 328 176 143 284 197 315 348 31 283 337 316 132 198 346 146 104 44 43 62 92 105 83 321 2 108 22 54 344 48 72 76 71 310 34 60 272 136 126 125 221 102 78 285 131 120 163 177 212 184 106 157 84 70 238 280 147 306 205 300 8 165 243 50 49 91 325 36 203 185 66 298 291 193 64 18 109 258 326 266 124 74 215 86 90 332 113 273 186 46 179 41 133 127 311 223 303 75 98 52 218 286 204 277 209 3 96 288 1 320 313 274 166 5 169 97 307 25 139 263 319 175 191 301 214 264 314 202 145 56 123 249 114 295 111 10 235 6 24 341 51 68 182 331 13 227 144 268 154 59 213 211
346 71 2 306 61 43 15 83 263 157 269 347 278 319 217 336 55 132 183 231 70 187 34 40 103 236 208 170 265 248 44 137 246 93 66 92 106 115 245 315 166 268 56 294 191 276 22 139 262 127 82 302 52 290 211 301 348 172 247 104 126 53 322 260 330 142 118 288 225 274 113 145 309 5 303 279 67 147 193 272 74 233 190 100 31 237 117 200 38 219 299 220 271 349 60 108 116 182 175 98 125 227 114 122 143 150 39 209 1 205 16 146 307 9 188 212 18 99 161 0 111 131 242 332 110 256 178 275 314 313 206 181 318 207 198 4 156 149 164 6 252 325 153 284 32 280 87 35 254 152 68 154 77 163 235 308 11 326 134 249 213 177 121 174 230 109 120 162 171 197 140 96 73 27 218 176 29 169 293 226 97 85 91 215 47 222 192 251 78 240 229 49 281 133 88 158 79 264 95 7 180 12 105 20 128 24 107 8 14 339 119 273 297 316 300 238 17 45 331 345 289 304 50 123 57 324 244 185 54 160 48 89 310 64 19 84 144 102 335 80 138 124 28 334 168 203 333 25 194 173 201 112 72 285 214 239 221 159 282 210 261 30 81 291 135 202 270 36 186 51 86 63 327 296 255 21 13 292 167 277 46 189 155 136 101 62 232 266 295 286 42 305 59 283 241 94 350 41 259 65 148 10 337 216 130 343 151 338 58 184 257 69 129 165 228 33 287 37 195 342 179 199 267 320 311 253 328 76 340 234 75 312 323 224 321 26 298 23 204 317 341 250 223 258 344 3 90 196 141 329 243
285 266 110 292 150 301 123 229 277 315 186 236 140 203 41 163 172 29 183 145 68 38 80 69 322 131 340 137 90 347 225 275 323 305 75 57 309 45 335 311 245 180 154 91 129 62 55 25 249 280 10 97 227 21 174 218 219 148 194 339 207 239 23 212 31 11 132 330 337 308 30 74 349 205 177 252 255 67 88 52 341 278 216 95 241 346 244 114 120 182 12 77 269 287 181 42 175 193 70 345 14 298 47 331 238 184 112 248 106 143 113 316 329 96 20 334 108 84 50 294 243 160 303 260 231 302 128 116 233 176 107 197 271 333 279 332 101 78 313 60 191 115 297 221 56 124 2 291 178 211 122 258 118 64 170 39 155 338 256 206 103 187 104 102 144 117 8 44 261 188 281 54 22 215 156 274 89 350 19 283 265 49 336 72 293 253 59 276 254 257 223 226 81 127 15 251 87 162 166 138 290 273 230 185 58 296 314 3 321 213 43 9 28 99 105 119 320 139 204 220 224 262 328 189 171 217 306 343 272 46 198 126 121 222 164 13 82 326 210 133 299 94 344 173 250 141 98 282 36 93 27 268 7 202 92 246 195 289 4 79 295 24 34 142 0 264 235 76 73 247 304 159 232 147 324 63 192 169 318 61 33 179 111 37 35 66 157 300 53 130 237 214 209 26 165 51 319 161 317 270 48 85 208 199 135 234 228 86 100 348 16 136 267 71 307 168 242 240 17 153 158 190 18 32 284 1 40 201 263 286 167 152 259 134 288 5 196 200 325 342 6 65 109 312 151 327 149 83 125 146 310
227 157 102 35 20 303 335 268 339 230 60 322 307 148 235 305 255 261 197 263 99 143 136 8 186 285 28 286 132 292 147 290 36 291 215 310 180 209 21 318 206 191 336 19 301 134 155 283 6 18 332 16 164 313 258 311 101 159 71 340 327 300 238 12 330 295 75 119 171 189 260 113 70 39 11 312 50 118 222 342 5 267 284 73 173 111 121 24 43 151 23 13 320 246 195 249 294 265 34 277 243 156 15 104 331 130 324 49 194 183 216 282 128 72 93 61 66 175 334 74 319 160 145 272 92 296 181 344 108 293 172 57 177 345 314 302 114 225 325 210 98 229 10 228 254 168 219 232 309 323 231 22 287 166 107 38 31 233 276 52 7 200 299 192 29 208 212 120 135 280 97 224 62 273 42 338 241 96 122 308 17 25 196 110 1 341 205 46 41 87 333 253 184 90 63 269 167 350 68 176 326 242 217 321 37 179 154 3 317 80 83 202 115 103 221 251 223 30 226 79 54 178 161 252 297 207 281 288 236 193 105 81 116 306 187 89 127 244 304 112 266 117 27 201 142 91 76 152 169 32 190 247 278 85 64 44 141 315 218 14 126 82 264 146 213 40 86 271 59 274 106 329 65 45 234 256 347 88 343 298 33 240 138 163 149 199 84 124 4 214 316 203 170 26 55 259 0 257 137 51 150 69 262 58 346 109 279 139 289 77 270 133 158 125 2 153 250 131 220 349 78 174 140 56 245 185 162 94 182 188 48 248 337 198 9 211 165 275 95 129 123 237 53 144 67 348 328 204 239 100 47
197 152 178 176 24 157 236 151 118 54 95 138 238 115 160 303 56 298 245 294 335 47 74 208 349 70 5 19 29 148 274 0 323 167 271 51 343 173 114 146 104 350 185 16 50 243 308 235 280 100 39 65 233 12 316 318 89 278 110 76 53 251 13 269 291 28 253 321 172 37 254 59 72 257 281 222 17 214 45 130 237 91 193 309 141 182 147 206 205 48 103 108 113 144 341 337 329 270 107 174 248 279 255 302 22 313 179 162 131 4 84 101 153 7 211 259 317 67 297 10 295 287 339 263 304 326 161 289 258 221 142 198 154 332 123 90 81 180 246 87 199 196 340 284 282 311 330 227 127 158 99 36 272 25 224 11 112 60 331 234 43 119 121 189 8 256 155 134 66 344 159 207 299 106 219 120 190 346 312 290 250 244 204 267 228 92 170 126 216 88 164 241 82 139 210 150 306 187 135 9 63 276 171 40 188 268 149 247 201 169 328 111 230 69 292 136 283 133 300 132 273 77 342 310 325 105 18 226 220 26 15 78 286 61 163 96 80 327 27 109 116 229 186 85 218 1 209 345 296 191 225 202 35 2 262 240 223 266 277 275 97 348 125 307 21 52 322 232 252 64 31 215 249 34 184 217 14 203 301 129 30 128 20 324 94 231 46 102 57 3 86 68 71 338 260 336 73 183 175 166 347 165 145 212 315 265 41 177 44 319 62 137 293 83 6 79 194 195 305 93 124 333 117 264 334 38 122 42 288 200 192 239 23 98 32 213 33 285 168 320 181 143 75 156 58 242 140 49 261 314 55
259 246 302 333 18 180 281 313 208 261 305 250 4 188 35 138 336 266 260 339 15 258 273 125 130 17 314 110 14 79 212 164 6 345 244 141 21 249 59 63 33 320 37 221 26 307 25 74 85 334 67 139 119 72 108 172 243 200 322 145 268 219 43 147 340 104 319 193 92 89 64 34 349 150 231 153 297 192 100 300 132 32 86 285 159 117 136 87 80 186 239 77 158 272 331 248 301 16 65 310 90 142 96 53 329 41 51 295 9 99 5 91 241 223 274 24 169 49 316 184 187 306 0 101 124 317 321 66 175 236 10 330 45 93 298 157 55 112 68 195 287 350 299 293 220 50 209 3 225 328 271 152 191 227 144 118 148 211 106 232 122 196 238 116 58 71 204 115 20 262 174 214 197 30 73 128 346 149 183 8 194 252 103 206 114 233 312 218 190 126 127 324 216 121 88 179 294 240 39 255 253 95 13 120 247 102 52 263 278 160 237 327 315 283 277 97 181 210 151 343 229 46 76 308 137 134 105 207 23 133 54 205 113 318 288 341 267 224 347 84 69 269 279 29 344 56 146 7 173 168 176 309 325 256 182 335 19 265 291 264 27 213 70 217 61 140 286 230 31 2 163 75 156 275 94 109 242 215 226 82 201 337 311 222 189 81 177 47 36 22 251 303 167 199 198 284 178 276 155 143 234 280 202 60 338 123 270 12 111 57 107 83 161 78 245 154 326 98 296 254 257 304 292 62 323 170 11 228 282 332 165 162 129 203 235 131 1 48 135 44 171 42 166 289 348 38 342 40 28 290 185
314 228 62 77 224 236 190 218 246 201 272 342 96 284 48 24 263 106 288 30 213 78 318 281 11 99 97 23 180 16 320 264 294 304 289 82 187 323 139 44 18 261 274 259 203 160 196 46 19 83 346 87 202 51 163 143 66 208 88 248 329 27 298 206 290 71 221 167 125 14 64 69 105 308 222 9 235 225 47 172 175 118 265 276 34 283 81 36 282 80 214 0 138 73 112 188 1 339 170 335 115 229 109 10 2 151 121 52 79 146 340 347 250 183 116 3 8 174 155 321 327 76 55 275 192 101 348 122 100 56 176 271 5 107 166 129 75 242 126 262 92 145 40 159 226 220 32 132 277 103 84 291 17 114 197 249 91 194 124 331 22 349 74 238 137 171 157 269 130 147 332 119 189 280 120 111 156 205 336 184 43 278 26 254 241 337 240 333 319 140 295 149 233 301 65 299 95 67 191 148 255 110 21 230 334 128 231 300 6 322 279 185 38 186 260 237 45 258 131 316 102 219 257 123 60 117 152 25 53 305 164 179 57 35 211 29 297 207 267 344 345 144 31 136 161 256 209 141 50 86 7 285 89 324 307 39 247 243 104 93 4 181 343 270 338 273 63 326 328 310 309 33 303 165 317 162 341 215 142 150 98 266 216 59 173 330 68 15 135 41 313 178 85 90 195 244 239 20 12 302 306 212 350 200 61 199 168 287 268 127 251 158 315 204 292 232 28 133 154 296 325 234 113 312 198 54 13 293 182 252 227 42 37 286 134 169 210 223 217 153 72 108 94 49 193 177 253 58 245 311 70
176 59 156 103 274 121 65 319 42 210 183 26 232 215 33 271 120 294 29 230 223 279 136 66 303 317 330 350 77 61 166 19 273 110 249 268 193 281 254 141 155 145 18 198 247 220 6 168 299 12 90 116 347 96 39 221 147 340 206 126 28 113 105 325 68 216 337 51 276 304 22 327 95 313 296 250 24 314 45 115 225 291 20 17 260 153 253 43 132 158 16 91 37 151 52 133 202 346 213 89 283 72 57 47 241 142 233 35 348 164 112 84 341 184 31 157 179 167 336 264 311 23 308 41 182 170 222 119 7 189 60 201 328 322 266 114 130 76 265 180 81 295 258 259 27 160 49 278 13 321 100 204 163 288 342 301 104 177 316 207 282 312 129 124 88 284 63 192 46 144 74 244 224 82 80 345 85 128 54 298 197 195 21 214 212 344 318 191 257 150 196 70 263 280 53 1 335 73 97 122 2 149 305 30 58 175 14 173 32 78 200 48 69 146 333 10 326 234 99 306 277 209 229 248 102 154 285 275 310 211 137 140 199 286 267 251 178 332 290 62 239 107 87 101 240 44 349 289 236 123 228 8 71 86 256 338 143 108 134 219 165 38 323 109 287 174 190 25 269 300 75 98 194 161 67 246 252 302 185 235 79 261 331 218 272 106 152 0 4 238 227 339 127 3 172 139 292 50 188 9 111 343 162 324 315 309 186 208 181 138 56 64 135 320 242 293 40 125 5 217 131 237 270 94 148 159 169 205 117 83 297 11 36 34 243 226 93 55 231 15 92 262 245 255 307 334 118 329 203 171 187
244 191 183 234 34 108 9 2 147 93 206 175 56 63 289 312 140 62 41 282 176 48 215 334 345 285 123 233 6 199 316 257 58 344 197 160 95 47 299 204 162 29 190 313 133 317 124 110 17 232 200 16 171 55 189 91 211 273 212 326 297 276 210 97 270 134 104 280 100 98 203 213 78 166 154 43 18 298 196 195 20 216 69 237 240 11 150 267 45 318 36 4 185 132 120 151 305 310 320 111 127 248 114 186 94 143 239 315 21 141 82 314 85 333 346 0 23 272 284 5 227 193 265 37 10 73 74 279 350 86 256 142 38 296 307 311 182 220 205 336 180 35 169 3 149 159 139 306 217 87 25 103 293 130 81 291 328 109 251 302 332 117 230 53 224 80 52 26 338 40 245 327 325 39 268 188 64 300 118 271 319 178 13 329 229 252 135 219 158 235 281 153 187 262 145 144 121 148 101 88 32 208 42 201 348 27 152 116 129 15 330 119 243 168 50 278 241 172 323 106 202 339 146 138 181 321 209 49 283 125 301 192 128 174 77 12 156 294 226 14 7 290 1 96 269 194 253 99 184 263 113 137 8 22 70 342 231 71 292 155 161 266 28 349 105 335 221 238 249 247 341 236 122 303 30 57 79 59 90 258 173 66 31 84 76 286 51 24 324 259 260 287 207 343 83 347 223 170 246 65 60 275 67 331 340 46 304 89 115 179 131 102 157 198 295 214 308 112 167 255 228 250 33 72 177 163 75 274 222 54 68 19 165 309 288 254 92 277 242 107 264 164 61 225 136 322 337 44 126 261 218
5 154 197 232 228 18 39 206 259 14 250 122 181 121 299 246 79 15 308 25 282 61 68 331 16 115 272 58 3 333 174 183 173 124 13 270 4 289 130 195 133 340 31 123 0 42 86 152 334 104 142 265 186 274 263 261 53 83 208 62 283 172 75 198 109 90 101 267 155 194 230 59 165 150 112 291 63 145 269 136 119 342 132 128 318 324 184 140 254 287 105 233 32 200 71 323 303 106 207 329 94 21 278 143 162 8 137 156 129 205 193 315 280 300 266 255 163 67 167 161 43 222 268 273 229 215 276 80 344 204 257 107 249 281 286 82 290 234 26 247 306 239 271 44 157 159 292 148 196 199 118 220 201 70 66 313 134 103 332 77 56 298 349 28 120 33 209 1 27 141 29 325 295 89 41 210 310 117 203 343 218 243 88 139 74 84 244 279 314 190 256 225 6 78 185 312 327 175 85 350 153 217 192 202 177 285 36 81 180 264 151 99 337 338 179 76 347 219 102 97 46 224 187 336 168 35 223 111 262 178 30 294 96 146 127 320 242 11 296 10 125 236 237 311 19 322 293 98 9 100 149 138 335 166 17 305 260 304 69 258 24 92 309 252 248 182 245 114 319 72 38 326 52 65 20 330 47 284 212 12 169 227 34 339 288 176 328 22 64 55 7 126 60 277 214 216 302 275 348 238 341 171 213 307 144 135 160 211 40 251 2 48 297 253 49 131 45 116 301 189 50 108 113 147 93 51 54 321 316 37 23 158 235 240 95 188 241 57 91 191 73 231 346 164 87 221 345 226 170 317 110
191 12 219 240 50 131 187 4 308 170 37 120 228 177 325 108 270 248 197 337 205 28 263 111 321 168 267 254 331 307 269 332 260 123 346 303 127 314 237 199 171 242 247 216 306 45 26 81 165 16 336 147 317 261 176 142 19 88 6 190 202 53 106 130 288 277 241 22 318 134 153 273 1 101 158 183 38 115 208 339 84 182 11 330 13 52 210 249 280 42 160 275 157 201 135 253 344 162 5 265 251 119 302 192 224 129 51 232 178 212 100 198 256 345 239 103 207 122 96 128 268 335 282 323 78 328 283 69 206 245 180 350 72 136 194 221 225 140 132 124 305 10 220 31 309 24 252 105 200 333 291 156 126 60 0 313 319 329 174 327 322 292 56 25 213 163 75 169 155 154 32 62 46 315 91 97 297 73 281 226 295 49 312 30 203 257 64 230 149 102 301 286 264 334 274 7 151 209 68 215 17 296 342 33 164 82 85 294 57 184 89 66 166 44 99 94 9 113 59 243 255 137 121 61 284 195 40 67 71 141 304 112 144 185 83 18 39 143 20 214 229 63 231 3 107 310 285 125 109 36 43 250 175 293 55 289 340 211 159 298 341 276 80 320 90 150 95 349 316 258 27 266 272 146 179 58 48 77 15 173 152 271 65 118 204 116 234 244 74 347 76 35 34 222 235 343 217 145 8 246 218 326 41 278 21 233 98 79 110 167 92 223 299 139 290 227 188 2 138 324 236 338 161 348 193 87 287 86 29 186 238 181 47 133 189 23 14 117 300 104 279 114 196 93 172 311 262 148 259 70 54
223 155 241 325 125 41 322 156 206 33 345 105 242 73 185 42 159 35 19 350 203 274 100 22 83 18 52 284 331 137 97 80 306 320 210 250 179 119 330 184 219 300 15 114 262 205 109 200 167 9 154 32 229 286 65 45 115 235 13 145 216 20 12 26 113 178 225 151 311 139 21 265 108 268 238 129 123 158 17 133 293 287 299 298 269 281 188 10 348 289 341 1 118 247 267 261 149 117 71 110 213 89 106 256 196 163 68 335 70 181 334 36 282 24 260 44 285 254 227 266 313 180 144 315 90 46 197 243 316 301 201 278 147 171 175 94 161 56 6 182 120 189 248 340 107 165 220 258 271 82 172 3 275 326 43 240 135 47 132 191 211 321 34 95 169 323 61 92 128 173 7 39 319 176 57 5 134 333 295 329 226 49 111 294 318 31 112 217 142 346 199 28 153 308 11 288 259 27 4 164 252 194 263 74 255 264 310 150 193 72 157 209 66 77 336 236 141 93 277 96 67 338 0 239 270 99 305 309 207 54 131 50 91 60 84 190 215 138 88 170 342 291 38 314 230 25 76 168 121 279 312 64 183 332 87 59 177 143 237 339 328 55 174 280 40 228 296 63 192 273 148 69 195 307 30 136 272 146 16 162 222 166 233 130 214 204 283 245 337 122 304 218 29 78 257 186 251 51 62 102 98 249 48 212 152 202 276 232 79 81 126 324 297 290 53 2 127 104 23 246 8 231 37 221 347 224 103 58 86 198 303 253 187 85 349 234 116 292 124 101 244 302 317 75 160 208 327 343 344 14 140
211 193 40 302 62 141 44 346 36 56 52 280 24 128 171 88 218 150 153 236 301 185 305 133 122 155 39 31 87 137 201 325 231 290 176 108 315 107 169 98 340 159 249 49 217 9 257 103 46 268 343 12 118 34 166 267 163 13 347 57 72 199 251 288 255 60 134 348 174 115 246 35 6 282 208 113 227 219 245 297 229 204 232 1 30 16 273 182 224 178 168 228 37 303 237 283 294 330 342 162 322 314 89 312 147 119 324 10 298 233 43 69 313 91 138 274 142 310 145 170 247 309 143 130 316 11 135 112 173 167 241 64 66 120 206 74 299 207 75 85 19 116 287 328 341 14 279 286 213 194 20 296 5 26 253 90 266 139 337 76 234 55 336 327 345 97 265 45 210 197 179 243 125 104 188 304 271 158 252 350 21 291 223 15 84 8 202 106 95 29 335 65 54 92 151 183 109 180 192 281 42 0 86 136 146 339 164 17 18 344 127 154 240 277 276 102 50 156 264 295 140 172 275 190 59 121 256 284 195 198 28 68 67 196 250 222 323 230 259 244 221 99 332 79 83 73 311 334 78 189 71 110 318 186 7 144 248 321 100 148 306 338 4 349 209 33 165 131 272 160 41 191 2 226 96 105 320 200 124 270 23 81 61 111 22 278 254 289 38 333 212 300 319 149 187 293 48 82 123 260 220 263 70 258 317 32 308 203 262 27 269 292 235 132 261 329 184 205 285 63 101 3 117 25 157 152 307 181 225 53 238 216 326 94 47 114 161 80 93 177 214 129 331 77 242 126 215 58 239 51 175
340 44 208 45 40 314 11 262 4 139 201 295 239 218 253 111 124 9 92 199 328 207 293 289 57 93 148 100 29 113 145 97 49 238 123 87 349 337 79 263 110 68 285 183 12 107 3 311 38 46 73 283 163 85 249 217 275 246 83 277 209 21 320 189 159 322 117 84 173 190 127 171 202 288 175 141 157 255 197 187 142 248 35 327 299 32 169 114 344 279 347 273 194 210 179 47 301 18 19 154 149 8 170 219 125 13 231 256 10 118 319 225 276 121 126 143 242 200 342 334 20 346 15 80 230 325 90 195 223 86 96 106 7 67 221 30 224 240 155 220 284 222 182 26 336 94 17 321 287 245 150 318 65 158 78 191 251 61 89 103 133 34 271 137 140 272 43 52 56 252 278 339 300 63 335 331 164 226 115 27 250 165 341 24 265 70 146 313 212 95 174 206 350 214 259 338 5 333 233 291 99 268 312 98 166 167 213 66 71 72 1 290 185 48 232 172 162 323 294 16 168 50 324 0 303 76 64 177 101 345 6 122 254 329 60 112 88 108 42 130 135 186 54 257 75 241 307 41 286 153 326 37 136 105 348 161 198 244 178 228 243 22 308 193 270 247 147 332 282 235 53 292 181 188 91 298 211 58 129 152 51 258 144 81 266 296 305 69 310 23 176 74 28 297 309 216 315 2 269 156 280 304 234 160 59 281 184 104 306 215 180 82 229 25 138 330 316 102 237 39 260 14 205 261 134 204 120 31 302 317 236 151 227 109 62 264 131 128 36 343 203 33 192 119 274 77 55 196 132 267 116
112 350 89 260 232 262 73 161 335 237 349 88 308 266 292 334 139 214 248 213 331 91 188 152 341 180 105 86 53 17 41 241 76 55 94 226 145 83 170 82 11 244 277 130 263 315 267 87 108 275 64 245 164 59 150 176 333 250 104 251 124 212 278 229 252 325 314 230 236 259 36 58 284 4 195 51 165 155 336 90 126 114 256 66 31 29 211 24 9 294 28 286 220 203 177 344 26 181 135 337 186 328 14 184 346 80 228 153 264 235 187 240 47 163 239 199 121 273 210 347 40 111 320 123 93 101 323 57 32 149 304 313 120 71 200 23 193 56 303 274 75 50 156 168 119 291 133 287 326 100 222 183 345 158 65 171 257 297 281 316 247 299 234 138 144 269 255 307 242 293 5 7 60 298 147 201 8 44 322 79 175 109 141 306 35 10 142 167 43 154 81 97 233 216 249 185 282 319 15 206 19 218 110 208 34 92 42 117 182 136 69 329 254 272 162 340 312 20 279 302 77 131 290 191 217 106 125 113 285 67 289 339 84 338 68 115 52 227 128 190 276 143 209 310 102 268 258 343 21 12 300 280 305 342 189 146 129 25 3 172 38 54 122 18 243 63 288 204 198 179 160 2 283 118 311 330 49 174 166 99 27 221 205 318 140 271 127 223 224 6 62 148 72 116 173 327 39 332 231 74 317 78 301 159 225 215 270 61 85 132 295 157 0 1 309 16 96 169 348 45 37 296 265 151 192 261 207 13 219 246 253 134 22 48 196 95 137 30 194 70 238 98 321 202 107 324 178 103 33 197 46
279 290 344 299 129 179 175 193 260 128 52 255 269 251 1 73 34 82 154 15 316 239 11 333 261 41 297 61 267 319 45 20 212 91 235 87 36 93 208 342 259 181 336 5 164 47 327 189 321 26 38 190 182 69 228 287 157 147 238 119 185 214 278 102 46 19 8 266 146 326 240 221 196 254 250 4 194 145 60 158 51 78 202 165 217 160 3 207 233 308 68 17 110 343 253 30 242 204 114 173 142 29 195 79 246 220 56 115 337 197 39 151 58 339 263 178 139 332 285 262 317 199 213 324 28 340 88 140 7 98 176 137 25 301 310 289 286 9 219 6 244 70 55 187 225 84 63 291 300 67 10 331 275 318 97 59 277 227 80 90 85 188 231 236 122 294 107 243 118 42 33 27 156 149 143 2 288 169 325 66 99 172 131 31 136 328 311 44 13 335 271 24 304 144 100 40 330 270 50 282 226 92 215 130 237 16 48 284 104 229 12 191 307 216 281 101 95 162 94 283 222 322 323 141 170 37 186 0 152 64 159 14 132 338 211 184 200 341 121 183 83 232 86 347 292 203 306 252 89 120 125 293 348 276 43 247 155 153 35 23 256 272 312 65 230 108 234 264 177 201 72 123 218 248 298 21 274 245 150 112 280 302 133 77 161 224 349 32 346 174 329 127 124 22 18 295 117 345 268 241 111 57 273 320 313 209 75 296 96 53 126 135 109 265 198 76 103 257 113 106 168 210 305 206 249 105 205 314 350 62 192 81 171 116 303 138 71 54 163 309 315 134 258 180 74 334 167 49 166 223 148
127 315 202 220 6 123 78 174 139 301 232 96 296 339 335 111 129 47 33 143 89 63 65 212 253 73 108 262 145 227 329 321 28 282 43 248 305 87 292 349 115 72 25 245 219 18 66 239 184 290 88 152 272 185 144 146 1 214 60 210 110 141 117 4 30 49 330 61 316 45 120 319 244 133 265 121 254 165 130 228 208 293 223 81 85 314 203 39 308 151 136 258 304 162 36 177 340 186 10 149 55 27 200 306 285 175 286 224 64 242 76 188 287 344 260 243 192 312 31 16 172 97 281 48 266 54 3 62 278 93 249 197 322 58 263 90 20 105 179 71 297 331 42 164 267 7 311 206 26 15 2 95 59 279 155 261 79 99 317 283 226 98 302 35 309 196 173 52 205 77 9 113 168 252 182 201 157 169 213 257 199 109 140 348 295 256 102 204 268 264 40 22 92 191 23 19 217 234 221 50 11 183 86 0 159 194 241 236 24 69 341 187 334 337 209 167 328 284 346 118 171 70 343 269 122 13 327 161 5 17 125 310 147 12 138 288 126 153 53 230 82 180 104 142 21 342 68 116 51 176 84 325 225 101 303 74 156 178 238 216 154 307 300 150 313 218 336 80 46 134 132 215 345 347 350 276 211 207 233 37 56 246 170 229 231 14 67 166 103 158 240 112 114 323 94 91 75 32 255 124 163 148 107 195 298 251 289 44 294 8 274 41 137 271 237 198 270 119 135 235 338 160 181 259 275 320 280 34 128 106 193 131 273 57 29 190 332 291 277 326 189 100 324 318 222 333 247 250 299 38 83
291 64 70 166 115 99 278 164 125 350 247 246 72 274 262 5 318 172 242 24 123 279 187 223 225 105 126 31 58 309 170 188 249 195 38 109 251 169 346 221 216 18 345 113 0 107 332 53 59 287 152 334 282 337 203 76 338 253 21 39 154 22 241 44 311 85 232 324 192 308 329 297 114 17 273 160 30 51 117 276 48 108 285 49 234 16 204 94 344 333 336 261 60 283 159 8 239 116 112 317 11 2 312 240 230 57 71 26 80 243 62 314 61 165 294 122 131 335 303 197 120 281 103 157 86 74 140 133 194 245 260 213 54 181 35 20 191 271 173 218 254 41 231 101 209 102 121 45 119 304 301 180 307 227 348 146 148 82 47 29 167 256 250 175 267 219 341 4 23 174 34 95 296 236 328 300 66 290 171 32 151 15 349 270 193 118 200 269 280 207 316 347 75 7 313 220 162 110 28 149 198 33 19 201 106 93 323 265 6 177 244 196 129 73 27 155 319 137 298 176 153 205 342 264 277 179 111 161 40 185 10 284 67 139 83 322 37 124 156 320 288 217 228 36 128 293 168 12 331 235 3 90 136 142 224 289 259 87 43 138 215 211 210 46 321 84 292 63 147 268 310 79 339 343 208 98 272 135 145 299 263 91 104 141 97 226 258 55 183 229 68 248 25 326 315 52 1 13 214 56 266 202 134 184 127 255 14 92 100 340 189 77 50 130 65 163 325 69 330 327 286 132 295 206 143 306 178 212 9 305 237 186 257 96 78 222 158 190 233 42 144 88 302 150 81 89 252 275 199 238 182
177 27 194 225 98 162 109 62 197 266 217 232 108 163 174 192 206 212 172 129 274 243 181 25 110 338 32 95 19 63 65 233 203 115 67 348 329 280 191 251 276 93 245 290 60 176 71 306 52 0 314 37 160 85 324 349 218 78 237 167 226 339 9 317 70 48 156 220 200 39 205 307 180 87 13 210 141 189 161 34 171 42 214 8 157 184 92 175 294 182 134 179 295 308 284 40 80 51 33 76 215 221 230 151 94 138 12 21 231 68 288 20 168 264 298 6 265 158 147 300 97 38 150 188 186 64 61 250 24 328 257 130 323 101 139 45 309 16 124 337 128 133 23 72 152 41 315 122 301 252 327 261 15 148 54 278 53 166 103 303 334 291 316 281 104 269 144 79 350 83 4 35 17 125 346 259 11 58 331 56 43 275 127 255 322 132 100 2 273 170 248 326 236 321 198 199 66 118 224 164 201 10 311 260 330 31 318 86 190 173 187 227 340 107 304 277 149 285 28 116 228 312 123 193 14 46 90 287 246 256 47 55 36 140 113 347 283 253 345 145 292 195 29 154 240 30 178 268 99 222 207 332 254 120 50 258 262 241 235 102 77 270 279 341 249 121 91 142 89 247 84 119 143 239 69 75 44 271 73 59 202 310 169 96 333 18 126 135 289 213 229 293 82 185 208 319 286 49 117 320 153 7 325 22 297 114 302 234 3 146 335 183 282 88 137 242 272 344 196 165 81 1 296 223 299 106 105 136 155 342 211 112 209 204 26 111 131 313 216 159 74 336 244 219 305 343 238 5 57 263 267
138 46 140 156 171 248 81 106 54 232 247 150 213 119 118 241 23 227 345 4 189 259 181 160 237 20 57 195 141 320 39 9 282 116 73 331 258 333 53 153 104 32 291 72 270 226 100 301 166 99 230 314 28 269 295 8 306 211 38 221 242 105 293 228 339 18 322 90 170 279 26 79 290 235 175 34 297 223 274 317 25 137 286 110 19 62 313 87 233 216 309 112 136 148 209 180 61 192 252 103 68 217 21 220 168 56 324 207 315 321 336 95 52 344 214 139 132 17 5 335 162 305 208 179 134 251 113 37 144 183 76 14 3 176 238 204 128 16 194 169 43 27 332 127 70 212 24 44 49 126 243 10 196 292 266 326 145 224 115 173 350 146 30 303 277 272 265 182 75 231 85 343 300 149 6 268 165 280 294 80 219 253 41 338 206 200 82 154 125 86 201 316 236 135 249 114 123 261 260 158 188 271 50 174 64 330 193 340 267 177 102 60 349 186 31 329 210 234 63 254 325 257 273 47 22 40 283 91 337 287 77 262 111 346 256 71 319 308 7 334 187 92 83 163 245 78 13 312 66 55 161 143 197 88 222 304 288 191 215 15 246 276 69 218 167 281 97 129 229 205 74 310 122 198 307 284 164 84 35 65 120 45 131 298 255 59 185 2 239 302 244 1 11 323 285 152 225 342 203 240 318 67 289 42 190 299 93 108 36 33 328 263 117 0 348 58 275 296 101 51 12 133 184 121 264 202 155 130 98 29 157 341 311 347 199 178 327 159 147 278 107 94 142 48 109 250 96 172 151 124 89
194 155 339 281 32 153 170 205 146 4 207 31 221 13 246 182 20 143 17 282 217 289 149 52 91 99 349 267 100 263 251 57 180 302 98 230 191 6 335 15 285 135 313 276 190 256 157 71 112 141 258 325 265 21 212 42 284 132 130 145 72 283 151 179 148 203 273 275 41 288 117 216 244 208 54 329 156 178 87 45 97 101 319 108 28 222 202 200 40 140 321 63 347 125 56 227 233 69 81 12 225 115 161 133 95 39 309 252 307 164 22 262 272 131 1 142 43 298 84 68 297 312 158 74 257 48 214 104 249 8 316 126 152 330 106 37 58 260 305 228 118 286 51 139 10 348 232 344 204 184 23 177 0 83 92 314 317 192 77 86 162 332 70 323 331 121 11 261 322 300 9 324 44 245 315 277 35 128 338 195 333 269 85 291 294 27 172 218 350 274 25 38 299 326 150 138 80 345 181 229 264 241 248 240 278 102 33 308 160 215 259 235 168 96 209 304 59 79 340 76 60 210 73 111 213 346 64 242 183 342 129 173 188 220 169 279 334 46 147 327 231 18 82 113 3 19 270 167 93 47 110 88 62 116 78 7 122 109 336 186 171 103 193 174 310 176 120 29 189 67 65 55 175 238 36 303 198 254 206 337 90 185 26 236 224 107 124 243 234 343 34 250 296 199 280 311 127 49 287 75 196 320 239 223 166 66 24 341 61 253 271 197 144 105 301 50 318 137 268 295 255 211 187 165 114 163 292 89 53 290 2 219 154 226 94 306 134 293 30 159 123 16 247 237 136 119 328 266 14 5 201
177 261 331 127 276 120 79 42 228 95 312 11 75 194 5 242 284 288 29 253 272 330 117 262 224 16 7 146 295 215 229 170 191 143 74 340 315 348 89 92 27 205 271 339 62 345 319 275 70 129 88 41 220 325 185 239 192 294 60 186 26 182 297 199 333 309 61 152 278 245 147 103 335 323 180 254 153 122 13 343 140 40 109 236 107 200 341 259 149 304 169 249 310 53 160 168 10 232 8 237 132 84 349 2 77 59 71 141 166 350 32 43 50 247 183 270 36 243 213 46 207 324 114 151 137 305 63 298 246 106 291 119 293 240 159 274 322 19 346 124 128 336 286 244 113 337 231 292 282 344 320 204 98 135 283 266 201 226 217 68 301 210 174 24 287 85 269 206 255 28 23 221 326 148 256 86 15 45 260 222 327 156 101 17 197 55 265 100 133 313 69 87 227 289 193 157 67 47 164 273 302 64 187 307 257 300 216 334 35 241 161 258 172 93 230 82 163 111 34 4 48 37 80 225 145 22 158 299 196 25 263 154 321 118 6 38 81 73 285 3 51 279 99 189 347 252 208 303 57 238 214 108 65 308 267 0 178 21 139 91 209 150 116 115 125 126 167 248 105 138 1 33 296 104 202 90 130 250 332 317 173 281 134 72 203 165 328 251 39 131 235 112 102 338 211 212 188 198 223 66 175 233 14 96 264 234 268 97 9 52 123 18 56 311 176 342 20 277 121 136 30 190 144 31 49 195 58 54 44 78 219 181 218 76 12 155 290 83 318 306 110 329 179 316 314 162 184 171 280 94 142
310 186 279 304 159 130 303 40 158 29 273 185 54 251 262 100 20 52 5 122 118 73 26 53 228 117 140 109 316 207 210 0 284 143 4 121 129 169 253 212 280 232 101 83 311 188 307 113 58 12 344 308 13 260 223 134 137 302 190 39 285 6 198 335 329 348 187 116 96 337 246 154 35 2 218 77 214 281 27 313 340 239 221 182 59 289 125 213 171 98 9 55 347 135 194 300 49 70 67 170 128 200 142 227 80 7 95 131 146 57 238 205 261 106 201 110 345 184 1 305 327 97 139 317 252 242 99 292 241 229 263 14 133 65 268 211 94 298 21 91 197 175 237 255 203 283 92 86 75 11 199 126 270 45 71 249 112 315 231 15 25 34 160 274 90 236 225 43 104 326 33 115 193 16 286 44 209 76 318 63 248 24 191 79 350 120 64 257 267 107 325 141 127 111 323 324 148 230 276 85 178 272 78 330 173 208 196 36 258 28 32 339 278 172 202 56 157 179 342 328 138 37 219 68 243 271 343 50 235 181 61 46 259 51 144 88 8 226 331 309 180 147 87 215 217 102 19 293 155 74 291 163 176 264 321 301 297 48 66 31 177 62 3 299 18 332 287 168 161 174 152 17 103 349 288 336 275 84 22 346 123 234 30 114 216 189 319 265 240 290 119 82 165 124 153 23 220 183 149 224 156 312 167 162 233 136 294 277 89 247 206 105 295 314 41 132 93 338 151 282 42 150 192 47 341 256 108 245 254 322 320 166 296 306 250 222 72 10 38 145 269 69 81 334 195 333 60 266 164 204 244
161 234 8 121 348 61 205 270 131 166 29 332 167 41 330 302 304 190 242 228 129 305 308 189 49 174 28 35 99 22 77 95 86 219 37 265 284 197 288 261 153 295 11 244 289 18 113 64 21 297 259 220 151 191 224 315 59 127 194 108 291 78 156 350 136 51 159 27 207 85 181 177 144 328 238 213 340 38 225 48 42 335 310 9 269 198 331 92 101 109 52 241 3 209 116 117 323 229 7 343 98 195 34 169 43 192 36 171 341 134 125 307 273 53 250 185 290 63 321 249 274 299 106 128 79 175 301 239 287 76 221 320 6 111 54 88 4 324 84 179 81 257 251 206 240 336 193 232 317 339 55 118 56 212 226 155 70 184 176 172 44 72 132 349 260 140 114 2 160 46 278 130 277 334 80 298 5 102 163 303 62 267 293 146 314 162 157 73 180 13 150 138 227 319 183 313 60 306 143 253 164 211 14 235 165 262 200 126 97 255 115 338 15 152 230 215 296 89 342 65 104 294 271 309 12 337 82 327 266 1 30 74 275 236 141 347 23 100 203 218 322 246 26 210 33 252 147 47 45 187 199 186 329 154 292 326 148 204 105 40 216 103 311 32 133 318 325 223 119 231 245 68 188 57 217 71 178 17 145 90 173 254 333 237 39 123 247 0 66 170 214 168 346 202 69 272 10 122 280 58 75 94 20 83 139 196 158 258 316 112 24 91 16 124 149 31 248 222 279 107 276 243 283 137 281 87 345 263 286 25 201 142 50 256 282 264 110 19 67 268 233 300 312 208 120 182 285 344 93 135 96
84 160 233 198 137 63 101 91 305 290 311 339 250 103 129 159 338 104 130 92 244 27 164 223 217 123 278 28 44 209 102 57 133 266 213 200 150 283 201 285 25 61 308 152 189 165 210 193 276 175 41 62 172 229 323 70 67 304 170 302 148 12 280 292 271 75 194 316 16 153 344 249 154 34 37 65 349 262 100 325 107 224 17 134 83 3 126 288 333 282 140 33 257 39 132 142 186 272 298 243 215 235 120 216 182 141 110 234 319 335 265 149 226 221 109 82 169 245 167 155 14 156 314 66 40 294 313 11 246 289 284 10 253 46 54 300 180 136 191 187 79 330 326 85 334 238 77 30 20 350 307 108 207 96 287 32 145 49 98 263 241 131 230 184 269 296 264 340 118 332 121 309 113 21 139 242 174 219 22 203 71 50 231 176 72 277 31 274 348 9 190 315 251 202 47 23 5 151 13 86 225 321 52 56 192 146 99 163 220 286 158 259 1 341 69 106 2 237 122 112 297 178 211 199 15 328 87 248 6 124 171 261 222 74 119 329 173 317 254 195 59 95 179 270 138 205 258 127 281 212 8 117 236 342 90 78 19 324 80 331 185 166 336 183 51 35 232 29 252 143 24 114 48 218 247 267 268 327 196 18 255 125 147 93 214 320 162 135 36 291 295 322 76 303 301 115 94 0 299 346 293 116 279 7 58 26 68 240 181 228 197 105 306 256 157 42 88 64 273 188 177 208 128 60 343 318 275 4 43 144 111 347 55 310 239 337 38 53 168 312 97 81 260 227 161 204 345 89 206 73 45
295 137 153 293 172 7 117 105 115 56 96 178 66 87 159 164 60 91 204 291 2 61 248 289 139 171 0 22 201 224 120 131 15 265 74 276 232 296 99 332 48 72 134 46 112 268 328 309 135 108 114 249 16 103 306 161 174 107 192 73 180 158 145 170 215 133 124 243 196 190 348 156 81 141 123 195 342 218 26 334 278 23 128 110 49 281 270 330 219 333 168 82 285 260 305 336 175 50 279 187 118 263 234 160 315 31 229 33 241 184 92 86 326 109 136 310 235 76 89 271 237 167 199 307 95 98 339 344 129 206 12 323 346 30 314 317 253 51 144 65 181 152 8 222 208 177 126 325 78 245 338 211 272 43 217 93 41 221 85 37 236 231 11 45 337 313 198 193 322 303 205 130 4 324 288 169 290 176 154 259 302 104 125 194 283 287 20 331 25 52 282 122 210 301 24 148 256 90 186 316 300 246 121 183 17 53 29 182 28 240 275 216 280 71 188 54 97 341 274 162 327 209 277 230 55 308 220 239 225 32 111 35 106 238 244 242 294 157 21 166 127 227 116 3 343 18 262 40 79 350 335 102 36 226 191 173 247 345 6 67 250 150 143 68 58 70 39 297 69 64 255 299 340 203 147 63 149 202 88 321 27 132 320 304 258 9 349 207 151 200 83 101 13 59 254 233 318 267 273 284 251 257 146 34 214 10 252 1 266 77 138 42 213 44 319 47 261 5 292 212 197 163 100 14 185 298 228 84 142 165 329 286 80 223 311 119 140 264 312 75 38 347 19 57 189 155 269 62 113 179 94
57 106 294 285 159 59 73 180 320 243 97 254 310 211 118 316 146 75 239 326 244 141 110 145 344 213 127 51 257 308 5 104 42 0 210 125 38 233 61 339 153 300 144 222 147 272 112 128 149 284 81 305 314 232 24 29 114 27 188 190 121 177 11 276 319 248 46 1 22 200 220 69 94 235 35 306 89 140 66 242 7 105 116 126 185 259 328 292 82 246 283 198 74 252 168 85 236 240 31 115 265 15 109 204 169 156 231 90 346 311 101 151 253 72 123 26 3 181 4 86 225 130 322 92 278 103 49 108 336 80 122 12 307 197 84 67 321 273 23 139 100 154 119 187 91 262 277 117 206 315 208 54 260 255 48 16 196 18 164 87 345 174 271 329 64 70 33 132 207 170 349 203 43 60 175 56 39 183 199 237 13 348 36 120 152 342 20 298 193 258 65 98 165 281 79 264 340 195 267 96 71 9 282 325 76 218 296 219 78 350 209 184 25 83 234 134 297 95 155 32 113 135 194 124 304 138 331 93 160 162 241 6 324 280 102 286 338 37 142 68 227 251 295 290 176 19 347 77 150 334 288 312 216 179 291 327 250 34 317 238 309 166 217 163 201 275 228 111 14 52 266 129 303 332 247 28 40 289 192 341 229 47 318 212 167 249 205 230 58 330 302 224 182 17 44 313 214 269 63 171 107 268 10 45 186 133 301 136 226 335 30 131 178 173 263 189 41 53 333 158 62 157 261 88 8 256 287 215 323 337 221 293 50 279 223 343 99 299 55 2 172 245 137 202 274 143 21 191 148 270 161
88 220 197 331 196 141 222 247 63 128 120 243 263 285 65 335 206 104 82 130 144 148 7 2 251 329 304 277 59 98 4 311 308 55 341 200 138 60 204 57 240 21 238 248 28 229 252 143 271 300 337 231 127 47 194 283 26 343 295 184 145 342 185 207 323 325 149 131 134 164 245 176 183 94 217 296 225 129 350 142 319 38 313 306 274 6 95 172 272 76 170 140 1 346 181 239 292 93 305 286 293 180 68 287 192 147 36 112 159 233 269 186 318 91 51 107 334 12 70 332 34 105 244 136 25 255 169 155 121 77 113 58 53 92 257 33 237 3 153 214 258 340 31 165 261 74 302 210 73 234 44 235 270 79 72 299 90 349 253 123 56 85 133 175 14 336 339 168 174 301 316 15 173 327 5 86 344 307 45 97 50 67 278 250 118 280 291 0 161 43 242 46 226 268 260 119 32 178 166 87 195 23 18 303 83 75 157 39 171 89 218 314 312 163 106 284 330 9 116 310 35 167 190 347 208 267 37 279 10 110 227 16 328 20 49 125 215 317 219 111 193 108 228 27 132 103 114 109 182 152 189 41 17 115 249 29 30 102 326 276 48 209 321 290 8 150 232 262 52 256 54 124 13 62 205 273 345 126 191 101 135 254 333 212 19 117 289 22 288 69 42 81 198 80 224 315 348 338 188 281 187 294 320 236 100 64 297 146 158 202 99 223 246 265 221 162 264 211 266 241 139 71 177 40 160 216 259 298 309 324 213 203 282 137 66 322 154 78 179 275 96 201 151 122 61 156 230 84 199 24 11
307 205 304 293 127 182 234 213 79 29 22 114 295 96 41 319 94 291 37 181 241 101 159 167 224 290 45 206 161 133 237 343 218 272 36 193 211 81 123 119 337 183 186 53 247 215 169 100 125 308 318 164 345 294 209 168 109 185 207 231 9 341 348 12 252 276 327 325 152 111 85 217 30 80 315 71 249 110 26 48 281 40 7 255 13 149 311 298 118 46 160 296 23 246 102 65 309 232 117 122 31 44 28 90 336 173 58 305 320 195 178 266 155 50 301 286 39 3 145 312 321 219 141 42 199 261 60 230 228 314 342 292 134 131 136 190 33 25 24 254 277 19 256 151 350 15 202 32 105 303 216 38 282 95 306 265 253 208 240 242 179 106 287 10 317 49 263 34 198 203 212 51 162 222 99 75 157 165 59 278 264 279 273 130 83 176 177 347 235 103 269 188 259 250 238 138 338 97 196 142 1 340 204 270 268 150 210 144 52 143 200 126 108 166 128 86 147 158 135 197 248 258 225 77 76 257 0 187 175 275 82 4 332 300 112 333 284 344 192 84 132 260 140 156 331 271 184 98 18 8 310 61 334 302 227 63 201 323 87 297 139 245 226 180 21 91 251 129 92 229 163 288 62 89 214 64 153 280 73 93 115 116 148 289 322 124 236 68 172 67 221 66 233 54 47 74 326 262 244 285 137 191 146 78 239 299 56 88 35 330 324 329 107 104 223 55 313 120 11 17 283 121 27 43 346 14 70 113 72 267 243 194 171 335 6 20 2 57 349 174 220 69 16 274 170 316 339 154 189 5 328
111 274 297 131 332 55 133 73 223 159 258 127 68 232 2 113 270 64 161 251 335 186 263 322 218 208 347 280 261 269 285 323 290 110 48 102 315 253 278 47 345 339 344 92 134 249 12 128 19 158 35 243 308 172 321 51 342 247 150 107 266 78 22 106 234 306 60 273 99 39 151 84 338 246 149 115 259 94 185 225 53 284 89 9 95 212 287 75 300 49 138 57 209 329 155 348 27 202 31 112 179 87 54 289 328 220 343 169 293 29 156 252 14 279 79 1 238 310 63 145 193 292 203 15 154 311 194 103 141 231 139 152 196 101 91 283 32 58 222 309 116 239 184 312 330 281 18 187 42 226 117 254 324 90 41 286 241 74 204 177 214 294 148 45 327 104 125 3 248 121 230 350 201 85 13 217 123 52 59 136 331 71 69 206 166 28 199 30 126 291 142 255 130 143 282 36 100 183 98 118 349 314 20 325 40 305 240 160 316 197 26 37 320 97 275 319 62 23 272 5 205 93 211 304 96 288 164 147 221 6 188 157 163 213 43 162 191 298 16 17 219 72 268 77 119 271 341 260 80 318 11 245 236 210 88 216 267 301 7 337 108 34 189 67 235 265 173 8 237 50 174 313 190 326 227 167 233 336 215 334 244 109 295 65 333 105 140 25 33 10 46 228 135 83 264 200 176 70 171 182 242 0 192 346 86 44 180 317 256 302 207 168 61 340 81 122 153 120 296 224 38 303 76 307 132 114 250 82 24 299 56 137 181 165 178 198 262 144 170 66 129 124 277 175 257 229 146 21 195 276 4
254 168 95 171 20 24 301 226 232 170 1 42 225 289 161 2 298 244 104 312 208 108 259 46 216 272 248 123 122 251 319 283 189 313 150 306 66 224 229 115 38 55 23 127 22 227 309 253 11 149 6 178 333 239 270 335 158 218 339 65 60 285 311 8 182 179 278 256 258 96 297 70 135 154 5 194 181 164 76 52 119 276 67 87 336 54 100 202 27 129 212 101 166 286 134 50 105 120 51 75 12 30 136 240 32 59 247 146 238 265 117 176 331 40 321 211 307 302 338 26 82 188 213 249 267 36 72 92 305 155 29 137 350 162 243 10 174 337 206 159 33 330 103 292 281 37 196 99 220 88 77 107 327 98 205 299 197 152 61 132 195 25 344 175 130 163 89 223 260 63 288 277 121 183 349 308 322 173 73 34 56 192 15 39 180 200 69 184 113 125 43 245 210 172 323 303 342 116 348 138 204 271 83 151 80 165 241 81 235 79 112 126 264 49 18 246 78 328 287 57 257 294 145 41 45 13 90 86 300 343 236 140 190 124 35 280 53 48 142 332 144 230 314 191 169 341 118 215 310 97 14 153 62 326 290 7 114 304 102 275 31 214 109 207 219 167 85 263 111 177 58 315 148 71 346 19 279 296 242 141 203 316 0 187 231 262 324 133 273 128 282 261 295 284 274 318 147 94 16 28 334 157 217 139 143 340 3 91 156 68 293 4 131 209 193 250 21 9 320 291 329 199 110 234 185 345 17 317 266 186 221 201 347 93 44 222 252 268 198 237 106 47 74 228 84 160 255 325 233 269 64
207 197 77 187 250 37 56 43 152 150 289 117 100 314 276 163 332 290 32 157 336 322 255 95 96 206 142 147 144 217 46 75 80 57 284 262 274 159 237 175 239 251 139 26 143 172 324 110 164 1 272 116 29 212 228 273 257 236 335 265 235 41 154 203 248 19 55 194 181 138 11 123 168 249 166 316 193 161 97 78 129 14 224 60 125 211 240 67 278 334 313 39 20 254 69 177 118 247 196 64 299 326 178 292 127 124 263 104 286 158 320 10 261 114 101 304 2 102 305 342 170 81 141 38 18 227 189 307 190 271 99 6 225 59 33 233 267 54 300 315 160 312 218 126 199 200 195 128 176 259 269 40 71 167 31 230 52 291 12 288 287 49 222 107 186 42 214 17 45 323 246 106 171 345 23 136 133 173 348 70 21 308 281 209 234 58 132 65 309 201 264 74 76 94 306 15 151 87 112 232 13 109 242 241 111 223 83 301 9 61 22 183 182 0 66 256 330 50 82 347 27 25 34 343 238 279 115 93 282 130 202 179 296 16 317 148 146 28 293 98 341 303 140 245 89 325 192 243 63 108 85 36 333 91 220 62 310 321 162 30 135 137 270 208 47 229 318 7 131 72 3 258 5 216 210 338 346 134 252 191 302 86 268 253 204 53 68 339 275 105 221 155 44 119 103 88 319 84 156 174 198 297 4 185 244 337 73 122 226 113 327 298 8 205 266 280 145 48 328 344 231 340 51 120 285 350 260 149 295 169 92 79 215 35 213 188 277 331 283 153 180 349 90 165 184 294 24 219 311 329 121
81 265 52 329 299 92 254 279 297 294 235 318 182 172 83 128 135 118 91 73 270 273 96 194 324 272 104 214 339 113 340 285 248 21 107 88 327 300 29 31 246 247 20 35 153 349 120 126 7 105 161 229 322 130 277 82 251 40 77 195 164 348 258 342 274 266 220 148 4 8 1 283 72 3 196 17 137 131 22 141 62 221 224 189 86 108 49 310 232 308 201 129 147 109 114 169 222 23 184 45 198 121 2 127 203 47 170 287 58 301 278 253 309 124 190 302 289 95 332 188 326 261 173 75 42 39 94 268 51 64 267 16 338 202 68 136 291 217 140 180 280 101 295 231 259 346 341 271 152 205 269 347 27 57 330 199 255 66 313 176 305 74 36 345 292 149 177 48 216 238 28 25 296 298 159 150 233 275 112 192 55 14 102 237 19 311 333 97 30 13 197 200 111 186 134 43 334 89 321 116 257 167 103 163 63 162 38 183 336 304 115 286 245 154 242 11 211 208 276 206 210 314 293 146 228 303 260 143 306 264 171 26 350 155 239 80 193 284 223 316 191 281 179 168 98 252 53 244 15 138 243 227 125 250 187 325 6 54 156 123 84 249 18 70 319 166 56 230 41 132 119 307 178 67 234 312 144 165 9 90 160 323 157 59 263 24 12 110 10 262 315 343 212 320 335 61 99 46 44 337 204 69 122 50 240 0 290 34 60 65 219 236 175 32 87 215 213 331 288 207 76 142 100 225 5 139 151 71 282 181 344 78 317 117 133 209 218 185 37 256 241 93 79 33 145 174 85 328 158 226 106
71 255 338 155 280 176 253 12 66 21 8 221 156 323 224 214 119 31 342 51 222 301 284 3 296 146 233 228 282 189 291 101 105 116 0 231 78 324 131 118 245 160 293 322 211 81 331 279 220 320 299 58 237 328 229 315 45 268 16 94 335 148 92 240 44 281 236 337 89 182 332 63 307 200 140 40 97 343 292 68 241 77 96 75 64 26 340 264 197 227 183 79 108 274 256 269 138 55 171 85 178 164 127 251 1 69 303 60 187 285 287 209 283 133 10 172 243 82 24 273 218 70 36 39 93 325 121 286 199 158 130 314 318 62 115 22 254 111 102 143 216 232 186 150 288 124 86 13 198 7 149 161 265 25 90 339 95 59 98 38 100 53 239 278 333 152 244 107 205 120 341 23 145 34 250 167 311 219 76 206 151 326 15 30 166 80 6 169 2 165 126 235 19 263 196 20 106 122 104 139 123 321 87 184 113 249 33 48 154 84 11 260 99 201 170 162 54 259 192 262 316 204 188 4 125 27 195 35 258 223 230 43 217 207 275 203 147 202 226 242 336 28 267 334 144 312 294 238 329 210 179 141 310 163 177 270 185 346 135 47 225 142 289 246 32 117 29 298 319 212 114 37 57 349 306 132 49 215 348 153 50 9 304 168 190 191 128 67 300 18 42 194 88 317 110 65 295 213 309 193 261 83 91 52 17 129 305 112 248 271 72 14 252 313 159 344 297 134 180 302 247 109 173 290 74 276 61 266 73 330 136 208 46 174 347 350 277 272 5 308 103 175 181 56 157 345 327 137 41 257 234
98 174 225 164 161 187 20 65 226 228 173 259 111 264 162 171 251 290 240 2 90 197 188 266 258 14 330 267 22 59 237 252 128 210 38 61 82 346 126 6 338 81 47 144 316 58 303 130 157 203 125 253 51 109 250 231 186 185 263 176 43 16 4 214 278 309 41 11 96 74 166 287 347 95 113 103 200 350 276 343 134 315 49 325 117 50 110 248 23 336 169 233 160 301 215 320 5 334 207 115 87 79 314 60 317 332 274 54 57 73 261 216 313 116 120 286 64 220 70 246 104 76 34 292 167 284 137 170 7 136 289 158 135 344 183 141 3 9 283 249 13 260 281 177 154 208 86 68 67 101 308 35 53 91 127 321 15 232 62 78 71 175 28 40 30 77 312 155 280 209 190 1 196 293 46 194 156 122 257 192 243 138 333 29 296 262 275 254 230 8 179 107 26 172 55 37 223 83 277 335 341 224 201 213 146 63 118 163 133 89 52 153 12 269 92 340 80 66 295 123 88 311 39 102 319 241 10 306 204 229 100 145 205 112 345 326 45 234 106 239 318 42 131 32 244 36 236 85 339 211 273 0 165 18 299 302 322 142 152 97 268 219 199 119 178 328 222 108 307 310 324 189 31 218 323 114 180 238 121 99 93 147 221 304 272 271 300 291 105 72 279 227 182 217 56 294 168 198 84 25 242 256 193 202 195 181 255 44 265 140 342 331 305 206 19 150 75 298 143 69 285 132 24 21 159 48 349 247 148 245 212 282 129 327 151 27 235 348 149 184 297 191 124 288 33 270 139 94 337 17 329
300 277 268 142 126 80 44 206 95 43 323 282 320 161 158 314 232 168 77 233 105 7 207 144 167 145 175 89 138 184 181 276 326 297 334 59 111 339 261 143 1 62 226 57 67 47 345 269 48 222 192 112 198 96 119 2 199 180 123 292 190 60 267 79 321 295 107 46 183 78 25 238 164 110 136 54 102 307 236 20 21 135 90 239 322 256 88 152 3 216 324 193 213 45 244 118 318 114 115 37 150 55 140 317 328 218 174 210 29 63 116 306 249 265 299 109 76 15 262 274 6 94 197 263 245 211 17 214 106 259 169 196 310 99 308 337 159 122 284 350 280 241 234 278 270 71 91 219 22 129 34 70 255 125 35 84 186 155 313 151 191 298 73 156 305 279 209 336 141 4 133 39 19 289 149 50 309 188 346 251 325 195 81 130 139 194 51 124 146 348 332 120 8 74 14 108 23 312 335 343 248 134 329 30 240 254 338 246 285 12 340 69 311 215 182 288 281 100 154 28 273 229 179 165 11 56 315 208 33 290 225 217 36 24 178 66 228 16 117 127 331 9 202 157 42 31 26 291 347 230 103 200 296 166 293 98 264 137 257 221 247 171 286 65 287 147 162 160 13 275 172 87 253 185 41 227 333 242 49 327 258 235 203 93 58 163 220 271 304 86 132 272 61 283 10 131 223 40 121 32 148 38 85 101 316 260 75 97 319 201 82 52 5 212 231 27 113 349 177 68 83 187 104 18 92 294 237 250 173 153 53 243 205 204 189 224 302 344 266 301 176 303 330 72 252 0 170 64 128 342 341
