54 87 44 28 59 26 76 179 6 62 153 42 157 117 22 55 154 101 92 91 77 81 203 13 163 45 37 31 67 18 30 156 193 104 105 190 108 196 96 152 10 80 135 200 69 165 86 15 35 184 66 119 14 169 12 83 111 155 182 110 143 112 173 133 186 168 160 39 17 20 124 147 187 158 8 194 114 115 5 151 63 145 197 171 201 23 176 125 178 97 53 47 148 11 21 79 1 180 103 123 25 3 161 136 93 43 206 24 191 95 127 60 132 122 89 74 19 32 183 149 144 84 172 188 139 49 64 134 199 34 141 137 38 48 202 175 185 167 164 131 71 113 120 41 204 99 195 189 78 138 7 128 61 129 106 73 102 205 198 68 46 150 170 88 58 75 94 85 116 27 50 146 57 98 70 4 9 181 2 52 207 166 142 109 126 174 51 65 140 36 56 72 121 107 33 29 162 16 90 0 130 100 192 177 40 82 118 159 
76 111 46 82 154 35 38 45 197 106 123 178 89 114 130 63 207 193 7 37 146 41 147 78 182 90 119 27 185 168 198 72 165 39 148 156 51 1 22 110 3 4 14 66 40 116 172 91 26 127 176 187 135 180 24 189 175 97 153 166 98 83 167 120 101 55 184 129 81 117 33 11 13 43 103 31 192 73 160 204 133 109 158 17 74 136 6 171 142 28 23 85 122 93 179 205 96 115 44 61 30 59 29 141 144 25 128 19 56 104 181 155 100 150 5 177 134 102 113 199 201 2 188 15 107 47 50 126 84 69 143 169 12 94 149 173 77 157 125 183 64 86 48 161 108 195 190 79 20 42 203 9 118 87 95 54 57 16 132 71 10 138 174 62 0 32 105 121 124 140 163 170 194 18 68 53 151 88 202 200 92 58 191 67 152 164 196 75 112 80 145 60 34 131 99 139 159 70 52 186 137 8 65 49 36 21 206 162 
78 146 133 27 103 186 81 25 150 65 57 8 123 88 138 192 66 46 28 142 54 153 194 129 130 53 38 118 70 18 155 15 207 19 67 14 68 17 76 176 55 35 99 45 195 148 3 29 197 97 50 139 58 177 180 112 2 39 80 154 44 136 95 202 198 36 163 162 127 63 86 178 169 141 190 22 40 193 172 4 0 113 89 69 128 7 26 62 104 181 37 125 201 6 82 100 13 96 126 110 171 191 157 200 144 152 134 116 108 199 161 184 120 48 10 12 147 188 52 87 102 135 79 115 170 168 137 131 122 173 149 164 56 33 34 93 159 64 165 43 111 1 151 119 60 124 204 5 90 117 74 189 23 106 32 75 206 182 9 183 101 121 187 175 140 59 185 114 73 84 71 109 16 31 30 98 160 145 156 11 167 94 72 92 47 77 107 205 91 24 41 179 42 83 61 20 49 85 21 203 196 174 51 132 105 158 166 143 
131 206 110 200 4 178 96 12 98 91 100 79 49 166 28 111 89 69 190 150 148 92 169 5 73 137 34 167 136 205 161 0 173 22 120 175 72 115 7 42 76 202 41 146 43 94 116 93 129 65 113 207 87 121 21 107 9 50 152 199 151 30 138 135 47 51 37 130 153 170 112 80 8 142 10 119 154 125 186 55 66 52 78 2 184 102 13 163 117 176 18 61 53 35 99 156 71 189 128 77 145 197 38 158 201 168 108 75 104 114 171 123 70 40 29 16 27 45 159 124 105 56 203 31 15 1 140 97 183 17 196 185 174 36 193 134 181 180 3 6 179 147 32 63 187 155 11 60 182 122 84 14 144 139 126 59 39 23 160 188 191 95 101 81 204 54 24 118 88 157 33 195 164 90 20 143 57 133 62 58 48 132 106 68 44 141 83 109 64 85 177 26 162 82 149 19 192 67 198 194 172 74 25 86 46 103 165 127 
107 180 198 155 167 143 141 110 184 38 104 173 30 161 194 190 40 73 81 14 33 43 18 74 196 42 19 106 170 66 188 21 149 158 151 109 10 11 103 46 97 102 23 199 68 206 89 0 24 41 140 122 55 205 175 154 174 60 22 101 53 32 1 131 20 160 157 133 162 78 144 12 203 3 121 92 179 65 202 75 69 187 31 59 44 185 61 71 36 87 48 63 2 125 100 58 201 105 80 150 195 82 88 119 70 98 191 124 118 6 136 35 13 117 67 8 84 181 137 168 177 171 139 165 79 83 90 132 186 172 128 183 112 130 49 54 169 148 93 192 25 142 152 5 111 51 28 207 99 7 37 45 91 96 76 176 4 15 146 200 50 156 126 64 47 159 197 153 120 147 17 116 138 115 85 34 29 16 127 27 193 86 166 123 56 164 182 72 57 108 163 39 189 95 129 113 204 178 9 52 62 26 135 114 145 94 77 134 
155 11 55 3 21 193 146 125 90 12 128 205 88 2 87 67 207 166 112 93 159 13 124 121 33 78 200 91 79 27 171 97 169 194 182 156 188 24 110 39 19 96 61 99 189 164 106 165 43 195 186 7 41 113 202 172 86 160 32 196 45 168 184 198 38 127 58 141 163 8 72 54 148 104 9 18 142 71 101 157 56 51 102 175 40 65 115 53 48 75 42 199 103 177 129 5 30 10 66 83 28 176 74 170 16 34 179 94 60 109 82 203 134 107 123 4 180 132 80 140 116 158 57 120 36 161 137 133 151 174 190 59 89 185 108 167 50 201 206 1 126 76 144 100 35 52 64 31 0 173 95 187 136 111 22 62 84 114 149 119 143 191 197 25 6 14 181 81 70 135 73 145 183 98 69 118 85 105 77 153 17 117 147 131 92 150 130 154 162 63 122 47 204 152 37 26 46 138 178 68 15 139 29 23 20 44 192 49 
10 14 153 40 69 107 106 177 160 127 100 138 174 51 148 56 89 67 94 198 157 166 187 90 117 201 45 73 149 70 54 16 188 22 18 140 82 144 44 95 7 183 181 134 48 175 29 11 47 77 68 195 33 101 169 39 32 0 15 193 71 170 125 156 184 180 131 57 49 192 137 155 196 147 182 97 152 74 81 120 65 13 17 24 58 200 178 151 86 63 88 176 50 194 37 124 92 36 62 42 172 133 146 66 85 122 204 79 64 171 112 199 46 190 141 126 99 1 130 30 5 60 150 26 203 23 91 53 132 202 167 83 9 168 110 35 34 31 118 19 119 8 103 80 135 20 197 158 96 52 25 123 121 116 104 145 143 38 115 4 114 21 2 185 205 41 55 113 6 191 189 163 3 12 139 75 161 28 206 186 72 136 165 78 207 164 128 111 59 142 87 179 173 98 109 43 129 108 93 102 76 162 61 27 159 154 105 84 
5 126 64 82 62 112 155 197 141 39 202 28 193 102 45 178 92 165 185 59 88 187 153 204 58 106 67 191 121 115 2 23 94 192 30 167 144 68 1 11 104 189 7 53 114 150 35 103 132 140 27 166 56 164 145 135 163 186 69 173 55 60 183 206 79 110 190 188 81 87 74 24 151 93 98 156 73 96 16 174 14 133 158 20 161 22 49 83 205 198 89 168 54 77 180 61 107 84 44 138 71 9 3 118 72 109 19 154 29 21 38 123 162 18 179 143 43 97 100 125 148 47 120 182 33 171 136 32 75 122 70 76 105 196 90 149 4 113 41 147 131 201 51 57 65 85 124 10 157 13 99 169 91 8 26 119 152 42 101 160 34 203 111 66 37 78 25 207 95 200 127 46 134 177 50 142 52 31 172 130 176 194 63 86 199 6 181 195 128 12 139 108 40 80 146 0 129 17 137 116 36 117 170 15 48 175 184 159 
189 176 59 192 147 3 48 195 186 187 138 62 11 170 172 40 167 84 198 73 156 51 114 12 111 90 207 148 179 144 116 202 0 64 194 203 171 190 1 177 134 55 24 10 126 18 124 184 160 7 34 100 39 93 25 53 104 162 166 13 102 165 106 112 168 117 60 35 45 152 188 42 146 2 82 21 29 89 204 96 50 83 149 69 178 19 98 32 181 151 127 169 6 41 79 199 67 182 65 56 101 44 193 28 163 159 113 196 130 57 22 63 20 30 140 31 139 78 87 76 97 175 33 185 91 174 15 125 58 123 143 95 109 71 92 115 85 201 120 36 9 122 66 197 183 23 5 86 206 52 119 133 61 27 75 47 135 153 103 81 80 154 94 54 191 38 136 205 110 129 157 155 72 132 137 164 8 14 200 88 131 118 70 77 49 108 180 158 105 142 141 128 74 68 121 37 173 4 17 46 99 43 16 26 150 107 161 145 
65 38 108 85 46 135 146 111 169 47 101 149 202 172 24 189 35 95 17 186 171 80 39 93 194 157 180 145 187 164 137 27 115 173 102 86 147 29 89 78 132 5 196 106 142 60 64 61 84 158 116 70 82 161 168 15 63 176 34 130 131 88 103 143 159 109 207 139 73 123 200 66 55 197 117 185 1 23 120 74 77 45 124 113 175 7 206 129 118 75 160 141 6 49 48 14 26 165 178 87 110 140 98 68 150 184 127 133 174 72 37 204 20 83 50 114 69 134 179 21 125 122 155 152 9 181 198 136 104 100 4 193 28 62 156 44 53 25 67 0 192 10 190 96 191 188 79 43 107 76 183 166 2 3 151 138 30 112 153 128 33 19 57 13 199 32 81 170 42 97 203 163 144 71 121 119 56 91 54 162 11 16 58 22 177 92 40 90 51 52 18 148 182 105 167 8 126 41 94 36 31 59 12 99 195 201 205 154 
97 168 109 116 24 39 64 182 132 160 26 73 129 100 120 185 50 54 138 165 154 190 5 114 17 102 118 69 148 49 31 45 32 28 21 131 128 7 130 193 41 10 38 65 48 35 127 59 92 196 122 78 146 158 172 36 175 1 184 121 119 96 206 163 174 83 8 112 0 12 159 94 125 99 149 89 98 25 104 202 186 107 77 178 200 87 126 195 111 161 103 47 197 53 189 66 152 198 201 117 43 15 167 55 166 123 22 14 13 74 20 137 79 183 27 151 71 82 60 176 155 179 93 29 40 143 180 30 171 33 75 188 105 134 18 135 72 156 6 42 139 19 108 70 3 157 205 106 90 46 37 194 204 164 141 4 207 170 150 11 62 68 169 113 16 115 85 136 81 88 173 56 34 110 153 63 9 58 101 145 177 147 2 144 199 52 95 203 67 80 192 124 23 191 51 187 86 140 61 142 44 181 76 91 84 133 57 162 
197 131 171 143 189 83 52 181 64 176 95 70 167 115 86 13 106 12 153 205 72 98 162 36 132 202 161 144 79 184 118 179 134 204 169 145 43 76 136 187 101 174 5 2 74 14 87 191 57 60 207 112 47 148 117 18 25 38 41 61 32 175 88 34 31 4 58 113 125 8 116 130 111 160 164 103 152 150 24 17 183 129 10 81 177 49 194 29 156 21 185 195 163 73 102 159 94 63 121 119 138 135 54 28 35 141 11 110 109 172 166 85 190 62 40 168 122 67 200 3 51 15 30 50 39 198 48 66 149 192 77 142 46 196 178 203 206 7 93 55 0 82 139 100 19 22 80 45 140 96 155 84 75 126 89 44 193 173 180 20 9 69 124 91 26 97 42 199 154 182 71 120 107 201 188 6 147 123 157 114 37 104 99 137 165 23 186 92 170 27 151 105 16 65 33 90 133 146 56 127 158 78 53 1 128 59 108 68 
24 50 207 61 95 206 36 79 40 161 110 132 98 59 164 12 180 106 76 57 143 102 33 173 121 185 156 82 199 68 54 163 94 34 4 88 80 86 7 186 71 137 147 111 170 191 166 149 60 139 52 20 125 6 72 63 130 1 133 69 160 18 118 27 100 28 114 42 131 15 197 158 47 49 38 116 113 32 83 175 31 25 65 13 112 196 167 201 64 165 97 14 203 19 91 101 127 104 159 184 183 37 120 51 144 22 55 87 92 152 148 145 194 117 29 140 153 16 150 85 188 129 99 67 155 108 75 115 119 2 178 192 81 200 3 41 181 93 123 107 45 187 30 77 134 66 5 23 35 136 151 46 126 174 105 26 103 109 171 124 122 73 70 10 169 157 182 90 74 128 177 146 179 9 8 202 141 198 48 56 58 168 189 62 205 17 21 204 193 43 195 176 53 154 11 0 162 142 84 138 172 44 39 190 89 96 78 135 
69 52 121 102 120 16 13 26 117 168 153 3 200 12 122 181 108 75 205 165 60 94 166 187 149 70 125 98 152 100 76 95 79 32 185 176 110 178 101 150 135 175 33 114 207 5 15 40 58 148 4 91 157 64 74 198 172 44 111 124 55 27 67 17 127 59 130 105 171 86 24 80 77 37 138 151 42 78 62 144 71 50 84 0 145 194 35 126 154 116 155 147 167 188 63 81 65 201 143 133 23 146 170 129 136 137 96 49 184 183 164 128 19 39 163 9 22 204 57 131 1 189 7 46 199 2 190 25 48 115 162 202 29 72 53 139 156 99 196 47 6 45 109 34 31 161 104 61 89 21 134 192 123 85 56 193 90 186 51 159 140 66 83 73 113 160 68 92 174 158 179 112 132 141 119 41 87 8 36 10 195 169 206 97 177 28 173 107 88 11 203 43 103 14 30 106 93 82 20 197 38 191 142 118 180 18 182 54 
19 172 53 163 1 74 128 48 187 144 175 106 8 184 47 97 59 107 148 189 28 162 113 30 36 65 60 69 2 109 46 50 64 27 40 39 143 86 35 151 10 5 95 102 157 117 131 155 112 169 58 203 177 85 159 55 118 22 42 197 180 71 153 62 66 31 195 164 61 194 202 121 165 145 207 80 17 168 57 149 51 101 160 133 183 170 91 166 32 6 129 89 72 122 98 15 126 146 120 43 199 167 34 135 11 185 141 96 9 173 114 181 147 44 79 63 179 70 139 198 171 205 87 3 100 84 104 81 76 37 13 24 103 21 186 77 206 14 161 150 33 105 188 52 90 124 7 45 136 140 125 110 75 54 178 174 82 99 156 200 134 190 23 92 119 73 193 41 111 108 204 138 152 182 56 192 176 130 0 123 49 201 158 29 93 154 38 20 137 26 132 127 4 115 83 25 12 16 18 116 94 196 68 191 88 78 142 67 
113 120 55 86 168 200 63 89 16 165 173 188 152 92 155 181 88 102 67 3 58 176 198 104 143 170 39 15 167 24 123 157 201 6 192 62 137 45 149 10 35 75 124 158 197 11 79 114 121 96 97 169 111 90 70 161 131 76 20 91 81 33 19 108 191 146 18 109 68 42 193 69 5 185 25 49 12 115 139 206 57 51 119 53 98 7 77 141 52 28 80 195 138 135 204 175 78 73 179 166 64 56 2 8 150 112 194 99 183 41 23 196 117 9 153 125 30 26 47 29 202 151 83 72 22 134 44 178 27 126 43 48 205 203 13 46 71 38 87 207 105 184 148 14 60 82 54 164 4 93 100 101 34 17 95 145 159 85 128 65 66 116 190 37 180 174 103 127 160 40 187 186 107 163 94 31 147 84 142 140 21 162 156 144 50 172 106 61 0 129 136 59 118 171 154 122 74 130 133 189 199 36 32 1 177 110 132 182 
27 56 154 90 89 111 164 39 5 152 15 192 58 131 135 49 45 120 69 67 174 77 41 126 97 166 205 20 46 57 88 75 1 172 24 76 121 193 112 175 122 48 202 43 13 199 78 168 186 105 145 117 36 187 133 28 118 72 51 42 153 109 12 65 106 8 7 93 176 10 0 71 142 33 16 150 185 191 6 201 113 55 114 189 86 116 169 94 18 37 146 107 87 177 50 17 198 74 68 82 170 22 102 52 99 92 119 127 9 81 35 157 21 108 188 141 110 139 11 59 156 162 98 134 80 29 31 181 143 195 163 124 206 171 23 2 158 184 149 47 44 54 138 183 197 53 26 64 194 203 3 125 84 63 62 103 130 147 66 196 200 136 137 70 4 101 207 190 83 151 155 180 182 14 148 179 96 144 100 25 32 115 140 159 129 167 173 38 178 19 95 79 91 161 85 30 61 160 165 60 34 204 40 132 123 73 128 104 
158 27 45 119 120 17 202 175 186 46 91 30 164 189 49 199 114 26 3 22 64 10 0 198 41 20 74 21 123 205 195 19 133 207 203 68 197 69 105 137 37 204 4 47 139 112 97 179 34 187 127 33 147 75 90 182 146 125 145 128 80 28 77 106 165 86 98 18 174 13 194 190 38 62 79 57 108 126 63 131 149 76 54 25 148 70 140 81 143 138 151 92 170 101 181 110 111 176 6 72 206 36 50 15 96 12 31 172 73 99 185 58 89 71 171 8 48 161 180 135 157 56 44 32 88 163 155 196 141 100 104 85 2 109 193 183 24 184 156 66 130 177 201 188 103 122 178 53 167 65 67 35 11 192 43 55 93 51 118 16 153 169 39 84 40 29 115 78 173 129 61 87 124 159 200 121 23 168 60 152 166 142 5 160 117 95 9 134 191 52 82 150 14 107 94 132 162 154 7 42 144 1 83 113 136 102 116 59 
193 53 49 177 24 115 196 96 6 44 184 39 147 89 142 172 162 42 82 27 83 155 120 194 99 176 125 46 206 148 14 127 203 97 161 17 171 174 1 4 60 16 57 111 204 21 182 78 47 59 103 43 5 92 188 41 145 10 29 107 84 85 79 156 106 135 153 45 2 190 12 138 136 117 63 144 13 205 158 168 54 65 26 93 98 130 192 166 169 76 165 170 11 178 134 67 150 116 202 36 157 132 32 185 9 56 31 104 110 68 121 18 81 55 50 179 186 191 61 88 133 30 181 48 51 73 164 74 137 25 28 80 3 38 34 200 122 114 154 143 187 119 77 86 15 75 139 70 152 113 91 207 159 128 167 180 37 62 199 90 23 69 126 201 102 163 105 118 95 72 20 140 0 189 197 58 40 8 52 19 101 112 183 64 146 109 7 129 66 94 175 195 124 35 100 108 149 160 141 87 173 123 71 131 33 151 22 198 
125 153 162 61 110 198 87 63 75 16 156 128 26 191 8 39 146 7 178 143 186 116 145 132 65 55 113 170 175 161 112 108 14 35 21 67 90 79 141 82 147 59 189 102 70 190 180 192 92 15 38 119 1 185 172 135 183 72 97 123 181 205 30 100 18 69 84 3 4 168 194 81 86 93 41 104 173 176 2 171 120 107 111 167 138 99 117 77 10 64 98 144 91 32 85 5 130 154 37 148 131 11 149 158 179 163 45 115 96 165 204 66 133 94 122 13 80 73 137 177 44 71 206 109 33 187 78 27 188 197 124 9 50 76 0 140 159 58 95 23 25 51 202 139 136 49 48 54 24 152 19 101 42 195 106 62 47 12 17 164 74 142 31 83 52 88 56 174 89 121 203 36 114 22 155 105 103 184 6 118 53 134 169 150 160 151 126 43 127 196 20 166 129 60 199 40 157 200 207 28 46 182 193 57 201 68 34 29 
