92 152 33 179 146 79 132 83 110 0 169 21 102 16 196 178 117 139 18 133 22 100 187 78 57 145 62 55 6 183 192 161 105 136 165 160 170 126 186 137 158 14 93 30 172 142 173 153 12 94 86 80 43 159 151 53 119 131 11 87 41 123 58 51 144 38 29 128 116 49 40 39 171 13 42 150 4 164 104 138 26 25 163 31 5 155 109 111 98 73 125 127 174 166 185 130 90 71 84 17 85 54 191 91 67 48 19 157 122 70 10 15 134 176 103 107 175 32 65 44 120 96 162 106 46 194 121 56 141 28 50 23 68 36 45 193 147 99 177 184 9 37 118 82 1 66 59 74 180 72 63 124 129 97 143 35 8 3 135 113 75 156 168 115 149 154 60 140 114 7 148 95 81 77 47 197 182 20 101 2 76 52 88 64 69 167 195 112 189 190 24 27 61 89 34 108 188 181
71 64 166 4 13 94 3 144 153 69 175 113 33 169 81 44 172 20 25 194 84 23 134 162 165 76 139 117 170 43 145 192 6 17 41 18 22 52 61 21 51 47 88 177 53 103 190 122 142 57 27 96 35 36 123 9 38 174 159 74 54 116 128 28 0 186 11 185 168 93 16 67 68 12 87 154 133 121 65 2 83 167 108 141 42 7 126 95 135 62 14 99 173 160 63 110 90 66 140 127 72 149 56 189 77 119 102 30 132 59 100 91 80 49 40 136 34 120 45 188 138 158 115 164 101 151 193 131 178 182 5 106 29 55 171 109 196 24 150 26 1 137 112 148 60 70 107 125 155 92 86 8 37 73 114 157 143 161 163 75 156 187 184 129 181 85 180 183 78 124 79 195 118 50 179 176 130 111 58 197 98 15 19 31 39 147 46 97 89 105 191 152 48 32 82 146 10 104
48 74 43 156 41 97 20 146 59 154 103 42 69 18 76 68 173 94 175 191 37 167 46 92 144 91 158 11 189 170 8 5 71 32 67 185 78 159 105 138 128 164 17 89 106 83 120 181 55 58 169 194 81 16 66 163 96 150 151 7 168 29 3 87 165 141 166 95 142 140 23 15 85 50 75 135 14 99 1 172 183 171 27 193 179 162 125 126 123 157 132 116 34 63 40 145 134 133 93 186 21 130 86 174 110 24 149 12 90 122 100 143 19 184 139 65 0 4 36 61 30 109 72 148 73 13 70 131 102 35 38 124 192 197 45 136 33 79 160 119 117 44 112 178 9 53 47 31 26 153 22 52 2 84 98 127 182 180 56 129 82 161 152 113 28 25 137 190 104 88 108 195 115 176 196 114 39 77 188 121 177 54 107 118 111 57 60 49 6 62 80 51 10 187 155 64 101 147
94 183 18 109 88 70 78 135 41 175 3 6 168 65 79 47 51 35 104 57 52 196 115 2 19 77 122 132 67 68 74 112 37 164 125 121 87 110 186 149 154 73 44 162 176 106 90 165 14 16 156 134 138 83 160 48 155 189 30 46 15 28 60 141 4 84 23 93 58 102 133 98 86 72 157 111 7 139 142 39 144 5 131 40 136 172 118 59 97 45 10 117 187 150 85 137 66 75 1 99 127 161 180 108 113 81 190 9 89 159 148 92 146 192 22 64 188 54 82 174 191 151 61 153 91 158 194 100 195 53 11 184 63 128 107 12 76 13 197 0 49 145 56 33 170 25 101 120 116 32 114 62 169 96 178 26 193 143 50 69 140 182 20 173 29 123 179 166 24 126 147 105 95 119 38 8 80 71 181 17 171 43 31 21 129 152 55 34 103 177 185 124 36 163 42 130 167 27
177 92 143 33 38 117 51 171 102 184 158 10 144 140 25 162 0 132 1 14 176 148 12 75 49 9 30 189 151 66 19 23 145 181 131 52 119 134 109 50 179 135 46 22 7 28 99 122 81 32 98 5 54 69 100 185 180 20 190 103 67 186 174 24 72 68 169 147 187 83 173 29 165 154 4 166 118 106 74 11 55 40 155 63 125 161 96 53 62 64 130 94 18 152 182 167 107 149 157 124 160 48 42 47 97 35 112 84 82 116 127 168 136 58 73 60 156 15 192 113 172 34 141 133 80 6 95 3 27 85 91 115 57 108 2 114 196 8 195 170 142 45 31 163 17 61 87 79 164 139 111 65 77 89 39 59 120 150 101 41 16 104 86 56 78 129 183 121 178 71 128 197 44 123 36 194 138 110 37 188 88 159 93 105 126 191 146 70 26 43 76 21 90 175 153 137 193 13
163 153 61 189 147 101 175 64 18 134 65 68 172 109 173 28 9 78 124 41 107 7 106 42 73 30 91 192 135 187 127 104 103 121 72 40 137 63 139 84 55 118 87 160 131 191 151 130 93 108 161 75 167 125 8 49 119 97 141 29 88 46 34 36 10 99 17 83 116 166 162 15 114 69 33 6 52 183 39 129 90 96 128 126 177 26 105 45 122 51 14 155 182 156 142 100 171 13 16 48 120 80 169 115 44 20 111 110 186 70 47 184 60 145 12 165 5 197 180 2 154 164 94 193 62 149 113 181 32 66 143 159 27 195 24 43 196 54 112 170 77 57 23 38 53 152 74 150 157 58 22 117 138 86 95 194 148 0 140 21 81 1 92 35 89 178 19 98 4 3 179 85 176 188 67 31 185 174 136 25 82 144 56 71 190 123 50 79 158 168 146 132 102 37 133 59 11 76
45 189 190 96 61 68 128 100 121 167 59 25 122 53 163 168 105 63 132 191 75 58 196 120 124 95 186 18 11 72 42 4 31 87 157 76 180 0 67 155 84 8 54 26 185 70 39 108 106 136 51 137 172 171 140 64 117 29 81 164 89 131 141 194 146 49 47 115 79 24 28 37 99 110 98 16 193 152 161 175 91 133 2 153 103 92 160 101 151 119 57 9 184 65 197 40 188 1 78 176 19 118 177 33 20 13 41 10 114 3 181 86 5 66 144 126 32 36 93 6 62 127 104 12 14 44 43 147 21 112 174 187 48 71 139 15 125 69 82 88 123 111 135 77 52 83 158 97 90 178 183 159 55 154 102 94 27 116 38 143 109 150 73 156 148 74 165 50 7 129 130 23 60 169 17 162 182 195 85 113 138 179 56 142 166 145 35 192 149 107 134 173 80 22 34 170 30 46
69 191 119 176 100 7 138 174 29 148 67 39 77 56 172 89 57 15 195 19 36 109 12 85 179 115 114 73 187 112 156 197 26 127 42 196 49 190 97 107 135 166 146 76 121 63 91 92 94 145 88 123 130 14 149 23 45 31 171 160 161 37 101 108 122 111 154 139 59 153 5 70 180 80 48 158 6 28 10 24 74 58 186 9 142 116 68 4 81 43 124 87 44 189 178 184 159 32 27 51 20 71 64 18 133 38 16 82 165 152 93 22 60 181 175 95 182 183 144 137 52 163 54 150 78 194 46 134 79 11 75 105 140 62 177 132 164 143 98 1 168 192 113 34 125 173 117 47 72 118 84 25 2 66 90 53 13 35 169 33 65 155 55 157 50 110 41 40 8 0 3 106 151 141 188 17 170 147 120 136 193 86 162 83 103 185 128 30 102 96 61 99 126 129 167 21 131 104
22 48 85 189 105 113 170 17 169 194 69 61 80 79 26 6 53 134 15 9 115 30 103 37 64 167 182 77 109 50 168 47 46 160 71 158 21 154 24 141 179 133 153 143 99 132 148 172 195 187 4 44 142 96 171 2 54 159 42 8 52 119 156 185 107 123 150 43 173 155 114 20 126 137 84 164 74 13 192 81 55 72 14 38 32 93 98 122 83 62 190 184 65 25 33 97 144 191 140 110 63 102 5 174 11 131 19 66 145 95 121 163 91 149 78 75 70 90 117 180 89 175 58 162 94 135 29 82 40 87 0 118 101 67 165 125 127 116 108 31 166 57 92 41 130 146 136 100 59 129 177 60 39 45 188 68 152 128 151 176 86 120 18 27 112 10 1 124 147 76 34 178 73 12 28 197 49 196 111 106 139 157 104 3 181 138 35 193 36 56 186 7 23 161 183 16 88 51
106 92 65 140 7 81 70 184 107 113 95 23 25 154 125 38 169 160 72 116 41 44 194 18 105 112 6 132 146 17 138 96 42 69 73 83 19 1 166 102 144 0 195 193 50 8 80 115 122 97 170 127 165 123 162 109 24 192 9 51 64 21 46 149 100 67 181 126 5 108 135 93 29 98 136 52 91 40 90 159 68 187 79 78 179 58 10 191 89 167 196 129 155 59 56 190 163 148 84 61 118 128 139 178 161 157 171 131 133 85 47 120 2 55 22 134 88 54 57 75 4 183 66 180 189 14 30 15 103 152 60 13 31 48 177 158 186 82 142 124 20 71 11 77 143 36 16 43 62 164 87 39 153 197 28 26 151 3 185 173 156 176 110 175 104 53 49 130 27 121 86 12 35 33 119 37 137 74 174 182 99 145 147 117 34 141 45 32 114 172 101 188 150 76 94 63 111 168
187 22 36 13 148 116 145 44 151 94 74 161 120 90 54 126 2 112 56 111 164 191 76 117 33 176 42 85 96 87 102 4 99 195 160 101 181 35 72 19 84 133 49 184 172 8 197 48 52 69 51 61 129 50 32 179 171 6 147 93 15 113 38 196 128 71 83 17 168 109 163 118 23 45 67 152 169 55 157 107 182 39 124 59 0 104 20 155 63 88 139 150 185 11 180 86 58 127 188 70 135 166 106 175 97 114 138 119 134 25 98 21 121 16 149 30 146 27 43 159 125 123 9 103 137 108 26 130 189 73 192 75 158 178 122 89 144 66 132 29 193 142 46 78 10 1 82 14 153 5 194 79 92 12 131 81 68 53 60 183 190 18 177 95 136 110 154 3 65 40 105 80 186 62 31 167 170 115 143 34 28 174 141 24 162 91 47 7 37 165 41 173 77 64 57 140 100 156
106 165 140 122 3 75 55 111 40 135 149 102 98 108 118 109 44 127 155 94 70 93 183 128 132 83 168 7 114 87 161 88 145 4 110 26 11 22 179 125 181 79 34 20 57 84 50 43 166 16 32 139 156 175 47 157 73 63 66 154 14 46 27 188 2 137 10 136 162 89 85 113 131 96 78 5 126 142 15 51 176 62 170 77 115 146 130 45 95 116 112 105 91 152 28 1 163 121 36 158 37 177 21 49 30 164 17 159 153 192 119 74 194 186 184 56 58 196 31 71 190 195 19 150 8 193 35 117 33 143 151 53 41 59 68 133 67 180 25 80 42 54 124 104 147 141 48 90 189 82 144 169 173 9 76 13 24 72 178 97 172 160 134 92 101 123 129 120 182 167 0 187 81 12 99 65 38 138 174 29 100 107 148 86 103 185 6 64 39 18 61 60 23 197 69 191 171 52
140 158 94 118 170 93 60 52 104 128 42 54 10 149 68 95 174 20 35 150 111 107 30 62 119 46 120 32 106 176 177 113 11 9 137 89 135 40 70 84 66 80 78 5 99 61 124 151 44 86 34 77 166 8 76 48 180 105 47 145 160 133 181 58 172 162 96 134 185 183 126 81 161 131 167 50 7 1 71 19 3 152 31 29 171 2 141 182 87 103 17 18 92 122 28 179 130 143 22 192 67 159 101 156 142 91 121 27 37 148 82 197 138 116 108 193 163 16 57 164 191 36 157 109 190 125 175 51 97 4 100 59 168 79 63 14 155 154 43 49 194 12 72 117 139 38 83 169 23 123 98 115 25 188 186 85 0 132 65 195 147 129 102 21 127 56 39 26 110 144 55 24 178 6 69 196 75 173 73 184 114 146 88 45 13 64 112 53 33 41 165 90 74 153 15 136 187 189
127 24 53 43 136 188 147 174 194 149 68 31 80 33 63 131 92 167 38 179 105 145 61 191 94 135 50 26 34 91 161 62 93 104 40 12 73 84 155 195 3 28 121 64 77 76 124 55 29 14 59 130 148 159 78 41 126 49 138 10 21 2 6 36 184 163 176 196 20 65 166 51 4 56 133 150 120 52 102 182 88 125 164 197 69 143 81 181 169 116 172 82 54 154 134 168 74 42 103 186 152 5 32 110 18 45 96 153 37 86 142 106 97 7 123 66 162 98 44 58 17 137 89 95 118 30 19 177 90 27 165 79 16 111 107 22 39 122 128 157 129 85 158 117 67 160 190 72 57 11 151 140 75 83 173 115 108 25 187 1 70 178 171 141 48 101 193 189 185 13 112 46 192 99 139 47 114 180 100 144 23 9 60 35 87 119 132 109 113 156 183 71 170 146 175 0 8 15
187 40 38 161 35 121 5 158 39 190 104 189 36 74 115 180 105 179 79 32 60 75 111 138 62 78 50 69 100 148 56 68 93 19 170 142 99 137 98 88 95 103 176 51 181 143 151 193 130 55 61 183 167 42 160 165 131 149 11 112 23 186 129 178 172 54 147 82 37 81 114 12 46 113 196 128 66 16 122 192 123 127 195 33 106 136 173 169 52 85 175 164 126 0 159 139 10 188 76 133 4 30 48 150 91 7 8 132 73 2 185 118 107 24 72 21 124 6 156 84 22 26 102 18 57 157 141 145 191 59 44 49 163 70 80 146 67 153 20 174 144 135 17 194 92 15 58 86 71 182 63 101 64 116 134 9 83 108 77 109 125 3 96 152 162 184 171 34 154 1 120 168 119 94 43 31 166 90 65 28 197 140 47 177 155 13 25 97 14 45 53 110 29 87 117 89 41 27
120 56 156 93 187 86 4 182 100 25 97 64 150 73 169 197 144 1 157 115 68 44 189 57 160 163 110 132 3 173 109 14 164 11 20 5 158 143 41 159 149 54 46 16 66 190 186 130 104 114 80 8 71 171 42 85 112 70 61 26 179 118 174 170 103 131 126 27 140 58 133 89 196 180 84 22 45 15 33 162 151 19 29 181 37 13 193 2 183 60 155 105 121 91 175 124 47 52 177 90 59 32 62 153 9 184 139 116 36 72 192 188 28 63 30 69 48 101 94 146 147 0 142 137 43 165 49 185 123 102 12 51 127 161 98 107 7 81 141 88 125 53 176 65 6 95 168 167 99 111 129 82 74 18 77 10 166 17 145 31 152 191 154 50 23 119 21 122 113 136 135 194 35 148 92 34 55 138 106 24 78 83 117 96 76 134 128 39 178 195 40 108 87 172 75 67 38 79
4 192 23 118 18 102 162 47 107 38 62 177 2 100 124 109 36 6 171 80 147 46 25 5 173 153 97 182 99 20 55 149 145 123 17 69 89 39 157 82 12 156 111 57 31 48 114 28 45 13 66 71 1 172 96 53 24 76 196 75 135 37 58 140 65 85 44 22 87 122 104 166 73 113 79 180 92 63 175 68 161 181 193 164 134 10 105 93 137 159 9 42 94 138 27 186 29 152 167 101 110 165 67 64 126 132 112 86 26 178 15 190 0 30 131 81 163 183 61 144 129 191 139 74 50 11 16 158 108 41 148 19 83 103 33 125 142 188 77 170 127 54 72 40 189 34 121 176 136 117 52 120 32 174 106 43 168 197 146 184 21 35 154 49 119 143 88 194 151 141 179 90 14 187 70 95 3 185 133 169 195 91 84 98 155 7 150 51 128 130 116 59 78 115 160 60 56 8
191 167 10 73 46 187 50 123 179 49 57 3 117 131 104 186 32 62 11 106 169 0 108 74 142 156 118 145 137 160 189 16 181 85 60 129 107 2 89 188 140 98 86 111 55 15 76 125 161 171 65 82 176 20 88 155 22 79 66 115 28 143 139 162 34 80 157 35 119 168 178 5 72 52 8 71 127 103 194 146 196 120 96 177 148 172 95 152 99 159 13 77 170 141 18 4 122 130 192 87 112 63 90 25 61 128 105 190 184 154 70 101 174 48 43 36 158 138 183 67 102 151 69 185 68 33 26 14 175 17 54 126 182 37 23 193 144 58 173 39 132 81 133 136 75 29 53 165 51 147 45 56 78 109 24 110 64 21 97 195 163 40 1 114 94 121 93 100 113 31 135 83 149 59 27 197 19 12 180 166 6 38 44 9 30 92 153 116 42 164 91 84 47 124 7 150 134 41
56 87 35 93 74 101 180 178 98 2 147 173 27 170 175 182 32 113 47 12 31 192 64 145 82 53 117 71 149 46 151 33 176 135 161 167 172 95 195 67 100 72 19 133 62 141 84 181 91 174 86 177 49 40 129 66 60 128 134 103 163 191 73 125 68 179 136 89 158 183 77 94 21 102 137 81 3 156 97 153 139 112 126 120 11 130 79 166 107 83 38 96 184 164 48 138 42 9 143 75 70 114 171 88 159 50 22 155 0 5 10 61 127 55 54 196 188 190 186 18 131 99 154 41 28 104 36 85 105 123 148 121 194 146 92 108 16 43 144 45 4 168 17 30 157 90 14 115 76 24 34 111 80 116 197 65 165 160 20 29 185 1 78 39 110 142 58 23 6 109 140 63 44 132 57 52 169 152 124 69 162 122 189 7 8 13 119 187 51 193 25 26 106 150 15 59 37 118
90 126 184 131 112 48 67 129 58 136 147 156 161 188 102 157 116 96 11 55 23 73 49 46 146 74 40 178 120 115 18 17 113 118 166 60 45 25 82 142 171 92 103 109 121 6 7 33 50 32 174 87 21 35 195 122 31 192 65 153 137 135 0 89 117 81 16 71 182 22 148 56 13 155 186 43 91 99 189 4 75 34 38 197 15 101 132 173 151 24 123 127 191 180 98 97 19 138 10 139 80 83 44 141 51 165 124 154 77 134 52 20 143 63 36 133 107 69 70 84 88 150 47 3 169 179 14 181 8 42 76 72 167 140 119 159 85 86 95 2 26 163 27 37 62 78 28 158 114 183 168 110 57 175 152 125 53 30 185 105 190 128 54 106 193 79 194 12 177 172 93 104 61 9 149 187 160 145 59 64 68 41 164 94 196 66 176 100 1 29 39 111 144 5 130 170 108 162
154 20 122 126 128 179 159 115 143 171 76 133 75 32 168 173 162 163 0 55 11 174 57 16 98 91 94 102 8 119 149 15 33 84 118 144 82 157 65 97 111 170 40 112 92 121 123 31 37 51 1 132 156 161 175 35 101 141 78 36 105 67 26 192 27 181 153 79 25 96 87 81 187 140 127 164 17 41 47 186 66 13 167 136 193 39 93 14 190 4 137 129 147 42 134 6 44 69 54 106 178 18 88 194 155 28 73 60 21 7 152 71 114 53 109 9 34 195 135 43 160 61 108 130 185 107 10 19 142 182 146 58 116 131 64 177 189 74 24 62 188 48 104 99 63 86 59 3 72 2 120 80 176 89 95 103 110 45 22 138 113 83 184 30 117 5 183 145 56 85 49 191 29 180 197 148 70 165 38 100 23 77 158 150 196 68 124 50 172 125 46 139 12 90 151 169 166 52
153 76 139 7 126 41 66 151 170 192 187 25 15 107 117 31 176 128 60 177 88 110 42 4 138 24 167 53 124 179 178 132 157 2 181 64 183 129 69 20 33 182 142 51 119 91 172 52 13 121 89 44 8 56 104 150 164 5 22 96 141 80 118 45 17 62 0 174 123 29 72 19 99 85 61 148 163 34 68 116 156 81 195 37 105 98 120 115 36 191 133 149 175 6 3 154 173 171 28 86 161 14 40 158 63 186 146 39 58 93 190 168 38 9 197 152 83 18 27 100 196 1 57 112 11 94 109 73 78 30 165 166 48 145 185 70 23 113 75 12 143 43 162 108 67 140 32 127 49 125 79 135 77 184 50 47 111 59 147 92 46 26 180 134 194 87 131 95 160 137 71 82 188 114 122 189 169 10 97 155 65 21 144 84 101 106 90 54 74 159 130 103 136 102 193 16 35 55
136 152 55 41 186 171 86 84 116 110 61 91 111 67 68 70 7 193 95 75 112 85 149 45 123 66 167 72 58 183 28 2 10 143 104 100 94 88 117 52 63 173 101 128 12 14 180 181 139 51 15 144 114 35 197 30 108 43 64 22 24 92 90 0 13 148 82 169 175 93 127 122 133 157 11 151 150 46 153 160 164 129 189 165 105 17 16 134 5 73 77 125 47 98 78 1 137 118 190 23 25 50 154 33 83 26 135 124 56 142 99 166 54 8 36 162 20 131 27 115 121 176 130 60 38 132 156 49 44 65 141 103 147 170 182 138 140 74 107 185 69 161 53 87 81 159 39 42 21 155 76 3 195 178 102 179 163 145 37 9 97 18 80 120 40 59 62 89 19 106 29 34 146 109 158 187 6 196 71 192 31 48 177 96 4 172 113 188 119 126 32 194 168 174 57 191 79 184
21 88 64 109 192 19 4 98 74 78 170 184 134 177 58 165 42 49 76 55 32 149 152 142 90 133 44 107 166 20 101 31 174 129 122 153 196 175 7 82 3 163 23 67 182 70 54 141 120 150 189 28 84 103 47 124 161 62 51 110 13 15 69 146 50 91 85 138 123 89 185 116 37 25 17 130 132 178 73 108 139 99 63 147 137 66 167 193 65 61 186 121 191 176 187 140 164 53 12 56 6 100 102 27 180 183 131 8 151 173 157 95 16 127 83 194 43 29 38 11 18 136 80 126 68 168 181 154 2 145 46 111 52 197 10 72 158 5 159 34 60 104 77 119 14 113 143 1 30 9 162 172 160 112 188 24 22 0 26 97 105 92 71 144 148 40 96 117 195 171 179 156 48 169 115 87 106 155 36 41 128 57 86 79 94 45 125 118 75 39 114 59 93 135 190 81 33 35
53 52 20 122 176 29 81 191 110 174 144 73 157 126 42 47 91 119 192 26 46 15 57 1 84 31 123 130 72 146 74 185 36 154 177 19 63 38 109 103 105 78 4 165 193 51 114 184 150 27 2 132 8 116 32 99 113 80 96 75 54 158 127 172 94 21 79 149 18 173 77 151 39 183 12 48 129 85 83 66 58 95 190 134 142 189 121 167 195 160 65 153 23 196 13 179 56 55 117 178 34 145 60 139 62 104 115 188 93 45 33 148 9 44 14 181 143 22 155 43 147 49 124 162 41 108 163 10 69 161 135 133 68 59 37 112 187 97 90 92 98 168 70 120 16 25 118 152 11 82 3 197 141 180 164 171 5 128 106 67 50 186 86 24 0 89 137 170 102 131 40 125 182 140 88 166 35 87 138 175 194 17 71 136 76 107 159 28 100 101 156 169 6 61 30 64 111 7
134 17 3 178 181 68 186 97 189 65 57 31 28 44 121 14 41 147 177 37 85 192 175 26 167 59 77 180 58 83 173 34 172 185 111 20 102 101 55 120 5 131 93 38 11 153 27 47 138 91 39 81 70 64 42 115 195 16 174 86 22 194 74 128 45 0 61 127 1 30 50 150 196 21 152 29 170 191 164 122 67 87 84 100 156 137 141 162 15 133 99 75 72 23 6 154 197 7 95 136 36 130 52 9 80 161 132 143 176 157 148 129 96 123 142 76 73 69 12 98 24 2 139 119 18 160 168 104 60 94 144 48 183 90 112 33 32 105 145 187 193 146 51 166 13 109 10 8 124 103 71 56 25 116 92 110 169 118 165 171 113 82 62 179 49 151 63 19 53 149 117 114 163 43 106 88 159 184 89 40 107 54 66 4 79 126 140 46 35 158 78 108 135 182 190 155 125 188
33 75 111 87 178 23 40 123 43 175 97 107 186 179 160 17 83 94 118 129 162 16 157 102 52 11 189 165 73 22 193 51 134 39 152 76 36 158 10 25 29 177 3 128 0 161 72 145 104 156 77 9 151 92 37 60 14 112 27 21 96 19 117 130 141 28 26 108 135 18 119 20 173 114 144 182 7 164 155 95 68 194 170 30 5 74 125 91 146 169 183 49 15 24 150 90 66 32 139 154 4 42 34 103 131 163 69 88 65 192 124 159 142 197 116 105 12 127 1 55 78 190 56 185 98 181 188 148 67 136 85 147 58 59 172 81 106 93 140 120 61 137 71 53 166 121 153 109 57 2 44 48 122 89 143 195 99 149 132 35 82 180 41 31 196 46 110 45 100 174 101 84 47 191 133 113 171 54 126 50 168 187 62 38 6 184 80 86 115 63 79 167 138 13 176 70 8 64
10 44 168 90 5 193 109 63 129 101 194 91 55 174 85 35 158 95 59 76 171 9 119 3 22 107 189 115 126 114 13 98 165 74 131 16 52 75 15 103 77 133 195 73 34 177 86 33 27 145 117 182 125 135 112 7 84 58 153 64 36 167 28 116 4 20 8 37 127 173 121 111 192 154 197 176 130 157 82 40 169 42 68 79 43 186 132 18 183 49 99 110 106 181 175 60 146 156 159 160 45 61 41 11 124 196 26 67 164 92 166 190 89 108 142 120 123 105 47 12 53 1 170 69 141 88 102 179 94 136 104 162 24 23 29 148 147 143 54 155 62 31 188 149 14 38 180 66 100 140 72 50 139 151 172 57 144 2 118 46 137 48 51 161 25 87 80 152 128 70 81 122 0 96 134 21 93 19 30 6 83 185 78 163 39 65 56 191 178 184 32 187 17 71 138 150 97 113
83 55 117 112 81 149 21 68 133 172 135 40 50 80 134 64 191 48 161 153 140 108 24 152 10 125 123 192 92 18 37 94 195 4 82 70 116 186 75 41 69 99 90 47 9 137 12 30 143 33 102 19 15 145 156 3 114 163 57 5 71 42 34 144 182 131 32 67 49 91 27 38 79 189 171 169 35 52 8 89 51 193 29 39 63 14 65 43 17 194 122 150 184 177 97 188 111 28 138 62 45 60 46 109 61 142 173 181 132 174 73 1 162 119 178 88 157 139 87 185 16 176 66 26 31 44 167 136 95 121 141 101 104 124 175 59 72 129 106 93 53 98 7 6 22 126 155 113 179 164 183 148 127 85 84 100 74 160 110 107 2 187 118 25 23 154 36 54 146 166 103 196 11 77 120 190 115 151 197 105 147 165 13 58 76 168 180 96 0 170 159 128 78 56 130 86 20 158
127 113 135 157 4 57 139 85 180 26 154 74 195 53 197 69 97 40 28 66 169 8 115 16 190 29 118 72 136 21 149 111 88 42 90 33 78 1 167 137 179 37 47 2 150 109 20 77 3 94 138 96 39 117 170 106 104 159 45 60 181 107 193 81 79 196 133 71 31 152 12 48 43 98 182 5 52 176 50 142 95 147 155 62 172 174 7 32 63 178 87 36 70 171 56 191 156 183 129 19 168 189 132 89 125 112 126 76 151 146 141 11 93 61 64 166 58 102 184 177 0 44 192 22 175 131 35 134 123 162 67 153 140 6 145 17 91 24 148 194 34 49 73 144 46 103 128 108 186 30 75 65 120 165 15 13 51 110 124 173 55 18 54 164 9 105 25 23 143 14 161 187 27 99 92 122 80 38 84 86 130 160 41 68 114 119 100 10 188 59 83 185 101 82 116 121 163 158
178 85 75 123 104 150 180 179 109 189 11 162 195 173 90 44 117 60 67 95 113 77 171 152 76 151 158 28 34 30 87 176 165 23 43 127 197 86 135 36 143 177 187 167 139 124 22 13 99 50 89 103 129 133 94 48 125 160 110 183 184 2 79 153 10 193 16 114 145 80 121 194 115 93 56 190 58 12 111 71 1 65 61 57 188 81 46 24 59 172 70 74 116 62 106 40 54 66 137 98 174 196 37 154 156 0 47 134 53 169 119 88 130 73 112 122 105 27 186 182 82 21 185 8 9 96 107 42 68 14 163 5 161 39 136 3 102 4 140 64 6 164 166 157 118 41 18 33 155 31 149 128 69 38 32 72 29 141 142 55 168 91 97 15 45 7 19 26 49 92 144 52 191 20 35 78 181 159 84 175 138 63 146 147 126 148 100 25 170 51 108 132 131 101 17 83 120 192
70 5 183 25 72 177 169 103 75 32 53 156 47 93 151 132 17 179 13 134 112 55 193 184 67 10 36 40 188 171 166 136 39 120 107 95 116 99 137 106 181 15 43 37 45 125 79 28 129 152 98 118 68 8 168 74 63 141 85 24 191 51 122 50 172 109 29 190 189 89 97 163 94 18 35 161 2 26 84 105 77 3 155 153 196 73 19 6 83 194 31 145 192 96 76 59 162 22 11 1 186 41 23 115 185 62 140 174 38 143 170 101 48 81 197 180 88 34 21 14 150 87 66 165 158 144 100 69 128 0 173 91 30 147 142 160 4 114 167 138 44 159 49 133 65 121 80 46 57 154 20 52 60 9 176 61 146 86 111 123 42 7 127 148 58 164 149 102 110 64 182 113 195 139 126 178 131 124 108 12 71 54 135 92 27 130 187 117 90 119 16 33 104 56 157 78 82 175
73 30 173 85 90 94 146 188 190 14 45 109 118 24 193 104 153 181 163 116 86 159 129 59 11 79 57 47 140 151 43 143 51 56 168 74 142 135 36 162 178 175 185 32 35 113 134 101 92 121 26 78 20 44 23 103 194 186 81 171 82 84 55 58 132 42 66 167 176 108 65 89 131 156 63 76 184 67 41 29 12 160 34 1 165 91 52 75 10 102 64 137 136 138 150 31 68 16 191 125 2 119 192 9 114 50 133 124 127 111 106 88 155 115 15 62 0 4 126 177 54 172 117 107 19 145 53 13 149 189 100 97 40 71 183 48 123 174 18 112 5 144 72 179 169 83 46 27 21 8 196 154 166 158 99 3 141 38 98 28 152 17 80 37 6 161 195 93 139 96 187 164 110 180 170 49 105 147 157 39 60 69 87 130 120 25 122 70 33 197 7 61 128 77 182 148 95 22
159 28 173 63 75 90 150 88 128 192 48 121 170 112 95 103 26 30 125 16 153 108 49 107 40 64 61 13 118 55 99 174 0 185 186 7 161 81 65 156 38 6 110 91 145 182 54 167 52 166 180 184 56 72 19 122 5 70 85 176 106 97 140 195 111 89 162 194 1 67 148 178 131 160 196 119 78 45 4 42 77 134 149 143 116 124 154 8 80 32 94 169 93 23 190 71 179 133 9 76 188 39 136 157 151 3 96 21 120 142 114 129 158 46 31 20 51 33 197 138 44 113 115 57 87 34 86 47 27 126 165 101 35 139 74 141 15 18 43 41 147 117 50 123 163 177 100 152 62 68 73 84 187 130 193 10 132 137 37 144 105 83 53 17 146 171 59 98 155 2 69 109 60 58 11 183 127 175 172 191 181 102 92 66 79 14 104 36 24 25 82 135 22 164 189 29 12 168
194 71 53 67 169 132 174 98 186 133 155 175 161 58 24 42 65 166 193 51 176 117 34 14 16 172 138 80 184 30 177 20 3 116 96 129 41 181 26 139 170 37 83 159 23 75 48 52 28 89 38 57 0 131 106 103 115 127 143 21 110 190 64 144 73 9 31 95 86 157 25 60 79 189 183 6 111 74 78 39 182 185 47 92 179 140 163 10 142 94 36 124 12 63 120 126 147 93 1 81 153 13 178 35 141 165 113 122 15 121 145 62 97 82 118 54 149 90 49 107 137 180 119 156 32 66 112 11 134 69 43 102 171 17 56 196 136 77 128 152 192 146 195 154 108 158 167 160 91 7 33 46 19 8 109 99 22 59 148 151 55 168 29 2 27 130 84 187 72 44 45 68 87 70 4 188 5 197 125 61 100 164 76 104 88 191 135 40 101 114 105 123 18 50 162 150 85 173
91 179 155 140 161 36 34 178 23 88 22 109 45 197 35 166 163 158 111 86 14 77 160 134 170 83 187 174 81 107 117 144 183 17 28 11 68 106 72 192 182 24 184 80 99 63 51 191 176 168 194 152 171 143 148 185 159 31 82 95 38 104 67 147 110 76 100 4 131 186 21 116 5 92 56 189 180 141 167 0 55 112 7 175 119 137 30 118 114 12 16 108 58 142 124 33 89 20 165 70 71 41 129 101 25 61 65 59 57 40 120 10 46 173 157 128 145 54 98 48 26 169 29 43 123 156 127 139 19 196 153 75 1 122 93 181 32 94 9 3 103 85 74 15 84 126 49 47 79 154 150 73 39 102 97 87 96 193 188 190 6 78 44 2 136 66 60 172 8 121 64 62 177 53 164 50 42 27 113 130 162 135 146 149 115 13 37 69 52 133 90 138 105 18 132 195 125 151
123 149 157 56 124 137 108 6 47 22 83 140 193 57 49 101 111 114 162 129 4 182 196 143 148 93 136 178 16 141 39 7 109 13 119 0 151 69 87 88 102 131 121 127 59 147 86 63 45 84 187 85 189 150 168 91 51 20 184 176 28 112 105 133 146 80 181 155 21 10 161 64 18 71 31 135 46 153 76 183 171 160 25 60 3 43 179 173 79 17 40 36 166 125 145 132 1 68 33 156 154 100 53 113 158 126 23 172 62 44 32 90 37 5 195 197 78 130 8 65 159 194 52 192 167 97 175 70 2 19 30 134 98 94 103 12 34 82 180 188 41 174 26 9 42 144 177 118 95 81 139 15 29 163 110 120 14 106 48 186 75 104 11 122 92 58 66 54 96 164 67 74 50 99 107 115 72 152 170 61 89 165 116 55 128 24 38 191 190 27 185 142 77 73 35 169 138 117
114 52 43 179 69 156 33 90 113 152 103 45 21 62 27 81 65 143 56 63 58 54 115 153 185 9 107 82 30 73 127 78 110 165 72 77 180 89 112 19 144 12 60 86 166 111 175 37 147 184 164 174 44 135 176 40 4 76 192 88 99 170 129 190 131 29 139 158 48 75 133 194 142 59 178 84 138 92 161 146 83 141 187 108 22 101 168 173 140 150 7 151 1 159 70 106 61 18 25 17 100 14 97 32 6 193 128 197 80 74 105 24 10 104 91 41 189 85 50 134 157 87 11 20 130 38 123 125 186 36 47 118 181 121 122 196 102 119 31 120 145 51 136 183 117 3 188 132 28 160 169 57 182 162 155 191 149 96 124 34 126 13 171 2 68 55 93 39 53 172 116 137 49 35 98 67 46 26 195 23 42 64 109 95 167 16 0 71 163 154 15 148 94 66 5 79 177 8
3 95 169 43 58 167 15 12 196 120 105 28 26 138 108 151 183 106 2 87 7 111 18 140 93 22 50 53 11 155 178 160 164 21 161 44 125 19 14 136 177 144 128 13 90 77 153 24 149 16 76 187 71 101 38 193 79 103 42 80 139 99 59 156 70 134 82 84 195 107 94 67 45 170 123 112 148 185 20 8 51 118 122 27 75 132 86 0 57 54 56 41 66 60 158 109 98 23 130 129 186 49 30 191 137 194 126 89 184 72 46 171 172 1 85 36 131 25 29 188 9 145 190 176 159 189 173 152 17 31 180 6 78 124 91 168 88 68 4 113 197 83 181 162 104 40 74 121 47 146 96 55 175 33 73 150 34 157 92 192 119 32 141 62 52 39 100 147 182 114 69 37 127 154 102 116 10 133 135 163 174 143 142 117 165 166 115 97 64 61 179 110 5 63 35 81 48 65
2 32 194 19 1 111 106 187 78 119 196 130 189 49 146 163 185 37 165 192 4 24 152 77 97 127 122 179 133 164 29 52 123 157 124 169 56 154 11 158 162 103 84 21 81 7 137 67 139 173 47 79 90 68 110 25 132 76 96 126 80 197 113 92 9 167 58 193 65 177 93 151 160 30 155 190 105 57 161 85 184 45 156 104 136 129 26 91 3 16 95 51 109 170 36 175 183 6 72 23 112 166 5 148 94 18 135 17 46 153 53 178 114 28 33 172 98 195 145 48 35 149 74 75 38 100 182 61 43 128 168 99 143 150 141 71 131 55 15 42 62 191 120 140 147 88 0 101 64 22 159 121 40 115 118 39 14 117 31 86 176 60 142 13 8 12 41 134 125 10 180 181 54 171 174 89 63 34 188 102 83 27 66 87 82 144 108 20 50 186 44 70 107 116 69 73 138 59
14 52 126 128 75 153 60 48 116 47 63 137 195 27 159 127 192 165 21 151 154 94 168 31 9 114 3 177 155 130 108 87 79 20 74 92 182 49 134 39 131 93 140 163 189 97 178 111 43 106 139 187 24 101 190 6 124 2 36 186 107 32 142 96 119 164 64 72 172 13 62 89 98 58 67 161 8 179 148 7 135 68 143 83 145 158 26 86 174 147 35 170 50 125 28 129 95 169 69 133 71 65 45 120 19 40 122 4 156 118 167 37 80 85 16 121 88 59 23 33 18 152 173 73 105 132 44 10 146 17 82 55 34 115 166 138 66 84 22 100 144 175 191 103 11 51 194 193 70 54 188 29 110 53 0 123 197 183 113 41 61 180 5 171 149 12 76 46 38 162 78 185 109 57 157 160 184 104 1 117 42 25 77 56 102 90 181 99 150 141 136 15 30 196 91 112 176 81
94 171 119 162 197 33 164 175 36 22 172 26 120 11 8 67 150 32 144 0 114 148 101 133 147 6 161 185 122 84 140 19 112 56 155 125 111 81 57 1 46 145 178 14 142 167 42 187 51 126 136 25 5 177 138 21 182 107 12 152 183 143 174 127 10 157 109 149 123 62 48 83 87 106 54 113 180 74 77 92 93 23 73 110 153 181 135 17 20 129 39 176 134 165 98 76 91 66 137 28 43 194 130 89 99 95 124 53 104 184 80 35 13 49 16 7 38 85 139 188 131 31 70 116 60 37 192 65 146 195 27 24 105 88 63 41 50 191 186 190 9 166 158 58 4 72 160 29 108 47 141 173 15 2 156 117 69 132 79 128 44 196 30 159 82 100 61 3 121 75 96 52 193 118 64 40 169 55 151 189 103 179 168 71 86 170 78 97 45 68 102 34 163 18 59 90 154 115
60 86 173 132 78 2 61 99 43 101 119 81 66 179 116 131 180 5 172 59 135 197 175 96 194 29 153 164 25 0 136 53 93 157 126 33 42 75 176 106 178 7 171 40 84 144 187 91 190 188 104 11 138 58 48 52 183 41 68 186 37 107 22 57 71 51 117 169 4 160 14 1 19 92 79 141 161 159 54 192 145 166 139 85 121 30 38 122 77 120 45 193 6 108 125 127 102 100 21 174 9 115 168 94 98 18 70 3 44 46 170 162 56 36 12 32 105 16 50 31 87 8 134 140 154 152 191 15 196 123 97 69 26 150 118 111 147 80 28 195 17 128 49 167 89 163 148 35 112 146 82 74 181 184 62 95 27 67 114 24 65 143 129 158 109 133 177 76 47 10 165 142 23 185 83 155 124 156 182 39 20 88 189 151 72 149 64 110 63 113 137 34 73 130 13 55 103 90
125 55 15 65 90 51 121 82 195 16 2 108 52 123 10 105 188 128 91 49 47 102 135 157 76 32 169 149 156 22 43 148 189 190 18 72 140 79 36 144 166 155 56 86 23 78 73 118 180 192 122 127 162 150 42 99 12 182 69 13 6 178 164 41 194 66 61 171 175 81 186 7 77 126 106 181 24 50 95 107 5 109 29 39 147 145 38 165 104 70 17 45 114 92 196 129 153 93 143 80 168 4 187 138 176 158 53 20 27 131 35 8 179 130 64 193 161 14 28 120 103 40 184 132 57 63 88 3 68 174 30 46 191 137 133 159 84 142 71 98 197 141 48 60 33 25 9 177 139 85 160 1 44 151 134 124 117 37 74 21 58 26 183 59 19 115 154 113 112 173 167 100 185 111 146 116 119 83 110 0 170 31 11 96 136 101 62 75 152 97 54 163 172 94 87 34 89 67
169 68 80 22 105 9 122 17 149 49 113 10 129 67 101 50 81 59 61 125 137 103 42 55 0 140 21 135 2 60 96 175 196 39 82 118 4 97 89 163 120 164 112 91 172 121 197 150 134 40 138 53 173 57 69 38 108 115 93 85 106 30 5 192 32 155 71 111 70 83 181 131 29 148 183 161 74 72 56 176 110 152 78 179 186 63 92 147 79 102 45 185 156 116 75 119 143 44 142 33 139 43 95 28 65 136 87 52 141 130 8 11 174 15 37 34 195 117 188 128 62 182 109 165 160 162 104 133 171 23 178 187 190 157 166 25 154 127 146 66 27 77 167 177 24 151 54 1 180 158 64 51 98 189 16 170 7 6 86 159 191 126 145 73 99 36 18 132 88 35 3 184 19 124 46 94 84 193 26 76 144 194 31 12 20 90 123 114 14 58 153 13 47 41 168 107 48 100
55 30 185 184 150 167 50 66 121 133 17 153 87 100 49 81 189 51 191 111 77 155 119 186 76 4 80 65 86 142 194 13 108 95 52 173 176 20 163 79 171 11 115 114 3 27 97 135 89 187 129 105 136 61 94 71 54 130 64 169 16 38 168 1 48 46 143 92 57 2 118 12 9 164 90 23 193 117 25 63 104 21 174 109 145 159 69 74 31 165 137 158 83 73 36 60 0 127 85 72 148 78 98 183 175 123 131 58 32 125 179 138 124 156 132 102 59 62 170 35 161 68 172 162 178 112 147 197 99 22 56 154 7 70 5 160 110 33 19 103 188 8 192 134 106 122 24 29 93 120 116 34 82 157 96 107 75 196 41 44 152 40 113 88 39 146 140 144 28 181 190 141 6 10 53 43 101 18 151 195 91 47 15 166 180 177 45 14 128 67 26 37 149 42 126 84 182 139
79 175 82 147 162 38 52 65 197 116 109 16 62 12 1 103 34 171 146 106 167 84 42 161 80 128 110 188 83 115 60 75 9 169 99 124 185 183 33 71 182 154 176 125 44 105 13 195 143 163 180 112 165 81 66 191 61 59 134 102 120 135 130 67 70 54 93 192 6 145 158 174 7 101 15 77 22 46 159 98 151 122 139 118 69 144 26 186 148 189 91 92 58 8 155 53 97 36 140 190 32 3 5 78 104 72 29 156 95 40 64 27 141 178 96 30 177 63 123 149 89 14 4 49 74 85 119 23 73 17 168 136 76 10 41 100 196 152 137 51 57 117 126 56 132 150 194 108 181 48 121 35 172 25 47 45 0 87 142 133 20 19 113 11 39 2 187 184 160 114 28 43 164 86 107 131 193 21 170 88 37 127 129 153 111 166 18 50 157 173 31 68 138 179 24 90 55 94
8 46 66 81 74 73 68 77 65 85 134 94 72 45 56 189 61 59 48 86 47 172 99 180 118 185 80 176 6 92 187 152 36 12 181 150 173 84 54 196 16 121 148 135 1 131 91 179 161 29 155 63 123 52 140 183 124 28 7 188 186 177 146 175 70 143 112 158 14 2 82 40 101 78 167 34 33 75 5 64 89 0 53 20 127 88 162 164 69 125 178 39 192 37 122 4 174 160 157 24 144 42 19 154 129 83 184 197 136 128 108 130 49 96 194 60 165 139 30 93 149 23 190 195 193 51 159 105 119 50 25 31 95 117 170 55 62 114 79 171 35 41 98 44 67 169 137 120 97 100 13 113 103 15 76 38 163 191 145 182 116 166 18 110 109 138 106 21 3 132 26 147 58 57 156 168 115 151 104 32 17 90 27 10 153 11 102 142 87 71 126 141 111 9 107 133 22 43
155 185 54 38 40 154 5 144 97 177 30 66 47 79 75 143 51 121 127 31 27 110 63 186 163 26 105 165 168 135 83 37 34 44 12 169 137 89 138 130 96 76 43 125 166 92 117 100 193 101 0 88 132 70 182 24 131 8 194 136 115 183 85 134 65 191 153 29 18 62 53 184 80 77 148 86 103 59 133 111 16 141 116 6 171 46 32 52 55 107 114 68 158 94 161 64 71 160 41 109 126 69 48 1 58 9 122 42 150 139 106 25 119 147 78 72 95 140 181 189 2 176 113 195 120 73 23 151 33 93 123 173 21 164 128 28 188 13 102 7 172 180 175 129 197 108 60 91 4 39 170 67 10 112 99 19 192 167 174 11 98 36 82 179 87 81 145 187 45 3 146 190 22 162 50 149 196 56 118 57 90 104 124 84 159 142 20 61 152 14 178 15 157 156 35 17 49 74
155 126 33 106 194 137 181 70 103 169 22 188 172 177 164 7 3 40 13 81 109 24 48 9 105 166 94 85 59 142 19 11 6 124 193 189 100 192 197 1 21 160 98 183 34 133 38 114 163 55 102 118 180 74 83 88 170 149 127 158 69 28 0 25 129 45 122 35 132 26 148 191 167 153 76 162 140 14 151 131 43 65 136 67 119 84 61 80 174 57 51 161 175 72 32 104 128 42 96 82 93 41 60 15 186 145 50 154 187 178 144 135 115 185 44 110 125 37 10 168 89 97 30 179 143 53 99 165 113 29 52 182 157 23 116 152 62 49 150 20 27 63 66 58 107 16 111 56 2 8 147 79 64 139 71 12 46 4 123 39 90 87 159 5 31 120 138 184 92 18 54 190 156 121 196 17 171 173 141 68 117 47 130 195 176 36 78 86 134 91 75 108 77 101 95 112 146 73
