epsilon,plal-mean,plal-std,random-mean,random-std,queries-mean,queries-std
0.01,0.066666666666662877,0.023570226039550245,6.0166666666666657,0.81785627642568637,59.650000000000006,0.81785627642568637
0.05,1.150000000000001,0.38944404818493533,10.950000000000003,0.22730302828309615,32.0,0.22730302828309615
0.1,2.6500000000000008,0.71763500472036268,12.766666666666671,0.55727511657668038,25.883333333333326,0.55727511657668038
0.15,2.0,0.35355339059327379,12.966666666666669,0.30912061651652578,24.516666666666666,0.30912061651652578
0.2,6.3333333333333384,2.9241332998951259,14.833333333333329,0.95771719323724158,17.383333333333336,0.95771719323724158
0.25,5.9499999999999984,1.2328828005937957,15.233333333333329,1.1876681167546603,17.083333333333332,1.1876681167546603
0.3,16.949999999999999,18.745843983845241,16.083333333333329,3.5119636798931873,15.25,3.5119636798931873
