lambda,A-mean,A-std,B-mean,B-std,C-mean,C-std
0.0,0.0,0.0,0.0,0.0,0.0,0.0
0.050000000000000003,0.0,0.0,0.0,0.0,0.0,0.0
0.10000000000000001,0.0,0.0,0.0,0.0,0.0,0.0
0.15000000000000002,0.080000000000000002,0.16,0.0,0.0,0.0,0.0
0.20000000000000001,0.16,0.19595917942265428,0.0,0.0,0.0,0.0
0.25,0.50000000000000011,0.34928498393145962,0.0,0.0,0.0,0.0
0.30000000000000004,1.1400000000000001,0.74859869088851616,0.13999999999999999,0.31048349392520047,0.039215686274509803,0.11764705882352937
0.35000000000000003,1.8800000000000001,1.1737120600896969,0.27999999999999997,0.62096698785040094,0.039215686274509803,0.11764705882352937
0.40000000000000002,3.3200000000000003,1.4034243834279065,0.55999999999999994,1.2059850745345067,0.039215686274509803,0.11764705882352937
0.45000000000000001,5.7400000000000002,1.5596153371905521,1.02,2.1586106642931235,0.039215686274509803,0.11764705882352937
0.5,8.3200000000000003,1.9883661634618506,1.6200000000000003,2.9965980711466798,0.039215686274509803,0.11764705882352937
0.55000000000000004,12.1,3.3790531218079427,2.3800000000000003,4.2749970760223919,0.039215686274509803,0.11764705882352937
0.60000000000000009,15.859999999999999,4.3580270765565468,3.4400000000000004,5.949655452208976,0.15686274509803921,0.26012743453767845
0.65000000000000002,20.060000000000002,4.8448322984392354,4.4000000000000004,6.7177377144392887,0.3529411764705882,0.64318507713163631
0.70000000000000007,24.940000000000001,4.916136694600751,5.3799999999999999,7.313795184444257,0.94117647058823528,1.8221584557629713
0.75,30.459999999999997,5.1660816873138966,6.5200000000000005,7.7150243032669712,1.9215686274509807,3.3948193110320233
0.80000000000000004,35.339999999999996,5.3081446852925929,8.4000000000000004,8.2151080333736335,3.2745098039215685,5.9253656181347685
0.85000000000000009,40.82,6.0242509907871531,10.220000000000001,8.2089950663890647,4.2941176470588243,7.1585815824765131
0.90000000000000002,46.219999999999992,6.0948830997813257,12.820000000000002,8.1924111224962353,5.5294117647058822,8.2882517615351965
0.95000000000000007,51.520000000000003,5.9148626357676308,16.080000000000002,8.0583869353611952,6.9411764705882346,8.8926270494191701
1.0,56.399999999999999,5.9712645226953391,20.239999999999998,8.306527553677288,8.2941176470588225,9.5504689482701508
1.05,60.399999999999999,5.3073533894022926,25.460000000000001,8.6107142560881673,9.470588235294116,9.9645855028958099
1.1000000000000001,65.240000000000009,4.9998399974399188,31.780000000000001,8.8065657324521229,11.019607843137255,10.339042958809765
1.1500000000000001,69.280000000000001,4.7389450302783649,38.080000000000005,8.2589103397482173,12.588235294117647,10.399109771735185
1.2000000000000002,72.740000000000009,4.1608172274205906,45.219999999999999,7.9591205544331345,14.490196078431373,10.657525639140763
1.25,75.439999999999984,3.7489198444351928,52.799999999999997,8.4621510267780025,16.666666666666664,11.541010572252114
1.3,77.940000000000012,3.2717579372563597,60.0,8.8217912013377422,18.823529411764703,12.679165811469638
1.3500000000000001,80.400000000000006,2.5298221281347022,66.02000000000001,8.4529048261529578,21.96078431372549,14.086840025331073
1.4000000000000001,82.500000000000014,1.7646529403823261,71.02000000000001,8.2938290312737912,25.313725490196081,15.674370483125996
1.4500000000000002,84.47999999999999,1.6809521111560544,75.139999999999986,7.9443313123257902,29.960784313725487,18.283049422724091
1.5,86.159999999999997,1.4554724318928214,78.539999999999992,6.5702663568534261,35.078431372549019,21.168744051578997
1.55,87.500000000000014,1.2969194269498774,81.359999999999985,5.5236220001010201,40.0,23.067025352065855
1.6000000000000001,88.740000000000009,1.1101351269102326,83.719999999999999,4.7448498395628906,45.098039215686278,24.882036185193144
1.6500000000000001,89.420000000000002,0.97754795278799633,85.640000000000015,4.1151427678757404,49.607843137254903,25.574070153303222
1.7000000000000002,90.38000000000001,0.95686989711245773,87.600000000000009,3.4571664698131035,53.82352941176471,25.286402532152923
1.75,91.100000000000009,0.91323600454646947,89.320000000000022,2.7249954128401792,58.156862745098032,24.55857109181051
1.8,91.599999999999994,1.0881176406988333,90.719999999999985,2.0123617964968465,63.235294117647058,22.832699795048239
1.8500000000000001,92.320000000000007,1.0888526071052951,91.460000000000008,1.6877203559831824,69.313725490196077,20.275922505490932
1.9000000000000001,93.0,1.0039920318408866,92.140000000000015,1.2993844696624615,75.137254901960787,17.517344620485844
1.9500000000000002,93.700000000000003,0.85906926379657866,92.960000000000008,1.4444376068214222,81.039215686274503,15.364105824593628
2.0,94.080000000000013,1.0007996802557424,93.760000000000005,1.2862348152650784,85.803921568627445,13.469660612522206
2.0500000000000003,94.659999999999997,1.11013512691023,94.439999999999998,1.1447270417003315,89.509803921568619,11.849125223009398
2.1000000000000001,95.179999999999978,0.98974744253269131,94.979999999999976,1.0176443386566838,92.294117647058812,10.248751576714088
2.1499999999999999,95.399999999999991,0.98386991009990921,95.299999999999997,0.98081598681913595,94.117647058823536,8.7772205255301063
2.2000000000000002,95.779999999999987,0.95686989711245585,95.839999999999989,0.70880180586677499,95.274509803921575,7.969786275165637
2.25,96.159999999999997,0.83330666623998895,96.219999999999999,0.67201190465645644,95.82352941176471,7.6546217001090344
2.3000000000000003,96.439999999999998,0.88904443083571849,96.47999999999999,0.51536394906900396,96.019607843137251,7.6027120355857223
2.3500000000000001,96.799999999999983,0.87635609200826625,96.840000000000003,0.53516352641038833,96.294117647058812,7.4383019067305192
2.4000000000000004,97.319999999999993,0.76000000000000223,97.080000000000013,0.51536394906900507,96.627450980392183,6.8362513813394745
2.4500000000000002,97.519999999999996,0.75471849056453066,97.439999999999998,0.52000000000000224,97.0,6.3524872749977286
2.5,97.679999999999993,0.8059776671843949,97.719999999999999,0.44899888641287161,97.509803921568647,4.9573730811998953
2.5500000000000003,97.780000000000001,0.77175125526299015,97.919999999999987,0.46647615158762357,98.294117647058826,3.2076058208395737
2.6000000000000001,97.920000000000002,0.74939975980780826,98.159999999999997,0.51224993899462989,98.686274509803937,2.296797496286203
2.6500000000000004,98.100000000000009,0.67082039324994081,98.439999999999998,0.48826222462934932,99.078431372549019,1.2859217593780057
2.7000000000000002,98.240000000000009,0.605309838016865,98.499999999999986,0.50000000000000144,99.333333333333329,0.63958848746275176
2.75,98.460000000000008,0.59363288318623564,98.599999999999994,0.52915026221292016,99.470588235294116,0.51168581767450594
2.8000000000000003,98.580000000000013,0.59632206063502535,98.739999999999981,0.54442630355264809,99.529411764705884,0.49759127609605847
2.8500000000000001,98.780000000000001,0.55461698495448342,98.840000000000003,0.55713553108736458,99.588235294117652,0.48388088938247181
2.9000000000000004,98.88000000000001,0.45782092569038474,99.0,0.49799598391954941,99.64705882352942,0.45395438834471485
2.9500000000000002,98.960000000000008,0.42708313008125204,99.040000000000006,0.44542114902640123,99.705882352941174,0.39460023132349187
3.0,99.060000000000016,0.36932370625238836,99.200000000000003,0.37947331922020566,99.705882352941174,0.39460023132349187
3.0500000000000003,99.120000000000005,0.37094473981982978,99.340000000000003,0.42941821107167777,99.784313725490208,0.2695632761738731
3.1000000000000001,99.180000000000007,0.34000000000000136,99.420000000000002,0.36276714294434032,99.784313725490208,0.2695632761738731
3.1500000000000004,99.240000000000009,0.33226495451672311,99.420000000000002,0.36276714294434032,99.784313725490208,0.2695632761738731
3.2000000000000002,99.319999999999993,0.29933259094191461,99.47999999999999,0.32496153618543738,99.803921568627445,0.23200312874900611
3.25,99.400000000000006,0.25298221281346833,99.560000000000002,0.30724582991474297,99.82352941176471,0.20471189233157999
3.3000000000000003,99.47999999999999,0.27129319932500873,99.620000000000005,0.30265491900843045,99.82352941176471,0.20471189233157999
3.3500000000000001,99.519999999999996,0.2993325909419135,99.620000000000005,0.30265491900843045,99.862745098039227,0.17647058823529438
3.4000000000000004,99.599999999999994,0.21908902300206309,99.640000000000015,0.30724582991474347,99.862745098039227,0.17647058823529438
3.4500000000000002,99.659999999999997,0.15620499351813061,99.640000000000015,0.30724582991474347,99.882352941176464,0.17970885078258231
3.5,99.699999999999989,0.16124515496597067,99.659999999999997,0.31048349392519953,99.901960784313729,0.18077538151554731
3.5500000000000003,99.739999999999981,0.12806248474865881,99.679999999999993,0.299332590941915,99.901960784313729,0.18077538151554731
3.6000000000000001,99.739999999999981,0.12806248474865881,99.719999999999999,0.28565713714171453,99.921568627450981,0.13006371726883748
3.6500000000000004,99.759999999999991,0.14966629547095978,99.779999999999987,0.28913664589601951,99.921568627450981,0.13006371726883748
3.7000000000000002,99.799999999999983,0.12649110640673697,99.819999999999979,0.18867962264113161,99.960784313725497,0.11764705882352901
3.75,99.839999999999989,0.12000000000000172,99.839999999999989,0.19595917942265387,99.960784313725497,0.11764705882352901
3.8000000000000003,99.879999999999995,0.13266499161421788,99.839999999999989,0.19595917942265387,99.960784313725497,0.11764705882352901
3.8500000000000001,99.879999999999995,0.13266499161421788,99.839999999999989,0.19595917942265387,99.960784313725497,0.11764705882352901
3.9000000000000004,99.879999999999995,0.13266499161421788,99.879999999999981,0.13266499161421788,99.960784313725497,0.11764705882352901
3.9500000000000002,99.900000000000006,0.10000000000000142,99.919999999999987,0.13266499161421791,99.960784313725497,0.11764705882352901
4.0,99.919999999999987,0.09797958971132853,99.939999999999998,0.12806248474865881,99.960784313725497,0.11764705882352901
4.0499999999999998,99.919999999999987,0.09797958971132853,99.960000000000008,0.12000000000000166,99.960784313725497,0.11764705882352901
4.1000000000000005,99.960000000000008,0.08000000000000114,99.960000000000008,0.12000000000000166,99.960784313725497,0.11764705882352901
4.1500000000000004,99.97999999999999,0.060000000000000837,99.97999999999999,0.060000000000000837,99.960784313725497,0.11764705882352901
4.2000000000000002,99.97999999999999,0.060000000000000837,99.97999999999999,0.060000000000000837,99.960784313725497,0.11764705882352901
4.25,99.97999999999999,0.060000000000000837,99.97999999999999,0.060000000000000837,99.960784313725497,0.11764705882352901
4.2999999999999998,99.97999999999999,0.060000000000000837,99.97999999999999,0.060000000000000837,99.980392156862735,0.058823529411762353
4.3500000000000005,100.0,0.0,99.97999999999999,0.060000000000000837,99.980392156862735,0.058823529411762353
4.4000000000000004,100.0,0.0,99.97999999999999,0.060000000000000837,99.980392156862735,0.058823529411762353
4.4500000000000002,100.0,0.0,99.97999999999999,0.060000000000000837,99.980392156862735,0.058823529411762353
4.5,100.0,0.0,99.97999999999999,0.060000000000000837,99.980392156862735,0.058823529411762353
4.5499999999999998,100.0,0.0,99.97999999999999,0.060000000000000837,99.980392156862735,0.058823529411762353
4.6000000000000005,100.0,0.0,99.97999999999999,0.060000000000000837,99.980392156862735,0.058823529411762353
4.6500000000000004,100.0,0.0,99.97999999999999,0.060000000000000837,99.980392156862735,0.058823529411762353
4.7000000000000002,100.0,0.0,99.97999999999999,0.060000000000000837,99.980392156862735,0.058823529411762353
4.75,100.0,0.0,99.97999999999999,0.060000000000000837,99.980392156862735,0.058823529411762353
4.8000000000000007,100.0,0.0,99.97999999999999,0.060000000000000837,99.980392156862735,0.058823529411762353
4.8500000000000005,100.0,0.0,99.97999999999999,0.060000000000000837,99.980392156862735,0.058823529411762353
4.9000000000000004,100.0,0.0,99.97999999999999,0.060000000000000837,99.980392156862735,0.058823529411762353
4.9500000000000002,100.0,0.0,99.97999999999999,0.060000000000000837,99.980392156862735,0.058823529411762353
5.0,100.0,0.0,99.97999999999999,0.060000000000000837,99.980392156862735,0.058823529411762353
5.0500000000000007,100.0,0.0,99.97999999999999,0.060000000000000837,99.980392156862735,0.058823529411762353
5.1000000000000005,100.0,0.0,99.97999999999999,0.060000000000000837,99.980392156862735,0.058823529411762353
5.1500000000000004,100.0,0.0,100.0,0.0,99.980392156862735,0.058823529411762353
5.2000000000000002,100.0,0.0,100.0,0.0,99.980392156862735,0.058823529411762353
5.25,100.0,0.0,100.0,0.0,99.980392156862735,0.058823529411762353
5.3000000000000007,100.0,0.0,100.0,0.0,99.980392156862735,0.058823529411762353
5.3500000000000005,100.0,0.0,100.0,0.0,99.980392156862735,0.058823529411762353
5.4000000000000004,100.0,0.0,100.0,0.0,99.980392156862735,0.058823529411762353
5.4500000000000002,100.0,0.0,100.0,0.0,99.980392156862735,0.058823529411762353
5.5,100.0,0.0,100.0,0.0,99.980392156862735,0.058823529411762353
5.5500000000000007,100.0,0.0,100.0,0.0,99.980392156862735,0.058823529411762353
5.6000000000000005,100.0,0.0,100.0,0.0,100.0,0.0
5.6500000000000004,100.0,0.0,100.0,0.0,100.0,0.0
5.7000000000000002,100.0,0.0,100.0,0.0,100.0,0.0
5.75,100.0,0.0,100.0,0.0,100.0,0.0
5.8000000000000007,100.0,0.0,100.0,0.0,100.0,0.0
5.8500000000000005,100.0,0.0,100.0,0.0,100.0,0.0
5.9000000000000004,100.0,0.0,100.0,0.0,100.0,0.0
5.9500000000000002,100.0,0.0,100.0,0.0,100.0,0.0
6.0,100.0,0.0,100.0,0.0,100.0,0.0
6.0500000000000007,100.0,0.0,100.0,0.0,100.0,0.0
6.1000000000000005,100.0,0.0,100.0,0.0,100.0,0.0
6.1500000000000004,100.0,0.0,100.0,0.0,100.0,0.0
6.2000000000000002,100.0,0.0,100.0,0.0,100.0,0.0
6.25,100.0,0.0,100.0,0.0,100.0,0.0
6.3000000000000007,100.0,0.0,100.0,0.0,100.0,0.0
6.3500000000000005,100.0,0.0,100.0,0.0,100.0,0.0
6.4000000000000004,100.0,0.0,100.0,0.0,100.0,0.0
6.4500000000000002,100.0,0.0,100.0,0.0,100.0,0.0
6.5,100.0,0.0,100.0,0.0,100.0,0.0
6.5500000000000007,100.0,0.0,100.0,0.0,100.0,0.0
6.6000000000000005,100.0,0.0,100.0,0.0,100.0,0.0
6.6500000000000004,100.0,0.0,100.0,0.0,100.0,0.0
6.7000000000000002,100.0,0.0,100.0,0.0,100.0,0.0
6.75,100.0,0.0,100.0,0.0,100.0,0.0
6.8000000000000007,100.0,0.0,100.0,0.0,100.0,0.0
6.8500000000000005,100.0,0.0,100.0,0.0,100.0,0.0
6.9000000000000004,100.0,0.0,100.0,0.0,100.0,0.0
6.9500000000000002,100.0,0.0,100.0,0.0,100.0,0.0
7.0,100.0,0.0,100.0,0.0,100.0,0.0
7.0500000000000007,100.0,0.0,100.0,0.0,100.0,0.0
7.1000000000000005,100.0,0.0,100.0,0.0,100.0,0.0
7.1500000000000004,100.0,0.0,100.0,0.0,100.0,0.0
7.2000000000000002,100.0,0.0,100.0,0.0,100.0,0.0
7.25,100.0,0.0,100.0,0.0,100.0,0.0
7.3000000000000007,100.0,0.0,100.0,0.0,100.0,0.0
7.3500000000000005,100.0,0.0,100.0,0.0,100.0,0.0
7.4000000000000004,100.0,0.0,100.0,0.0,100.0,0.0
7.4500000000000002,100.0,0.0,100.0,0.0,100.0,0.0
7.5,100.0,0.0,100.0,0.0,100.0,0.0
7.5500000000000007,100.0,0.0,100.0,0.0,100.0,0.0
7.6000000000000005,100.0,0.0,100.0,0.0,100.0,0.0
7.6500000000000004,100.0,0.0,100.0,0.0,100.0,0.0
7.7000000000000002,100.0,0.0,100.0,0.0,100.0,0.0
7.75,100.0,0.0,100.0,0.0,100.0,0.0
7.8000000000000007,100.0,0.0,100.0,0.0,100.0,0.0
7.8500000000000005,100.0,0.0,100.0,0.0,100.0,0.0
7.9000000000000004,100.0,0.0,100.0,0.0,100.0,0.0
7.9500000000000002,100.0,0.0,100.0,0.0,100.0,0.0
8.0,100.0,0.0,100.0,0.0,100.0,0.0
8.0500000000000007,100.0,0.0,100.0,0.0,100.0,0.0
8.0999999999999996,100.0,0.0,100.0,0.0,100.0,0.0
8.1500000000000004,100.0,0.0,100.0,0.0,100.0,0.0
8.2000000000000011,100.0,0.0,100.0,0.0,100.0,0.0
8.25,100.0,0.0,100.0,0.0,100.0,0.0
8.3000000000000007,100.0,0.0,100.0,0.0,100.0,0.0
8.3499999999999996,100.0,0.0,100.0,0.0,100.0,0.0
8.4000000000000004,100.0,0.0,100.0,0.0,100.0,0.0
8.4500000000000011,100.0,0.0,100.0,0.0,100.0,0.0
8.5,100.0,0.0,100.0,0.0,100.0,0.0
8.5500000000000007,100.0,0.0,100.0,0.0,100.0,0.0
8.5999999999999996,100.0,0.0,100.0,0.0,100.0,0.0
8.6500000000000004,100.0,0.0,100.0,0.0,100.0,0.0
8.7000000000000011,100.0,0.0,100.0,0.0,100.0,0.0
8.75,100.0,0.0,100.0,0.0,100.0,0.0
8.8000000000000007,100.0,0.0,100.0,0.0,100.0,0.0
8.8499999999999996,100.0,0.0,100.0,0.0,100.0,0.0
8.9000000000000004,100.0,0.0,100.0,0.0,100.0,0.0
8.9500000000000011,100.0,0.0,100.0,0.0,100.0,0.0
9.0,100.0,0.0,100.0,0.0,100.0,0.0
9.0500000000000007,100.0,0.0,100.0,0.0,100.0,0.0
9.0999999999999996,100.0,0.0,100.0,0.0,100.0,0.0
9.1500000000000004,100.0,0.0,100.0,0.0,100.0,0.0
9.2000000000000011,100.0,0.0,100.0,0.0,100.0,0.0
9.25,100.0,0.0,100.0,0.0,100.0,0.0
9.3000000000000007,100.0,0.0,100.0,0.0,100.0,0.0
9.3499999999999996,100.0,0.0,100.0,0.0,100.0,0.0
9.4000000000000004,100.0,0.0,100.0,0.0,100.0,0.0
9.4500000000000011,100.0,0.0,100.0,0.0,100.0,0.0
9.5,100.0,0.0,100.0,0.0,100.0,0.0
9.5500000000000007,100.0,0.0,100.0,0.0,100.0,0.0
9.6000000000000014,100.0,0.0,100.0,0.0,100.0,0.0
9.6500000000000004,100.0,0.0,100.0,0.0,100.0,0.0
9.7000000000000011,100.0,0.0,100.0,0.0,100.0,0.0
9.75,100.0,0.0,100.0,0.0,100.0,0.0
9.8000000000000007,100.0,0.0,100.0,0.0,100.0,0.0
9.8500000000000014,100.0,0.0,100.0,0.0,100.0,0.0
9.9000000000000004,100.0,0.0,100.0,0.0,100.0,0.0
9.9500000000000011,100.0,0.0,100.0,0.0,100.0,0.0
