epsilon,plal-mean,plal-std,random-mean,random-std,queries-mean,queries-std
0.01,0.1999999999999981,0.10801234497346257,5.0999999999999988,0.50166389810974499,64.23333333333332,0.50166389810974499
0.05,1.5333333333333361,0.45886332993120982,10.416666666666666,0.8409650541028566,34.033333333333339,0.8409650541028566
0.1,2.0666666666666678,0.51854497287013213,11.816666666666668,0.27182510717166986,27.600000000000005,0.27182510717166986
0.15,2.949999999999998,0.78740078740118447,12.266666666666671,0.47667832153583845,24.916666666666671,0.47667832153583845
0.2,4.3166666666666629,1.3205638526360177,13.200000000000003,0.40824829046386302,19.716666666666665,0.40824829046386302
0.25,5.7666666666666657,1.5434449203720344,14.15,1.1276819882691533,18.083333333333339,1.1276819882691533
0.3,16.116666666666671,12.41546974096787,14.616666666666669,1.7918023204459701,16.566666666666666,1.7918023204459701
