epsilon,plal-mean,plal-std,random-mean,random-std,queries-mean,queries-std
0.01,0.0,0.0,0.0,0.0,99.983333333333348,0.0
0.05,0.78333333333333621,0.12472191289246395,4.8666666666666698,0.23570226039551584,73.250000000000014,0.23570226039551584
0.1,2.8166666666666678,0.27182510717166547,8.8666666666666689,0.7318166133366738,52.583333333333321,0.7318166133366738
0.15,3.0666666666666629,0.84294457442678883,9.6166666666666689,0.8209073570683183,48.283333333333339,0.8209073570683183
0.2,6.5999999999999988,0.96263527187957665,12.549999999999997,0.20412414523193151,34.749999999999993,0.20412414523193151
0.25,9.9166666666666661,0.83399973354645429,14.4,0.60964470527239867,26.266666666666662,0.60964470527239867
0.3,9.7166666666666632,4.1641992694341052,14.85,3.0430248109405924,26.183333333333334,3.0430248109405924
