epsilon,plal-mean,plal-std,random-mean,random-std,queries-mean,queries-std
0.01,0.0,0.0,0.0,0.0,100.0,0.0
0.05,0.61666666666666481,0.023570226039556944,3.25,1.0984838035522708,87.59999999999998,1.0984838035522708
0.1,2.6833333333333322,0.30912061651652323,7.3666666666666645,0.25927248643506606,70.61666666666666,0.25927248643506606
0.15,4.3000000000000016,0.4813176359397851,9.8166666666666682,1.2263314759431407,62.000000000000007,1.2263314759431407
0.2,11.933333333333332,3.264540124155654,16.216666666666665,2.4813750668172325,38.93333333333333,2.4813750668172325
0.25,14.35,4.1087305419882059,17.049999999999997,2.4293346139769776,35.383333333333326,2.4293346139769776
0.3,9.9666666666666632,1.2873314344884987,15.25,1.2456591294036528,40.63333333333334,1.2456591294036528
