lambda,A-mean,A-std,B-mean,B-std,C-mean,C-std
0.0,0.0,0.0,0.0,0.0,0.0,0.0
0.050000000000000003,0.0,0.0,0.0,0.0,0.0,0.0
0.10000000000000001,0.0,0.0,0.0,0.0,0.0,0.0
0.15000000000000002,0.0,0.0,0.0,0.0,0.0,0.0
0.20000000000000001,0.0,0.0,0.0,0.0,0.0,0.0
0.25,0.0,0.0,0.0,0.0,0.0,0.0
0.30000000000000004,0.0,0.0,0.0,0.0,0.0,0.0
0.35000000000000003,0.0,0.0,0.0,0.0,0.0,0.0
0.40000000000000002,0.0,0.0,0.0,0.0,0.0,0.0
0.45000000000000001,0.0,0.0,0.0,0.0,0.0,0.0
0.5,0.0,0.0,0.0,0.0,0.0,0.0
0.55000000000000004,0.0,0.0,0.0,0.0,0.0,0.0
0.60000000000000009,0.0,0.0,0.0,0.0,0.0,0.0
0.65000000000000002,0.0,0.0,0.0,0.0,0.0,0.0
0.70000000000000007,0.0,0.0,0.0,0.0,0.0,0.0
0.75,0.0,0.0,0.0,0.0,0.0,0.0
0.80000000000000004,0.040000000000000001,0.12,0.0,0.0,0.0,0.0
0.85000000000000009,0.080000000000000002,0.16,0.0,0.0,0.0,0.0
0.90000000000000002,0.13999999999999999,0.31048349392520042,0.0,0.0,0.0,0.0
0.95000000000000007,0.27999999999999997,0.50754310161798077,0.0,0.0,0.0,0.0
1.0,0.64000000000000001,0.81877957961834891,0.0,0.0,0.0,0.0
1.05,0.92000000000000015,1.0127191120937733,0.0,0.0,0.0,0.0
1.1000000000000001,1.28,1.2623787070447601,0.040000000000000001,0.11999999999999998,0.0,0.0
1.1500000000000001,2.02,1.7098537949193202,0.12,0.35999999999999999,0.0,0.0
1.2000000000000002,2.8399999999999994,2.1143320458244017,0.23999999999999999,0.59866518188383055,0.0,0.0
1.25,3.7999999999999998,2.9202739597510368,0.56000000000000005,1.5512575543732257,0.0,0.0
1.3,4.8600000000000012,3.5665669767999595,1.02,2.8655889447022931,0.0,0.0
1.3500000000000001,6.3200000000000003,4.3333128204642692,1.48,3.995197116538808,0.0,0.0
1.4000000000000001,8.4600000000000009,5.1365747341978789,2.04,5.3529804782009069,0.0,0.0
1.4500000000000002,10.640000000000001,6.1036382592679912,2.4399999999999999,6.3079632211990573,0.0,0.0
1.5,13.1,7.0366185060723589,2.9599999999999995,7.1843162513909418,0.0,0.0
1.55,15.560000000000002,7.8637395684241733,3.4800000000000004,7.8461200602590848,0.0,0.0
1.6000000000000001,18.079999999999998,8.5478418328839005,4.1799999999999997,8.6991723744273521,0.039215686274509803,0.1176470588235294
1.6500000000000001,21.68,8.907614720002206,4.6799999999999997,8.8819817608459424,0.039215686274509803,0.1176470588235294
1.7000000000000002,25.040000000000003,9.7051738778859598,5.4400000000000004,8.9691917138614006,0.078431372549019607,0.15686274509803924
1.75,28.839999999999996,9.9823043431864971,6.2800000000000002,8.8146242120693952,0.098039215686274522,0.20092060325410979
1.8,32.359999999999999,10.790291933029431,7.2800000000000011,8.8666566415983432,0.15686274509803921,0.35941770156516389
1.8500000000000001,36.359999999999999,10.264813685596053,8.9399999999999995,8.7393592442466854,0.33333333333333331,0.8771085978958838
1.9000000000000001,40.140000000000001,10.281264513667571,10.620000000000001,8.8554841764863426,0.5490196078431373,1.3350623161215063
1.9500000000000002,44.380000000000003,10.115908263720069,12.08,8.9112064278637391,0.94117647058823528,2.3279720909264046
2.0,48.179999999999993,9.9287260008522757,14.24,9.0287540668688067,1.4509803921568629,3.5415911858433371
2.0500000000000003,51.659999999999989,9.2542098528183416,16.600000000000001,9.5074707467338548,1.8627450980392157,4.5304302394536373
2.1000000000000001,55.419999999999995,8.5306271750674902,18.919999999999998,10.31511512296397,2.4117647058823528,5.5355618697092961
2.1499999999999999,58.760000000000005,7.4413977181709603,21.18,11.442534684238455,3.0784313725490198,5.9712562812457479
2.2000000000000002,61.719999999999992,6.9548256628042111,23.680000000000007,12.158355151910971,4.0196078431372539,6.8953009312660303
2.25,64.319999999999993,6.5940579311983596,26.859999999999996,12.850852111825114,5.1372549019607838,7.0423555179946762
2.3000000000000003,67.200000000000017,6.0000000000000009,30.440000000000005,13.32810564183823,6.784313725490196,7.4619114863152856
2.3500000000000001,69.739999999999995,5.6441474112570802,34.039999999999999,13.639882697442822,8.8627450980392144,7.8763024285621839
2.4000000000000004,71.939999999999998,4.9808031480876673,38.5,14.132869489243859,11.647058823529411,8.8292791723659718
2.4500000000000002,73.739999999999995,4.7958732260142174,42.880000000000003,14.691004050098142,14.196078431372547,9.9700435581073314
2.5,75.52000000000001,4.2286640916488043,47.640000000000001,14.741180414064541,16.509803921568626,10.683593835387194
2.5500000000000003,76.719999999999999,3.6487806182339892,52.240000000000009,14.583771802932189,19.137254901960784,11.348249902757702
2.6000000000000001,78.200000000000017,3.1723808094237369,56.799999999999997,14.064138793399332,21.882352941176471,12.151864880305581
2.6500000000000004,79.260000000000019,2.5830989140952392,60.819999999999993,13.140304410476951,24.117647058823529,12.816991797568825
2.7000000000000002,80.460000000000008,2.0279053232338047,64.38000000000001,11.908803466343715,26.823529411764703,13.315963310730979
2.75,81.359999999999999,1.6218507946170622,67.819999999999993,10.142366587734836,29.725490196078432,13.612193461818849
2.8000000000000003,82.219999999999999,1.2663332894621382,70.780000000000001,8.3241576150382972,33.509803921568626,15.351939465981701
2.8500000000000001,83.11999999999999,1.1178550889985717,74.340000000000003,5.9551994089199063,37.294117647058819,17.722019441566868
2.9000000000000004,83.899999999999991,0.98488578017960904,76.900000000000006,4.1165519552168925,40.313725490196077,20.063375175989663
2.9500000000000002,84.440000000000012,0.9748846085563152,79.159999999999997,2.3165491576912385,42.803921568627445,21.614220972560471
3.0,84.959999999999994,0.76315136113355797,80.640000000000015,1.5383107618423504,44.450980392156865,21.775664084668811
3.0500000000000003,85.52000000000001,0.83522452071284725,81.660000000000011,1.2362847568420416,46.156862745098039,21.449976676521093
3.1000000000000001,85.939999999999998,0.76967525619575594,82.700000000000017,1.2782800945019814,47.647058823529413,20.818876183318164
3.1500000000000004,86.539999999999992,0.96767763227223547,83.719999999999999,1.1805083650698989,49.313725490196077,20.002739143453859
3.2000000000000002,86.980000000000004,0.87840765023991041,84.280000000000001,1.1426285485668584,51.509803921568633,19.264453922415594
3.25,87.420000000000002,0.88746830929335541,84.820000000000007,1.1079711187571646,54.176470588235304,19.171026533865327
3.3000000000000003,87.939999999999984,0.82486362509205058,85.47999999999999,1.2464349160706307,57.196078431372555,19.277022954663344
3.3500000000000001,88.340000000000003,0.69885620838624518,86.120000000000005,1.3212115651931011,60.666666666666664,19.447817579668737
3.4000000000000004,88.900000000000006,0.60827625302982358,86.920000000000002,1.1973303637676624,63.784313725490186,19.413755097006639
3.4500000000000002,89.340000000000003,0.42000000000000065,87.460000000000008,1.131547612785252,67.333333333333329,20.002921739680897
3.5,89.719999999999999,0.53814496188294925,88.260000000000019,1.004191216850655,70.803921568627445,20.903919637454369
3.5500000000000003,90.0,0.57271284253105437,88.940000000000012,0.92973114393355882,73.941176470588232,21.805905185549371
3.6000000000000001,90.200000000000017,0.57965506984757798,89.38000000000001,0.95686989711245773,76.941176470588246,22.685554244840855
3.6500000000000004,90.700000000000017,0.57445626465380462,90.100000000000009,1.1532562594670797,79.117647058823536,23.113023203367071
3.7000000000000002,90.88000000000001,0.52306787322488191,90.560000000000002,1.2579348154813148,80.372549019607845,23.408586837232679
3.75,91.38000000000001,0.5827520913733395,91.460000000000008,0.8901685233707165,81.078431372549019,23.531413313561107
3.8000000000000003,91.560000000000002,0.57131427428343018,91.859999999999999,0.91235957823656477,81.901960784313715,23.393734641003167
3.8500000000000001,91.799999999999997,0.52153619241621341,92.360000000000014,0.82849260708831896,83.254901960784309,22.84935537685962
3.9000000000000004,92.280000000000001,0.53814496188294947,92.740000000000009,0.69310893804653906,84.666666666666657,21.976849865868235
3.9500000000000002,92.47999999999999,0.56000000000000327,93.159999999999997,0.6560487786742667,86.568627450980387,20.412744132761869
4.0,92.88000000000001,0.49152822909778093,93.52000000000001,0.62096698785039695,88.64705882352942,17.848189330030952
4.0499999999999998,93.219999999999999,0.58957611891934336,93.940000000000012,0.69310893804653551,90.882352941176478,14.642805902759292
4.1000000000000005,93.580000000000013,0.41424630354415698,94.320000000000007,0.63371918071018907,93.235294117647058,9.7674812970447977
4.1500000000000004,94.080000000000013,0.5230678732248768,94.719999999999985,0.64621977685614029,95.274509803921575,6.0285428992964967
4.2000000000000002,94.519999999999996,0.49959983987187184,95.09999999999998,0.73891812807644663,96.509803921568633,4.0239574744581468
4.25,94.879999999999995,0.46647615158762323,95.599999999999994,0.68117545463705909,97.47058823529413,2.4824644524716719
4.2999999999999998,95.319999999999993,0.61449165982949061,95.980000000000004,0.68381283989115249,98.117647058823522,1.6503235617647676
4.3500000000000005,95.459999999999994,0.50635955604688743,96.299999999999997,0.67082039324993781,98.431372549019613,1.4541565660971869
4.4000000000000004,95.799999999999997,0.45607017003965417,96.640000000000015,0.54990908339469857,98.529411764705884,1.3899457724272364
4.4500000000000002,96.140000000000001,0.40049968789001555,96.959999999999994,0.49638694583963422,98.607843137254903,1.379394693095024
4.5,96.400000000000006,0.49799598391955008,97.099999999999994,0.39242833740697186,98.666666666666686,1.3205849600378616
4.5499999999999998,96.600000000000009,0.61967733539318726,97.399999999999991,0.34641016151377463,98.705882352941188,1.3100622030188283
4.6000000000000005,96.859999999999999,0.55892754449928372,97.560000000000002,0.30724582991474375,98.764705882352956,1.3183996450207249
4.6500000000000004,97.060000000000002,0.47370877129307976,97.859999999999999,0.48207883172776012,98.843137254901961,1.2690683235517206
4.7000000000000002,97.179999999999993,0.50159744815937646,98.079999999999998,0.54552726787943639,98.882352941176464,1.2526020591125064
4.75,97.339999999999989,0.44766058571198836,98.140000000000001,0.498397431775086,98.980392156862735,1.1593525881642746
4.8000000000000007,97.539999999999992,0.43863424398922823,98.340000000000003,0.50635955604688798,99.0,1.1713942769603036
4.8500000000000005,97.760000000000005,0.56426943918663652,98.440000000000012,0.44542114902640179,99.019607843137265,1.1699163835432407
4.9000000000000004,97.879999999999995,0.69397406291590158,98.640000000000001,0.42708313008125265,99.117647058823536,1.1608439306365255
4.9500000000000002,98.060000000000016,0.72691127381544896,98.719999999999999,0.43081318457076173,99.156862745098039,1.1601813484303551
5.0,98.379999999999995,0.5325410782277733,98.859999999999999,0.42000000000000154,99.235294117647058,1.0280569983465371
5.0500000000000007,98.47999999999999,0.53814496188294725,98.97999999999999,0.3627671429443432,99.274509803921575,0.9961479055592577
5.1000000000000005,98.600000000000009,0.48989794855663393,99.079999999999998,0.37094473981982884,99.274509803921575,0.9961479055592577
5.1500000000000004,98.719999999999999,0.51536394906900229,99.159999999999997,0.39799497484264706,99.333333333333329,0.9452526112308971
5.2000000000000002,98.819999999999993,0.55461698495448108,99.200000000000003,0.35777087639996746,99.35294117647058,0.89875816755810611
5.25,98.920000000000002,0.50754310161798022,99.219999999999999,0.37363083384538831,99.392156862745111,0.87006696989544285
5.3000000000000007,99.0,0.45607017003965544,99.260000000000005,0.32310988842806948,99.392156862745111,0.87006696989544285
5.3500000000000005,99.060000000000002,0.41999999999999943,99.359999999999999,0.31999999999999834,99.450980392156865,0.84927089520422461
5.4000000000000004,99.140000000000015,0.37999999999999845,99.420000000000016,0.27495454169734768,99.490196078431367,0.83741790212010303
5.4500000000000002,99.239999999999995,0.30724582991474281,99.480000000000018,0.23999999999999727,99.509803921568633,0.84222476842802108
5.5,99.439999999999998,0.26532998322842938,99.500000000000014,0.25690465157330017,99.549019607843135,0.82748815082389082
5.5500000000000007,99.5,0.22360679774997577,99.560000000000002,0.24979991993593334,99.568627450980401,0.7734542322869018
5.6000000000000005,99.52000000000001,0.23999999999999702,99.599999999999994,0.23664319132398201,99.568627450980401,0.7734542322869018
5.6500000000000004,99.599999999999994,0.17888543819997937,99.679999999999993,0.18330302779823249,99.607843137254903,0.66781907317358369
5.7000000000000002,99.619999999999976,0.16613247725835822,99.700000000000003,0.2049390153191914,99.627450980392169,0.65297356099398884
5.75,99.639999999999986,0.14966629547095522,99.780000000000001,0.22715633383201053,99.627450980392169,0.65297356099398884
5.8000000000000007,99.699999999999989,0.18439088914585575,99.780000000000001,0.22715633383201053,99.64705882352942,0.64318507713163664
5.8500000000000005,99.719999999999985,0.18330302779823124,99.780000000000001,0.22715633383201053,99.64705882352942,0.64318507713163664
5.9000000000000004,99.739999999999981,0.17999999999999719,99.799999999999983,0.17888543819998254,99.686274509803923,0.58298308813013988
5.9500000000000002,99.759999999999991,0.19595917942265181,99.859999999999985,0.12806248474865881,99.686274509803923,0.58298308813013988
6.0,99.840000000000003,0.12000000000000172,99.899999999999991,0.13416407864998928,99.686274509803923,0.58298308813013988
6.0500000000000007,99.840000000000003,0.12000000000000172,99.939999999999998,0.091651513899118103,99.725490196078425,0.53483065478375968
6.1000000000000005,99.840000000000003,0.12000000000000172,99.960000000000008,0.08000000000000114,99.725490196078425,0.53483065478375968
6.1500000000000004,99.859999999999985,0.12806248474865881,99.960000000000008,0.08000000000000114,99.725490196078425,0.53483065478375968
6.2000000000000002,99.859999999999985,0.12806248474865881,99.960000000000008,0.08000000000000114,99.745098039215691,0.52649888557245328
6.25,99.879999999999981,0.097979589711328516,99.960000000000008,0.08000000000000114,99.745098039215691,0.52649888557245328
6.3000000000000007,99.879999999999981,0.097979589711328516,99.97999999999999,0.060000000000000844,99.745098039215691,0.52649888557245328
6.3500000000000005,99.899999999999991,0.10000000000000143,99.97999999999999,0.060000000000000844,99.745098039215691,0.52649888557245328
6.4000000000000004,99.899999999999991,0.10000000000000143,99.97999999999999,0.060000000000000844,99.745098039215691,0.52649888557245328
6.4500000000000002,99.939999999999984,0.091651513899118103,99.97999999999999,0.060000000000000844,99.745098039215691,0.52649888557245328
6.5,99.959999999999994,0.08000000000000114,99.97999999999999,0.060000000000000844,99.745098039215691,0.52649888557245328
6.5500000000000007,100.0,0.0,99.97999999999999,0.060000000000000844,99.764705882352942,0.47058823529411997
6.6000000000000005,100.0,0.0,99.97999999999999,0.060000000000000844,99.764705882352942,0.47058823529411997
6.6500000000000004,100.0,0.0,99.97999999999999,0.060000000000000844,99.764705882352942,0.47058823529411997
6.7000000000000002,100.0,0.0,99.97999999999999,0.060000000000000844,99.784313725490193,0.41548274706700228
6.75,100.0,0.0,99.97999999999999,0.060000000000000844,99.784313725490193,0.41548274706700228
6.8000000000000007,100.0,0.0,99.97999999999999,0.060000000000000844,99.784313725490193,0.41548274706700228
6.8500000000000005,100.0,0.0,99.97999999999999,0.060000000000000844,99.784313725490193,0.41548274706700228
6.9000000000000004,100.0,0.0,99.97999999999999,0.060000000000000844,99.803921568627459,0.36155076303109235
6.9500000000000002,100.0,0.0,99.97999999999999,0.060000000000000844,99.803921568627459,0.36155076303109235
7.0,100.0,0.0,99.97999999999999,0.060000000000000844,99.803921568627459,0.36155076303109235
7.0500000000000007,100.0,0.0,99.97999999999999,0.060000000000000844,99.803921568627459,0.36155076303109235
7.1000000000000005,100.0,0.0,99.97999999999999,0.060000000000000844,99.803921568627459,0.36155076303109235
7.1500000000000004,100.0,0.0,99.97999999999999,0.060000000000000844,99.803921568627459,0.36155076303109235
7.2000000000000002,100.0,0.0,99.97999999999999,0.060000000000000844,99.82352941176471,0.35565406171013697
7.25,100.0,0.0,99.97999999999999,0.060000000000000844,99.82352941176471,0.35565406171013697
7.3000000000000007,100.0,0.0,99.97999999999999,0.060000000000000844,99.843137254901961,0.35941770156516267
7.3500000000000005,100.0,0.0,99.97999999999999,0.060000000000000844,99.843137254901961,0.35941770156516267
7.4000000000000004,100.0,0.0,99.97999999999999,0.060000000000000844,99.882352941176478,0.25110291127187551
7.4500000000000002,100.0,0.0,100.0,0.0,99.882352941176478,0.25110291127187551
7.5,100.0,0.0,100.0,0.0,99.882352941176478,0.25110291127187551
7.5500000000000007,100.0,0.0,100.0,0.0,99.882352941176478,0.25110291127187551
7.6000000000000005,100.0,0.0,100.0,0.0,99.882352941176478,0.25110291127187551
7.6500000000000004,100.0,0.0,100.0,0.0,99.901960784313729,0.23610969762337722
7.7000000000000002,100.0,0.0,100.0,0.0,99.921568627450981,0.17970885078258289
7.75,100.0,0.0,100.0,0.0,99.941176470588232,0.12555145563593698
7.8000000000000007,100.0,0.0,100.0,0.0,99.941176470588232,0.12555145563593698
7.8500000000000005,100.0,0.0,100.0,0.0,99.960784313725497,0.078431372549016484
7.9000000000000004,100.0,0.0,100.0,0.0,99.960784313725497,0.078431372549016484
7.9500000000000002,100.0,0.0,100.0,0.0,99.960784313725497,0.078431372549016484
8.0,100.0,0.0,100.0,0.0,99.980392156862735,0.058823529411762353
8.0500000000000007,100.0,0.0,100.0,0.0,99.980392156862735,0.058823529411762353
8.0999999999999996,100.0,0.0,100.0,0.0,99.980392156862735,0.058823529411762353
8.1500000000000004,100.0,0.0,100.0,0.0,99.980392156862735,0.058823529411762353
8.2000000000000011,100.0,0.0,100.0,0.0,99.980392156862735,0.058823529411762353
8.25,100.0,0.0,100.0,0.0,99.980392156862735,0.058823529411762353
8.3000000000000007,100.0,0.0,100.0,0.0,99.980392156862735,0.058823529411762353
8.3499999999999996,100.0,0.0,100.0,0.0,99.980392156862735,0.058823529411762353
8.4000000000000004,100.0,0.0,100.0,0.0,99.980392156862735,0.058823529411762353
8.4500000000000011,100.0,0.0,100.0,0.0,99.980392156862735,0.058823529411762353
8.5,100.0,0.0,100.0,0.0,99.980392156862735,0.058823529411762353
8.5500000000000007,100.0,0.0,100.0,0.0,99.980392156862735,0.058823529411762353
8.5999999999999996,100.0,0.0,100.0,0.0,99.980392156862735,0.058823529411762353
8.6500000000000004,100.0,0.0,100.0,0.0,99.980392156862735,0.058823529411762353
8.7000000000000011,100.0,0.0,100.0,0.0,100.0,0.0
8.75,100.0,0.0,100.0,0.0,100.0,0.0
8.8000000000000007,100.0,0.0,100.0,0.0,100.0,0.0
8.8499999999999996,100.0,0.0,100.0,0.0,100.0,0.0
8.9000000000000004,100.0,0.0,100.0,0.0,100.0,0.0
8.9500000000000011,100.0,0.0,100.0,0.0,100.0,0.0
9.0,100.0,0.0,100.0,0.0,100.0,0.0
9.0500000000000007,100.0,0.0,100.0,0.0,100.0,0.0
9.0999999999999996,100.0,0.0,100.0,0.0,100.0,0.0
9.1500000000000004,100.0,0.0,100.0,0.0,100.0,0.0
9.2000000000000011,100.0,0.0,100.0,0.0,100.0,0.0
9.25,100.0,0.0,100.0,0.0,100.0,0.0
9.3000000000000007,100.0,0.0,100.0,0.0,100.0,0.0
9.3499999999999996,100.0,0.0,100.0,0.0,100.0,0.0
9.4000000000000004,100.0,0.0,100.0,0.0,100.0,0.0
9.4500000000000011,100.0,0.0,100.0,0.0,100.0,0.0
9.5,100.0,0.0,100.0,0.0,100.0,0.0
9.5500000000000007,100.0,0.0,100.0,0.0,100.0,0.0
9.6000000000000014,100.0,0.0,100.0,0.0,100.0,0.0
9.6500000000000004,100.0,0.0,100.0,0.0,100.0,0.0
9.7000000000000011,100.0,0.0,100.0,0.0,100.0,0.0
9.75,100.0,0.0,100.0,0.0,100.0,0.0
9.8000000000000007,100.0,0.0,100.0,0.0,100.0,0.0
9.8500000000000014,100.0,0.0,100.0,0.0,100.0,0.0
9.9000000000000004,100.0,0.0,100.0,0.0,100.0,0.0
9.9500000000000011,100.0,0.0,100.0,0.0,100.0,0.0
