\begin{thebibliography}{1}

\bibitem{ourSSLpaper}
Ruth Urner, Shai Ben-David, and Shai Shalev-Shwartz.
\newblock Unlabeled data can speed up prediction time.
\newblock In {\em ICML}, 2011.

\end{thebibliography}
