epsilon,plal-mean,plal-std,random-mean,random-std,queries-mean,queries-std
0.01,0.14999999999999622,0.10801234497346476,6.9666666666666641,0.87970954802644541,57.866666666666674,0.87970954802644541
0.05,1.1833333333333325,0.63813965730255928,11.85,0.43011626335213055,31.266666666666662,0.43011626335213055
0.1,1.4166666666666667,0.37043517951487753,12.283333333333337,0.70277228807693781,29.000000000000004,0.70277228807693781
0.15,5.5999999999999988,1.4531574817158224,13.699999999999998,0.24832774042918823,20.333333333333332,0.24832774042918823
0.2,3.1500000000000008,1.1575836902790246,13.433333333333337,0.71918163367971322,22.466666666666665,0.71918163367971322
0.25,17.616666666666664,16.711290262042073,15.066666666666668,0.83798700599843623,15.883333333333335,0.83798700599843623
0.3,8.2666666666666657,3.0941701454330022,15.183333333333332,1.6539514973407063,14.716666666666667,1.6539514973407063
